$ 1 0.000005 0.22070718156067046 57 5 43
R 624 -16 624 -48 0 0 40 5 0 0 0.5
R 224 32 224 0 0 0 40 5 0 0 0.5
g 624 224 624 272 0
174 224 32 224 80 0 10000 0.9455000000000001 Resistance
g 224 96 224 112 0
w 240 64 256 64 0
f 560 80 624 80 32 1.5 0.02
f 560 144 624 144 32 1.5 0.02
w 256 64 256 112 0
w 624 64 624 16 0
w 624 96 624 128 0
r 624 -16 624 16 0 1000
r 320 16 320 48 0 1000
w 320 48 368 48 0
f 256 64 320 64 32 1.5 0.02
R 320 16 320 -16 0 0 40 5 0 0 0.5
g 320 80 320 96 0
g 320 240 320 256 0
R 320 176 320 144 0 0 40 5 0 0 0.5
f 256 224 320 224 32 1.5 0.02
w 320 208 368 208 0
r 320 176 320 208 0 1000
w 256 224 256 272 0
w 240 224 256 224 0
g 224 256 224 272 0
174 224 192 224 240 0 10000 0.9554000000000001 Resistance
R 224 192 224 160 0 0 40 5 0 0 0.5
g 320 400 320 416 0
R 320 336 320 304 0 0 40 5 0 0 0.5
f 256 384 320 384 32 1.5 0.02
w 320 368 368 368 0
r 320 336 320 368 0 1000
w 256 384 256 432 0
w 240 384 256 384 0
g 224 416 224 432 0
174 224 352 224 400 0 10000 0.9950000000000001 Resistance
R 224 352 224 320 0 0 40 5 0 0 0.5
207 368 208 384 176 4 /B
207 560 144 544 112 4 /B
207 368 48 384 16 4 /A
207 560 80 544 48 4 /A
207 256 64 272 32 4 A
207 256 224 272 192 4 B
207 368 368 384 336 4 /C
207 256 384 272 352 4 C
207 560 208 544 176 4 C
w 624 160 624 192 0
f 560 208 624 208 32 1.5 0.02
f 688 208 752 208 32 1.5 0.02
w 752 160 752 192 0
207 688 208 672 176 4 /C
207 688 80 672 48 4 /A
207 688 144 672 112 4 B
w 752 96 752 128 0
w 752 64 752 16 0
f 688 144 752 144 32 1.5 0.02
f 688 80 752 80 32 1.5 0.02
g 752 224 752 272 0
f 816 208 880 208 32 1.5 0.02
w 880 160 880 192 0
207 816 208 800 176 4 /C
207 816 80 800 48 4 A
207 816 144 800 112 4 /B
w 880 96 880 128 0
w 880 64 880 16 0
f 816 144 880 144 32 1.5 0.02
f 816 80 880 80 32 1.5 0.02
g 880 224 880 272 0
f 944 208 1008 208 32 1.5 0.02
w 1008 160 1008 192 0
207 944 208 928 176 4 C
207 944 80 928 48 4 A
207 944 144 928 112 4 B
w 1008 96 1008 128 0
w 1008 64 1008 16 0
f 944 144 1008 144 32 1.5 0.02
f 944 80 1008 80 32 1.5 0.02
g 1008 224 1008 272 0
w 624 16 752 16 0
w 752 16 880 16 0
w 880 16 1008 16 0
207 1120 0 1136 -32 4 Sum
g 1072 32 1072 48 0
R 1072 -32 1072 -64 0 0 40 5 0 0 0.5
f 1008 16 1072 16 32 1.5 0.02
w 1072 0 1120 0 0
r 1072 -32 1072 0 0 1000
r 1072 336 1072 368 0 1000
w 1072 368 1120 368 0
f 1008 384 1072 384 32 1.5 0.02
R 1072 336 1072 304 0 0 40 5 0 0 0.5
g 1072 400 1072 416 0
207 1120 368 1136 336 4 Carry
w 880 384 1008 384 0
w 752 384 880 384 0
w 624 384 752 384 0
g 1008 592 1008 640 0
f 944 448 1008 448 32 1.5 0.02
f 944 512 1008 512 32 1.5 0.02
w 1008 432 1008 384 0
w 1008 464 1008 496 0
207 944 512 928 480 4 B
207 944 448 928 416 4 A
207 944 576 928 544 4 C
w 1008 528 1008 560 0
f 944 576 1008 576 32 1.5 0.02
g 880 592 880 640 0
f 816 448 880 448 32 1.5 0.02
f 816 512 880 512 32 1.5 0.02
w 880 432 880 384 0
w 880 464 880 496 0
207 816 512 800 480 4 B
207 816 448 800 416 4 A
207 816 576 800 544 4 /C
w 880 528 880 560 0
f 816 576 880 576 32 1.5 0.02
g 752 592 752 640 0
f 688 448 752 448 32 1.5 0.02
f 688 512 752 512 32 1.5 0.02
w 752 432 752 384 0
w 752 464 752 496 0
207 688 512 672 480 4 B
207 688 448 672 416 4 /A
207 688 576 672 544 4 C
w 752 528 752 560 0
f 688 576 752 576 32 1.5 0.02
f 560 576 624 576 32 1.5 0.02
w 624 528 624 560 0
207 560 576 544 544 4 C
207 560 448 544 416 4 A
207 560 512 544 480 4 /B
r 624 352 624 384 0 1000
w 624 464 624 496 0
w 624 432 624 384 0
f 560 512 624 512 32 1.5 0.02
f 560 448 624 448 32 1.5 0.02
g 624 592 624 640 0
R 624 352 624 320 0 0 40 5 0 0 0.5
