<?xml version="1.0" encoding="UTF-8" standalone="no"?>
<!-- Created with Inkscape (http://www.inkscape.org/) -->

<svg
   xmlns:dc="http://purl.org/dc/elements/1.1/"
   xmlns:cc="http://creativecommons.org/ns#"
   xmlns:rdf="http://www.w3.org/1999/02/22-rdf-syntax-ns#"
   xmlns:svg="http://www.w3.org/2000/svg"
   xmlns="http://www.w3.org/2000/svg"
   xmlns:sodipodi="http://sodipodi.sourceforge.net/DTD/sodipodi-0.dtd"
   xmlns:inkscape="http://www.inkscape.org/namespaces/inkscape"
   width="210mm"
   height="297mm"
   viewBox="0 0 210 297"
   version="1.1"
   id="svg8"
   inkscape:version="0.92.3 (2405546, 2018-03-11)"
   sodipodi:docname="eletronicaA6_03.svg"
   inkscape:export-filename="/home/simoes/Documents/eletronicaA6_03.png"
   inkscape:export-xdpi="96"
   inkscape:export-ydpi="96">
  <defs
     id="defs2" />
  <sodipodi:namedview
     id="base"
     pagecolor="#ffffff"
     bordercolor="#666666"
     borderopacity="1.0"
     inkscape:pageopacity="0.0"
     inkscape:pageshadow="2"
     inkscape:zoom="0.98994949"
     inkscape:cx="8.4380129"
     inkscape:cy="395.66495"
     inkscape:document-units="mm"
     inkscape:current-layer="layer1"
     showgrid="false"
     inkscape:window-width="1366"
     inkscape:window-height="741"
     inkscape:window-x="0"
     inkscape:window-y="27"
     inkscape:window-maximized="1" />
  <metadata
     id="metadata5">
    <rdf:RDF>
      <cc:Work
         rdf:about="">
        <dc:format>image/svg+xml</dc:format>
        <dc:type
           rdf:resource="http://purl.org/dc/dcmitype/StillImage" />
        <dc:title />
      </cc:Work>
    </rdf:RDF>
  </metadata>
  <g
     inkscape:label="Layer 1"
     inkscape:groupmode="layer"
     id="layer1">
    <path
       style="fill:none;stroke:#000000;stroke-width:0.26458332px;stroke-linecap:butt;stroke-linejoin:miter;stroke-opacity:1"
       d="m 5.4806548,32.98363 c 0.2519841,-0.063 0.4988234,-0.152255 0.7559524,-0.188987 0.1870884,-0.02673 0.3779761,0 0.5669642,0 0.3779761,0 0.7559524,0 1.1339285,0 1.7008927,0 3.4017861,0 5.1026781,0 0.566965,0 1.133929,0 1.700893,0 0.08511,0 0.509449,0.02876 0.566965,0 0.07968,-0.03984 0.109303,-0.149148 0.188988,-0.188989 0.05635,-0.02817 0.132642,0.02817 0.188988,0 0.07968,-0.03984 0.109304,-0.149145 0.188988,-0.188989 0.118783,-0.05939 0.637169,0.05939 0.755952,0 0.07968,-0.03984 0.109304,-0.149146 0.188988,-0.188987 0.05635,-0.02817 0.132643,0.02817 0.188988,0 0.467066,-0.233534 -0.06523,-0.188989 0.377977,-0.188989"
       id="path152"
       inkscape:connector-curvature="0" />
    <path
       style="fill:none;stroke:#000000;stroke-width:0.26458332px;stroke-linecap:butt;stroke-linejoin:miter;stroke-opacity:1"
       d="m 5.1026784,39.031248 c 0.3149801,-0.06299 0.6299605,-0.125992 0.9449406,-0.188986 0.062996,-0.063 0.1044699,-0.160817 0.1889882,-0.18899 0.1195266,-0.03984 0.2584495,0.03984 0.3779761,0 0.084518,-0.02817 0.1093036,-0.149145 0.1889881,-0.188986 0.056345,-0.02817 0.1292246,0.01992 0.1889879,0 0.133635,-0.04454 0.2390296,-0.16583 0.3779764,-0.188989 0.2485556,-0.04143 0.5039682,0 0.7559524,0 0.6929561,0 1.3859126,0 2.0788689,0 1.637897,0 3.275794,0 4.91369,0 0.188989,0 0.383619,-0.04584 0.566965,0 0.08643,0.02162 0.10447,0.160816 0.188988,0.188989 0.01402,0.0047 1.092434,0.02074 1.133928,0 0.07968,-0.03984 0.125992,-0.125992 0.188988,-0.188989"
       id="path154"
       inkscape:connector-curvature="0" />
    <text
       xml:space="preserve"
       style="font-style:normal;font-weight:normal;font-size:4.23333311px;line-height:1.25;font-family:sans-serif;letter-spacing:0px;word-spacing:0px;fill:#000000;fill-opacity:1;stroke:none;stroke-width:0.26458332"
       x="5.6696429"
       y="25.802082"
       id="text158"><tspan
         sodipodi:role="line"
         id="tspan156"
         x="5.6696429"
         y="25.802082"
         style="stroke-width:0.26458332">110v CA</tspan></text>
    <path
       style="fill:none;stroke:#000000;stroke-width:0.26458332px;stroke-linecap:butt;stroke-linejoin:miter;stroke-opacity:1"
       d="m 37.041666,35.440477 c 0.314981,-0.063 0.625316,-0.157028 0.944941,-0.18899 0.313418,-0.03134 0.62996,0 0.944941,0 0.818949,0 1.637895,0 2.456844,0 1.700892,0 3.401785,0 5.10268,0 3.590771,0 7.181546,0 10.77232,0 0.692957,0 1.385914,0 2.078868,0 0.755954,0 1.512686,-0.03433 2.267858,0 0.632449,0.02875 1.257654,0.155713 1.889881,0.18899 0.566182,0.0298 1.133928,0 1.700893,0 0.629959,0 1.259922,0 1.889881,0 1.76389,0 3.527777,0 5.291667,0 6.110615,0 12.221231,0 18.331844,0 3.527779,0 7.055556,0 10.583336,0 1.19692,0 2.39385,0 3.59077,0 0.25199,0 0.50397,0 0.75595,0 0.25199,0 0.5115,-0.06112 0.75596,0 2.06798,0.516993 -0.68867,0.328006 1.70089,0.566962 0.31342,0.03134 0.62996,0 0.94494,0 1.00794,0 2.01587,0 3.02381,0 0.62996,0 1.26251,-0.05703 1.88988,0 0.3199,0.02908 0.62504,0.159906 0.94494,0.188989 0.37642,0.03422 0.75595,0 1.13393,0 0.44097,0 0.88194,0 1.32292,0 1.13392,0 2.26785,0 3.40178,0"
       id="path160"
       inkscape:connector-curvature="0" />
    <path
       style="fill:none;stroke:#000000;stroke-width:0.26458332px;stroke-linecap:butt;stroke-linejoin:miter;stroke-opacity:1"
       d="m 124.73214,32.038689 c 1.97471,1.974705 -0.3688,-0.209433 1.51191,1.13393 0.21748,0.155348 0.34032,0.42531 0.56696,0.566963 0.28768,0.1798 0.64839,0.213225 0.94494,0.377978 0.27534,0.152966 0.48247,0.410689 0.75595,0.566962 0.17297,0.09884 0.38879,0.0999 0.56697,0.18899 0.0797,0.03984 0.11486,0.13957 0.18899,0.188986 0.1172,0.07814 0.25198,0.125992 0.37797,0.188989 0.15346,0.07673 0.47077,0.185582 0.56697,0.377976 0.0282,0.05635 0,0.125992 0,0.188989 0,0.266817 -0.11519,0.624557 -0.37798,0.755952 -0.0563,0.02817 -0.14444,-0.04454 -0.18899,0 -0.96037,0.960374 0.29349,0.205108 -0.94494,1.133928 -0.29386,0.220397 -0.63504,0.369757 -0.94494,0.566965 -0.38325,0.243887 -0.74439,0.522231 -1.13393,0.755951 -0.24158,0.14495 -0.51437,0.233029 -0.75595,0.377979 -0.38953,0.233719 -0.73513,0.538421 -1.13393,0.755951 -0.29782,0.162446 -0.6361,0.237596 -0.94494,0.377976 -0.38471,0.174868 -0.74156,0.410017 -1.13393,0.566965 -0.24116,0.09647 -0.51275,0.09779 -0.75595,0.188987 -1.32531,0.496993 -0.2263,0.207645 -1.32292,0.755954 -0.35635,0.178178 -0.79228,0.17299 -1.13393,0.377976 -0.22918,0.137509 -0.37797,0.377976 -0.56696,0.566962"
       id="path162"
       inkscape:connector-curvature="0" />
    <text
       xml:space="preserve"
       style="font-style:normal;font-weight:normal;font-size:4.23333311px;line-height:1.25;font-family:sans-serif;letter-spacing:0px;word-spacing:0px;fill:#000000;fill-opacity:1;stroke:none;stroke-width:0.26458332"
       x="137.58333"
       y="22.400297"
       id="text166"><tspan
         sodipodi:role="line"
         id="tspan164"
         x="137.58333"
         y="22.400297"
         style="stroke-width:0.26458332">12v - 3V CC</tspan><tspan
         sodipodi:role="line"
         x="137.58333"
         y="27.691963"
         style="stroke-width:0.26458332"
         id="tspan168">Ajustável</tspan><tspan
         sodipodi:role="line"
         x="137.58333"
         y="32.983631"
         style="stroke-width:0.26458332"
         id="tspan170">I = 100mA</tspan></text>
    <path
       style="fill:none;stroke:#000000;stroke-width:0.26458332px;stroke-linecap:butt;stroke-linejoin:miter;stroke-opacity:1"
       d="m 4.1577381,70.970237 c 0,-1.385914 0,-2.771825 0,-4.157739 0,-0.377976 0,-0.755952 0,-1.133928 0,-0.125992 -0.024709,-0.254431 0,-0.377975 0.039068,-0.195342 0.1406724,-0.373703 0.1889879,-0.566965 0.01528,-0.06112 0,-0.125992 0,-0.188987 0,-0.188989 -0.037064,-0.381648 0,-0.566965 0.027626,-0.138128 0.1613625,-0.239847 0.1889882,-0.377976 0.037064,-0.185319 -0.037064,-0.381648 0,-0.566965 0.027626,-0.138128 0.1444432,-0.244343 0.1889882,-0.377976 0.01992,-0.05976 -0.01992,-0.129225 0,-0.188989 0.044545,-0.133633 0.1548235,-0.241318 0.1889881,-0.377976 0.030558,-0.122229 -0.030558,-0.255746 0,-0.377976 0.1370272,-0.548108 0.1474439,-0.221165 0.3779761,-0.566965 0.078137,-0.117205 0.1259919,-0.251983 0.1889882,-0.377975 0.062996,-0.125992 0.1366726,-0.247187 0.1889879,-0.377976 0.073985,-0.184962 0.115003,-0.382003 0.1889881,-0.566965 0.1728005,-0.432001 0.3007429,-0.501237 0.5669643,-0.944941 0.4396978,-0.732827 -0.129616,-0.01617 0.5669642,-0.944938 0.053454,-0.07127 0.1355344,-0.117719 0.1889882,-0.188989 0.3429675,-0.220959 0.3465682,-0.651079 0.5669642,-0.944941 0.15875,-0.211667 0.4082143,-0.355299 0.5669643,-0.566965 0.1362813,-0.181708 0.241695,-0.385255 0.3779763,-0.566963 0.1069078,-0.142544 0.2982918,-0.218609 0.3779761,-0.377976 0.1007938,-0.201588 -0.1870885,-0.252618 0.1889882,-0.377978 0.1195265,-0.03984 0.2519841,0 0.377976,0 0.4409724,0 0.8819444,0 1.3229164,0 0.503969,0 1.007937,0 1.511905,0 0.04491,0 0.713595,-0.02117 0.755953,0 0.07968,0.03984 0.109303,0.149148 0.188988,0.188989 0.11269,0.05635 0.265285,-0.05635 0.377976,0 0.07968,0.03984 0.109304,0.149146 0.188988,0.188989 0.05635,0.02817 0.125992,0 0.188988,0 0.125992,0.063 0.265285,0.104469 0.377976,0.188987 0.817428,0.817428 -0.05007,0.02962 0.755953,0.566965 0.07764,0.05176 0.515203,0.489323 0.566964,0.566965 0.156274,0.23441 0.20894,0.530569 0.377976,0.755952 0.160362,0.213815 0.41871,0.344582 0.566964,0.566965 0.156274,0.23441 0.221702,0.521541 0.377976,0.755951 0.09884,0.148254 0.298292,0.218607 0.377977,0.377976 0.02817,0.05635 -0.02817,0.132644 0,0.188989 0.07968,0.159367 0.279139,0.229722 0.377976,0.377976 0.063,0.125992 0.125992,0.251984 0.188988,0.377976 0,0.063 -0.02817,0.132644 0,0.188987 0.03984,0.07968 0.13957,0.11486 0.188988,0.188989 0.07814,0.117205 0.110851,0.26077 0.188988,0.377976 0.04942,0.07413 0.13957,0.114861 0.188988,0.188989 0.07814,0.117205 0.110851,0.260771 0.188988,0.377976 0.04942,0.07413 0.160816,0.10447 0.188988,0.188986 0.03984,0.119528 -0.03056,0.255746 0,0.377979 0.03417,0.136657 0.144444,0.24434 0.188989,0.377975 0.01992,0.05976 -0.01992,0.129226 0,0.188987 0.04454,0.133636 0.144443,0.244343 0.188988,0.377976 0.01992,0.05976 0,0.125992 0,0.188989 0,0.125992 0,0.251984 0,0.377976 0,0.125992 -0.03056,0.255746 0,0.377976 0.03416,0.136657 0.144443,0.244342 0.188988,0.377976 0.05976,0.179292 -0.03706,0.381648 0,0.566965 0.03907,0.195341 0.140672,0.373702 0.188988,0.566965 0.09449,0.377975 -0.188988,0 0,0.566965 0.02817,0.08451 0.160815,0.104468 0.188988,0.188986 0.03984,0.119528 -0.03056,0.255746 0,0.377976 0.03416,0.136657 0.144443,0.244343 0.188988,0.377976 0.03984,0.119528 -0.03984,0.25845 0,0.377978 0.04454,0.133633 0.144443,0.24434 0.188988,0.377976 0.01992,0.05976 -0.01992,0.129225 0,0.188987 0.04455,0.133635 0.144443,0.244342 0.188988,0.377975 0.01992,0.05976 -0.02817,0.132644 0,0.18899 0.03984,0.07968 0.13957,0.114861 0.188988,0.188989 0.481744,0.225917 0.07066,0.330314 0.188988,0.566962 0.07968,0.159369 0.298292,0.21861 0.377977,0.377976 0.02817,0.05635 -0.01992,0.129225 0,0.188989 0.04455,0.133636 0.144443,0.244343 0.188988,0.377976 0.01992,0.05976 -0.01992,0.129225 0,0.188989 0.08909,0.267269 0.251984,0.503968 0.377976,0.755952 0.188988,0.377976 0.377976,0.755952 0.566964,1.133927 0.063,0.125992 0.144443,0.244343 0.188988,0.377979 0.01992,0.05976 0,0.125992 0,0.188986 0,0.125992 -0.03984,0.258451 0,0.377976 0.02817,0.08452 0.13957,0.114861 0.188988,0.188989 0.07814,0.117206 0.110851,0.260771 0.188988,0.377976 0.04942,0.07413 0.13957,0.114861 0.188988,0.18899 0.07814,0.117205 0.110852,0.26077 0.188989,0.377975 0.04942,0.07413 0.139569,0.114861 0.188988,0.188987 0.07814,0.117205 0.08938,0.278371 0.188988,0.377976 0.280598,0.280598 0.784256,0.188989 1.133928,0.188989 0.063,0 0.132643,-0.02817 0.188988,0 0.07969,0.03984 0.109304,0.149146 0.188989,0.188989 0.04236,0.02117 0.711043,0 0.755952,0 0.31498,0 0.62996,0 0.944941,0 0.125992,0 0.258448,0.03984 0.377976,0 0.820518,-0.273508 -0.129834,-0.188989 0.944941,-0.188989 1.322916,0 2.645833,0 3.96875,0 0.377975,0 0.755951,0 1.133927,0 0.188989,0 0.377976,0 0.566965,0 0.063,0 0.132644,0.02817 0.188987,0 0.07968,-0.03984 0.109304,-0.149146 0.188989,-0.188989 0.201189,-0.100592 0.176789,0.100594 0.377976,0 0.203157,-0.101576 0.372197,-0.261115 0.566965,-0.377976 0.12079,-0.07247 0.265284,-0.104468 0.377976,-0.188987 0.142544,-0.106907 0.225189,-0.286303 0.377975,-0.377975 0.170823,-0.102495 0.396142,-0.08649 0.566965,-0.18899 0.152787,-0.09167 0.251984,-0.251984 0.377976,-0.377976 0.314981,-0.314981 0.62996,-0.629959 0.944941,-0.94494 0.285639,-0.285639 0.704297,-0.644139 0.944941,-0.944941 0.141891,-0.177364 0.241694,-0.385255 0.377976,-0.566965 0.05345,-0.07127 0.1559,-0.10627 0.188986,-0.188987 0.214628,-0.536564 0.122439,-1.000826 0.377979,-1.511906 0.101576,-0.203155 0.276397,-0.363807 0.377976,-0.566962 0.08909,-0.178181 0.0999,-0.388787 0.188986,-0.566965 0.03984,-0.07968 0.149146,-0.109305 0.188989,-0.188989 0.02817,-0.05635 0,-0.125992 0,-0.188987 0.063,-0.125992 0.11085,-0.260771 0.188987,-0.377976 0.04942,-0.07413 0.149148,-0.109304 0.188989,-0.188989 0.02817,-0.05635 -0.02817,-0.132644 0,-0.188989 0.03984,-0.07969 0.149146,-0.109302 0.188989,-0.188987 0.02817,-0.05634 0,-0.125992 0,-0.188989 0.063,-0.125992 0.11085,-0.260771 0.188987,-0.377976 0.04942,-0.07412 0.149146,-0.109304 0.188989,-0.188986 0.05635,-0.112692 -0.03984,-0.258451 0,-0.377979 0.04454,-0.133633 0.144442,-0.24434 0.188987,-0.377976 0.03984,-0.119525 -0.03984,-0.258447 0,-0.377975 0.04454,-0.133636 0.136673,-0.247187 0.188989,-0.377976 0.07399,-0.184963 0.0999,-0.388784 0.188987,-0.566965 0.03984,-0.07968 0.13957,-0.114861 0.188989,-0.188987 0.07814,-0.117205 0.110852,-0.260771 0.188989,-0.377976 0.04942,-0.07413 0.139568,-0.114861 0.188987,-0.188989 0.0997,-0.149548 0.511349,-0.967081 0.566965,-1.133927 0.187528,-0.562587 -0.447501,0.387765 0.188986,-0.566965 0.04942,-0.07413 0.139571,-0.114861 0.188989,-0.18899 0.156274,-0.23441 0.221703,-0.521541 0.377976,-0.755951 0.114692,-0.17204 0.483211,-0.399458 0.566965,-0.566965 0.02817,-0.05635 -0.01992,-0.129225 0,-0.188987 0.05083,-0.152506 0.474914,-1.011195 0.566965,-1.13393 0.106908,-0.142544 0.271069,-0.235431 0.377976,-0.377976 0.08452,-0.112691 0.125992,-0.251984 0.188987,-0.377975 0.125992,-0.251984 0.251984,-0.503968 0.377976,-0.755952"
       id="path174"
       inkscape:connector-curvature="0" />
    <path
       style="fill:none;stroke:#000000;stroke-width:0.26458332px;stroke-linecap:butt;stroke-linejoin:miter;stroke-opacity:1"
       d="m 0.75595238,64.355654 c 0.15151052,-0.796563 0.65763432,-0.04534 0.94494042,-0.188989 0.3048,-0.1524 0.073176,-0.225576 0.3779762,-0.377976 0.056345,-0.02817 0.1259921,0 0.1889881,0 0.1259921,0 0.2584496,0.03984 0.3779762,0 0.084518,-0.02817 0.1025583,-0.167381 0.1889882,-0.188987 0.1833454,-0.04584 0.377976,0 0.5669642,0 0.3779761,0 0.7570658,0.02899 1.1339285,0 0.4441372,-0.03417 0.8785995,-0.157252 1.3229166,-0.188989 0.4398516,-0.03142 0.8819447,0 1.3229167,0 0.7559524,0 1.5119048,0 2.2678572,0 0.3779761,0 0.7559523,0 1.1339283,0 0.440973,0 0.883244,-0.03382 1.322917,0 1.42862,0.109895 0.872619,0.218154 2.267857,0.566965 0.371749,0.09294 0.75459,0.134797 1.133929,0.188987 0.187088,0.02673 0.377976,0 0.566964,0 0.503968,0 1.007936,0 1.511905,0 1.133928,0 2.267857,0 3.401785,0 2.015873,0 4.031746,0 6.047619,0 0.251984,0 0.503968,0 0.755951,0 0.251987,0 0.508863,-0.04942 0.755955,0 0.08736,0.01746 0.104468,0.160816 0.188986,0.188989 0.119528,0.03984 0.251984,0 0.377976,0 0.063,0 0.129225,0.01992 0.188989,0 0.133636,-0.04454 0.241319,-0.154824 0.377976,-0.188989 0.12223,-0.03056 0.251984,0 0.377976,0 0.314981,0 0.629962,0 0.944941,0 0.629959,0 1.259922,0 1.889881,0 1.133928,0 2.267858,0 3.401785,0 0.440973,0 0.883066,-0.03142 1.322917,0 2.958431,0.211317 -0.321826,0.110402 2.645833,0.566965 0.373581,0.05747 0.757505,-0.03422 1.13393,0 0.319897,0.02908 0.625317,0.157024 0.944939,0.188989 0.626835,0.06268 1.263049,-0.06269 1.889881,0 0.319625,0.03196 0.625687,0.153514 0.944941,0.188986 0.250444,0.02783 0.503968,0 0.755952,0 0.314981,0 0.629962,0 0.944941,0 0.251983,0 0.507396,-0.04143 0.755951,0 0.138949,0.02315 0.23903,0.165831 0.377979,0.18899 0.248554,0.04143 0.503967,0 0.755951,0 0.188987,0 0.391494,-0.07019 0.566965,0 0.165434,0.06618 0.20665,0.329025 0.377976,0.377975 0.302861,0.08653 0.62996,0 0.944941,0 0.377976,0 0.755952,0 1.133927,0 1.25992,0 2.519842,0 3.779761,0 0.440973,0 0.883756,-0.03992 1.322917,0 0.861123,0.07829 0.577106,0.228815 1.322916,0.377976 0.123548,0.02471 0.251987,0 0.377979,0"
       id="path176"
       inkscape:connector-curvature="0" />
    <path
       style="fill:none;stroke:#000000;stroke-width:0.26458332px;stroke-linecap:butt;stroke-linejoin:miter;stroke-opacity:1"
       d="m 128.88988,67.001487 c 2.97941,-0.595884 -0.17397,0.120986 1.32292,-0.377976 0.11952,-0.03984 0.25198,0 0.37797,0 0.37798,0 0.75595,0 1.13393,0 0.62996,0 1.25992,0 1.88988,0 0.0988,0 0.70626,-0.02484 0.75595,0 0.0797,0.03984 0.10447,0.160814 0.18899,0.188987 0.1016,0.03387 0.59595,0 0.75595,0 0.56697,0 1.13393,0 1.7009,0 0.12798,0 1.23682,-0.0287 1.32291,0 0.0845,0.02817 0.10447,0.160816 0.18899,0.188989 0.17929,0.05976 0.37798,0 0.56697,0 0.44097,0 0.88194,0 1.32291,0 1.19693,0 2.39385,0 3.59078,0 1.00793,0 2.01587,0 3.02381,0 0.37797,0 0.75595,0 1.13392,0 0.18899,0 0.38055,-0.03107 0.56697,0 0.393,0.0655 0.7474,0.281345 1.13393,0.377976 0.0611,0.01527 0.12599,0 0.18899,0 0.31498,0 0.62996,0 0.94494,0 1.76388,0 3.52777,0 5.29166,0 0.37798,0 0.75596,0 1.13393,0 0.063,0 0.18899,-0.063 0.18899,0 0,0.233534 -0.26503,0.188989 -0.37798,0.188989"
       id="path178"
       inkscape:connector-curvature="0" />
    <path
       style="fill:none;stroke:#000000;stroke-width:0.26458332px;stroke-linecap:butt;stroke-linejoin:miter;stroke-opacity:1"
       d="m 128.88988,71.915178 c 0.25198,-0.063 0.50126,-0.138049 0.75595,-0.188989 0.12355,-0.02471 0.25199,0 0.37798,0 0.31498,0 0.62996,0 0.94494,0 1.07093,0 2.14186,0 3.2128,0 0.62996,0 1.25992,0 1.88988,0 0.21383,0 1.08654,0.0394 1.32291,0 0.25621,-0.0427 0.49781,-0.160303 0.75596,-0.188987 0.31305,-0.03478 0.62996,0 0.94494,0 0.56696,0 1.13392,0 1.70089,0 0.94494,0 1.88988,0 2.83482,0 0.16034,0 1.00854,0.03135 1.13393,0 1.07075,-0.535374 -0.28173,0.07043 0.75595,-0.188989 0.87997,-0.219993 -0.12402,-0.157983 0.75595,-0.377976 0.12224,-0.03056 0.25199,0 0.37798,0 0.44097,0 0.88195,0 1.32292,0 1.07093,0 2.14186,0 3.21279,0 3.2758,0 6.55159,0 9.82739,0"
       id="path180"
       inkscape:connector-curvature="0" />
    <path
       style="fill:none;stroke:#000000;stroke-width:0.26458332px;stroke-linecap:butt;stroke-linejoin:miter;stroke-opacity:1"
       d="m 0.75595238,53.772321 c 0.0853915,0.167102 0.0278453,0.345101 0.047247,0.519715 0.0105791,0.09521 0.036668,0.188273 0.047247,0.283483 0.0104352,0.09392 0,0.188989 0,0.283482 0,0.04725 -0.009266,0.09541 0,0.141743 0.006906,0.03453 0.0387059,0.06033 0.0472471,0.09449 0.007639,0.03056 0,0.063 0,0.09449 0,0.0315 0,0.063 0,0.09449 0,0.0945 0,0.188989 0,0.283482 0,0.283483 0,0.566965 0,0.850448 0,0.204737 0,0.409474 0,0.614212 0,0.06299 0,0.125991 0,0.188986 0,0.0315 -0.006177,0.06361 0,0.0945 0.12948942,0.388467 -0.016601,-0.09961 0.047247,0.28348 0.008188,0.04913 0.0410697,0.09232 0.047247,0.141743 0.009767,0.07814 0,0.15749 0,0.236235 0,0.188987 0,0.377976 0,0.566963 0,0.0945 0,0.188989 0,0.283482 0,0.04725 0,0.09449 0,0.141743 0,0.0315 0.005178,0.06342 0,0.09449 -0.0106751,0.06405 -0.0380639,0.124706 -0.047247,0.188987 -0.006682,0.04677 0.007767,0.09514 0,0.141742 -0.008188,0.04913 -0.031498,0.09449 -0.047247,0.14174 -0.0157491,0.063 -0.0380639,0.124706 -0.0472471,0.188989 -0.006682,0.04677 0,0.09449 0,0.14174 0,0.04725 0,0.0945 0,0.141743 0,0.08539 -0.0106061,0.256484 0,0.330729 0.009183,0.06428 0.0391929,0.124555 0.0472471,0.188987 0.007814,0.06251 0,0.125992 0,0.188989 0,0.07874 0,0.157491 0,0.236236 0,0.06299 -0.007814,0.126479 0,0.188986 0.0161084,0.128868 0.0761277,0.249413 0.094494,0.377976 0.006682,0.04677 -0.007767,0.09514 0,0.141743 0.008188,0.04913 0.0390595,0.09262 0.047247,0.14174 0.00777,0.0466 0,0.09449 0,0.141742 0,0.09449 0,0.188987 0,0.28348 0,0.362228 0,0.724456 0,1.086684 0,0.15749 0,0.314978 0,0.472469 0,0.04725 -0.00777,0.09514 0,0.141742 0.00819,0.04913 0.03748,0.0929 0.047247,0.14174 0.012354,0.06177 0,0.125992 0,0.188989 0,0.125992 0,0.251984 0,0.377976 0,0.330729 0,0.661459 0,0.992188 0,0.267732 0,0.535466 0,0.803198 0,0.063 0,0.125992 0,0.188989 0,0.04725 0.00777,0.09514 0,0.14174 -0.00819,0.04912 -0.031498,0.09449 -0.047247,0.141743 -0.015749,0.06299 -0.038064,0.124706 -0.047247,0.188986 -0.006682,0.04677 0,0.09449 0,0.141743 0,0.04725 0,0.09449 0,0.14174 0,0.14174 0,0.283482 0,0.425222 0,0.04725 0.006682,0.09497 0,0.141743 -0.009183,0.06428 -0.0391929,0.124555 -0.047247,0.188986 -0.007814,0.06251 0,0.125992 0,0.18899 0,0.110244 0,0.220485 0,0.330729 0,0.220485 0,0.440973 0,0.661458 0,0.09449 0,0.188987 0,0.283483 0,0.01574 0.00498,0.0323 0,0.04725 -0.0111363,0.03341 -0.0387059,0.06033 -0.047247,0.09449 -0.0152789,0.06112 0.0152786,0.127873 0,0.188989 -0.008541,0.03416 -0.038706,0.06033 -0.0472471,0.09449 -0.007639,0.03056 0,0.063 0,0.09449 0,0.07875 0,0.157491 0,0.236236 0,0.05159 -0.0101849,0.205679 0,0.236236 0.0111363,0.03341 0.0361108,0.06109 0.0472471,0.09449 0.0167352,0.05021 -0.0167352,0.138782 0,0.18899 0.0111363,0.03341 0.0387059,0.06033 0.047247,0.09449 0.0114591,0.04584 0,0.09449 0,0.14174 0,0.0945 0,0.188989 0,0.283482 0,0.267735 0,0.535467 0,0.803201 0,0.110242 0,0.220486 0,0.33073 0,0.0315 -0.006177,0.0636 0,0.09449 0.009767,0.04883 0.0374799,0.09291 0.047247,0.14174 0.0181718,0.09086 -0.0181718,0.192624 0,0.283482 0.0195342,0.09767 0.0749598,0.185812 0.094494,0.283483 0.00618,0.03089 0,0.063 0,0.09449 0,0.063 0,0.125992 0,0.188989"
       id="path184"
       inkscape:connector-curvature="0" />
    <path
       style="fill:none;stroke:#000000;stroke-width:0.26458332px;stroke-linecap:butt;stroke-linejoin:miter;stroke-opacity:1"
       d="M 1.0866815,73.616041 C 0.85044636,73.568805 0.61646797,73.50839 0.37797618,73.474328 c -0.0220488,-0.0031 0.031498,0.0315 0.047247,0.04725 0.0157491,0.01574 0.031498,0.0315 0.047247,0.04725 0.15669865,0.156696 -0.0222724,-0.04455 0.047247,0.09449 0.009961,0.01992 0.0348925,0.02871 0.047247,0.04725 0.0195342,0.0293 0.0277128,0.06519 0.047247,0.09449 0.0123545,0.01855 0.0372865,0.02733 0.047247,0.04725 0.007043,0.01408 -0.007043,0.03316 0,0.04725 0.019921,0.03984 0.069785,0.05743 0.0944941,0.09449 0.0195342,0.0293 0.0277128,0.06519 0.047247,0.09449 0.0123545,0.01852 0.0348925,0.02872 0.047247,0.04725 0.0195342,0.0293 0.031498,0.063 0.0472471,0.0945 0.015749,0.0315 0.0277128,0.06519 0.047247,0.09449 0.072077,0.108117 0.0373993,-0.02954 0.094494,0.14174 0.00941,0.02824 -0.024447,0.0945 0.047247,0.0945 0.022272,0 0.026118,-0.0402 0.047247,-0.04725 0.029882,-0.0099 0.064612,0.0099 0.094494,0 0.02113,-0.007 0.031498,-0.0315 0.047247,-0.04725 0.2592951,-0.259294 0.038899,-0.02037 0.2362351,-0.28348 0.026727,-0.03564 0.074573,-0.05465 0.094494,-0.0945 0.00704,-0.01407 0,-0.0315 0,-0.04725 0.015749,-0.0315 0.027713,-0.06519 0.047247,-0.09449 0.024709,-0.03706 0.069785,-0.05743 0.094494,-0.09449 0.019534,-0.0293 0.031498,-0.063 0.047247,-0.0945 0.015749,-0.0315 0.038706,-0.06033 0.047247,-0.09449 0.00764,-0.03056 0,-0.063 0,-0.09449 0,-0.01574 0.015718,-0.04823 0,-0.04725 -0.25345,0.01582 -0.5039683,0.06298 -0.7559524,0.09446"
       id="path186"
       inkscape:connector-curvature="0" />
    <path
       style="fill:none;stroke:#000000;stroke-width:0.26458332px;stroke-linecap:butt;stroke-linejoin:miter;stroke-opacity:1"
       d="m 1.5119047,54.717261 c -0.027063,-0.135313 -0.023214,-0.223808 -0.094494,-0.330729 -0.012354,-0.01852 -0.041845,-0.02564 -0.047247,-0.04725 -0.011459,-0.04584 0.00927,-0.09541 0,-0.141743 -0.00691,-0.03453 -0.031498,-0.063 -0.047247,-0.09449 -0.015749,-0.0315 -0.027713,-0.06519 -0.047247,-0.09449 -0.012354,-0.01855 -0.040204,-0.02611 -0.047247,-0.04725 -0.00996,-0.02988 0.00764,-0.06394 0,-0.09449 -0.057038,-0.228153 -0.022453,0.0024 -0.094494,-0.14174 -0.13623267,-0.272465 0.061364,-0.01267 -0.14174111,-0.283483 -0.15669866,-0.156699 0.0222723,0.04455 -0.047247,-0.09449 -0.009961,-0.01992 -0.0629961,-0.0315 -0.047247,-0.04725 0.015749,-0.01574 0.0695195,0.04725 0.047247,0.04725 -0.0352159,0 -0.0610854,-0.03611 -0.0944941,-0.04725 -0.006079,-0.0021 -0.13782817,-0.0019 -0.14174107,0 -0.019921,0.0099 -0.0273259,0.03729 -0.047247,0.04725 -0.0281727,0.01408 -0.0663214,-0.01408 -0.0944941,0 -0.0566964,0.02835 -0.0850446,0.113393 -0.14174105,0.14174 -0.0281727,0.01408 -0.0722216,-0.02228 -0.0944941,0 -0.0111363,0.01114 0,0.0315 0,0.04725 -0.0157491,0 -0.0331607,-0.007 -0.047247,0 -0.0398422,0.01992 -0.052235,0.08041 -0.0944941,0.09449 -0.0298816,0.0099 -0.09449404,0.0315 -0.09449404,0 0,-0.0315 0.1167665,-0.02228 0.09449404,0 C -0.06568289,53.88525 0.12803663,53.613809 0,53.677827 c -0.11676651,0.05838 0.01630863,0.04725 -0.09449405,0.04725 -0.015749,0 -0.03316068,-0.007 -0.04724702,0 -0.0199211,0.0099 -0.0694887,0.04607 -0.047247,0.04725 0.31454479,0.01656 0.62996032,0 0.94494047,0"
       id="path188"
       inkscape:connector-curvature="0" />
    <text
       xml:space="preserve"
       style="font-style:normal;font-weight:normal;font-size:4.23333311px;line-height:1.25;font-family:sans-serif;letter-spacing:0px;word-spacing:0px;fill:#000000;fill-opacity:1;stroke:none;stroke-width:0.26458332"
       x="0.94494045"
       y="52.07143"
       id="text192"><tspan
         sodipodi:role="line"
         id="tspan190"
         x="0.94494045"
         y="52.07143"
         style="stroke-width:0.26458332">180V</tspan></text>
    <text
       xml:space="preserve"
       style="font-style:normal;font-weight:normal;font-size:4.23333311px;line-height:1.25;font-family:sans-serif;letter-spacing:0px;word-spacing:0px;fill:#000000;fill-opacity:1;stroke:none;stroke-width:0.26458332"
       x="1.6536458"
       y="61.757065"
       id="text196"><tspan
         sodipodi:role="line"
         id="tspan194"
         x="1.6536458"
         y="61.757065"
         style="stroke-width:0.26458332">0V</tspan></text>
    <text
       xml:space="preserve"
       style="font-style:normal;font-weight:normal;font-size:4.23333311px;line-height:1.25;font-family:sans-serif;letter-spacing:0px;word-spacing:0px;fill:#000000;fill-opacity:1;stroke:none;stroke-width:0.26458332"
       x="2.8820682"
       y="75.127968"
       id="text200"><tspan
         sodipodi:role="line"
         id="tspan198"
         x="2.8820682"
         y="75.127968"
         style="stroke-width:0.26458332">-180V</tspan></text>
    <path
       style="fill:none;stroke:#000000;stroke-width:0.26458332px;stroke-linecap:butt;stroke-linejoin:miter;stroke-opacity:1"
       d="m 128.88988,59.441963 c 0,0.472472 0,0.944941 0,1.41741 0,0.251984 0.0313,0.505915 0,0.755954 -0.0322,0.257733 -0.15226,0.498822 -0.18899,0.755952 -0.0267,0.187089 0.0135,0.378457 0,0.566965 -0.0181,0.253299 -0.0776,0.502568 -0.0945,0.755951 -0.0147,0.219999 0,0.440974 0,0.661459 0,0.409474 0,0.818949 0,1.228423 0,0.346477 0,0.692954 0,1.039434 0,0.157491 -0.0157,0.315762 0,0.472469 0.11302,1.130261 0.0945,-0.02064 0.0945,0.755955 0,0.724453 0,1.448908 0,2.173361 0,0.220485 0,0.440973 0,0.661458 0,0.09449 0,0.18899 0,0.283483 0,0.063 -0.0124,0.127214 0,0.188989 0.0195,0.09767 0.0781,0.18523 0.0945,0.28348 0.0155,0.09321 0,0.188989 0,0.283483 0,0.314981 0,0.629959 0,0.94494 0,0.09449 -0.0134,0.18994 0,0.283483 0.11742,0.821981 0.0544,-0.01164 0.18898,0.661458 0.0124,0.06177 0,0.125992 0,0.18899 0,0.0315 -0.0141,0.06632 0,0.09449 0.0199,0.03984 0.0872,0.05055 0.0945,0.09449 0.0259,0.155348 0,0.314981 0,0.472472 0,0.157488 0,0.314978 0,0.472469 0,0.62996 0,1.259919 0,1.889882"
       id="path202"
       inkscape:connector-curvature="0" />
    <path
       style="fill:none;stroke:#000000;stroke-width:0.26458332px;stroke-linecap:butt;stroke-linejoin:miter;stroke-opacity:1"
       d="m 126.52753,60.859373 c 0.15749,-0.09449 0.3426,-0.153612 0.47247,-0.28348 0.12987,-0.129871 0.16875,-0.329054 0.28348,-0.472472 0.13913,-0.173918 0.32265,-0.307668 0.47247,-0.472469 0.5652,-0.621718 0.33005,-0.412562 0.75595,-0.944941 0.15368,-0.1921 0.32778,-0.368009 0.47247,-0.566965 0.10803,-0.148534 0.16254,-0.334248 0.28349,-0.472469 0.1037,-0.118525 0.27548,-0.163907 0.37797,-0.283482 0.0917,-0.106953 0.1191,-0.255672 0.18899,-0.377976 0.36999,-0.647481 0.005,0.02421 0.37798,-0.472472 5.3e-4,-7.94e-4 0.11673,-0.283482 0.18898,-0.283482 0.25742,0 0.25992,0.307498 0.28349,0.472471 0.0134,0.09354 0,0.188987 0,0.283483 0.0315,0.09449 0.0781,0.185232 0.0945,0.283482 0.0155,0.09321 -0.0186,0.190823 0,0.28348 0.0138,0.06906 0.0807,0.119925 0.0945,0.18899 0.0371,0.185316 -0.0458,0.383619 0,0.566965 0.0108,0.04321 0.0804,0.05223 0.0945,0.09449 0.0199,0.05976 -0.0199,0.129225 0,0.188989 0.0141,0.04226 0.0837,0.05128 0.0945,0.09449 0.0229,0.09167 -0.0155,0.190273 0,0.283483 0.0164,0.09825 0.0703,0.186849 0.0945,0.283482 0.0153,0.06111 0,0.125992 0,0.188987"
       id="path204"
       inkscape:connector-curvature="0" />
    <text
       xml:space="preserve"
       style="font-style:normal;font-weight:normal;font-size:4.23333311px;line-height:1.25;font-family:sans-serif;letter-spacing:0px;word-spacing:0px;fill:#000000;fill-opacity:1;stroke:none;stroke-width:0.26458332"
       x="129.55133"
       y="71.844307"
       id="text208"><tspan
         sodipodi:role="line"
         id="tspan206"
         x="129.55133"
         y="71.844307"
         style="stroke-width:0.26458332">0V</tspan></text>
    <text
       xml:space="preserve"
       style="font-style:normal;font-weight:normal;font-size:4.23333311px;line-height:1.25;font-family:sans-serif;letter-spacing:0px;word-spacing:0px;fill:#000000;fill-opacity:1;stroke:none;stroke-width:0.26458332"
       x="129.71671"
       y="65.418716"
       id="text212"><tspan
         sodipodi:role="line"
         id="tspan210"
         x="129.71671"
         y="65.418716"
         style="stroke-width:0.26458332">12V</tspan></text>
    <text
       xml:space="preserve"
       style="font-style:normal;font-weight:normal;font-size:4.23333311px;line-height:1.25;font-family:sans-serif;letter-spacing:0px;word-spacing:0px;fill:#000000;fill-opacity:1;stroke:none;stroke-width:0.26458332"
       x="55.5625"
       y="25.235117"
       id="text216"><tspan
         sodipodi:role="line"
         id="tspan214"
         x="55.5625"
         y="25.235117"
         style="stroke-width:0.26458332">Fonte de Tensão</tspan></text>
    <text
       xml:space="preserve"
       style="font-style:normal;font-weight:normal;font-size:4.23333311px;line-height:1.25;font-family:sans-serif;letter-spacing:0px;word-spacing:0px;fill:#000000;fill-opacity:1;stroke:none;stroke-width:0.26458332"
       x="25.390606"
       y="33.605881"
       id="text220"><tspan
         sodipodi:role="line"
         id="tspan218"
         x="25.390606"
         y="33.605881"
         style="stroke-width:0.26458332">Transformador</tspan><tspan
         sodipodi:role="line"
         x="25.390606"
         y="38.897549"
         style="stroke-width:0.26458332"
         id="tspan222">Reduzir a tensao</tspan><tspan
         sodipodi:role="line"
         x="25.390606"
         y="44.189213"
         style="stroke-width:0.26458332"
         id="tspan224">de 110V -&gt; 16V</tspan><tspan
         sodipodi:role="line"
         x="25.390606"
         y="49.480881"
         style="stroke-width:0.26458332"
         id="tspan226">Comerciais 110:12v</tspan></text>
    <text
       xml:space="preserve"
       style="font-style:normal;font-weight:normal;font-size:4.23333311px;line-height:1.25;font-family:sans-serif;letter-spacing:0px;word-spacing:0px;fill:#000000;fill-opacity:1;stroke:none;stroke-width:0.26458332"
       x="67.084656"
       y="31.601358"
       id="text230"><tspan
         sodipodi:role="line"
         id="tspan228"
         x="67.084656"
         y="31.601358"
         style="stroke-width:0.26458332">16V CA  Capacitor  CC</tspan><tspan
         sodipodi:role="line"
         x="67.084656"
         y="36.893024"
         style="stroke-width:0.26458332"
         id="tspan232" /><tspan
         sodipodi:role="line"
         x="67.084656"
         y="42.184692"
         style="stroke-width:0.26458332"
         id="tspan234">Ponte de Diodos</tspan></text>
    <path
       style="fill:none;stroke:#000000;stroke-width:0.26458332px;stroke-linecap:butt;stroke-linejoin:miter;stroke-opacity:1"
       d="m 7.8844509,115.12309 c 0.4859012,-0.36443 0.4252773,-0.407 0.9354434,-0.53454 0.043215,-0.0108 0.09042,0.0108 0.1336347,0 0.1366575,-0.0342 0.2619576,-0.11048 0.4009043,-0.13364 0.1318165,-0.022 0.2672697,0 0.4009044,0 0.2672693,0 0.5345393,0 0.8018083,0 1.113623,0 2.227246,0 3.340869,0 3.25178,0 6.503559,0 9.755338,0 5.211754,0 10.423511,0 15.635266,0 1.069078,0 2.138156,0 3.207234,0 0.97999,0 1.961086,-0.0466 2.939965,0 6.137902,0.29228 -0.616169,0.21819 5.078122,0.53454 0.800573,0.0445 1.603618,0 2.405425,0 2.939965,0 5.87993,0 8.819896,0 2.761784,0 5.523568,0 8.285355,0 0.801807,0 1.603616,0 2.405425,0 0.801809,0 1.609109,0.0937 2.405425,0 0.729623,-0.0858 1.416889,-0.39494 2.138156,-0.53454 0.661805,-0.12809 1.33635,-0.17818 2.004523,-0.26727 1.916705,-0.25556 3.834358,-0.51212 5.746295,-0.80181 4.809678,-0.72874 0.380175,-0.11371 4.677217,-0.66817 0.668544,-0.0863 1.331833,-0.22387 2.00452,-0.26727 0.71124,-0.0459 1.430319,0.0833 2.138156,0 0.815742,-0.096 1.589686,-0.43857 2.405425,-0.53454 0.707837,-0.0833 1.425438,0 2.138156,0 0.712719,0 1.425438,0 2.138156,0 2.31634,0 4.63267,0 6.94901,0 7.88445,0 15.7689,0 23.65335,0"
       id="path236"
       inkscape:connector-curvature="0" />
    <path
       style="fill:none;stroke:#000000;stroke-width:0.26458332px;stroke-linecap:butt;stroke-linejoin:miter;stroke-opacity:1"
       d="m 131.36297,107.63954 c 0.0651,0.0521 1.0467,0.84877 1.20271,0.93544 0.2097,0.1165 0.45848,0.15077 0.66818,0.26727 1.927,1.07056 -1.21214,-0.35659 1.33635,0.80181 0.5477,0.24896 0.94929,0.32104 1.46998,0.66817 0.15725,0.10484 0.24971,0.28752 0.4009,0.40091 0.20779,0.15584 0.45539,0.25195 0.66818,0.4009 1.51869,1.06309 0.13425,0.13415 0.93544,0.80181 0.1711,0.14259 0.37705,0.24342 0.53454,0.40091 0.526,0.52599 0.006,0.27144 0.53454,0.66817 0.0797,0.0598 0.18439,0.0784 0.26727,0.13363 0.0524,0.0349 0.0891,0.0891 0.13363,0.13364 0.0445,0.0445 0.10546,0.0773 0.13364,0.13363 0.0199,0.0399 0,0.0891 0,0.13364 0,0.0445 0.0267,0.098 0,0.13363 -0.1134,0.15119 -0.24972,0.28752 -0.40091,0.40091 -0.7654,0.57405 -0.8177,0.40487 -1.87088,0.66817 -0.49273,0.12318 -1.00422,0.1984 -1.46999,0.40091 -0.56751,0.24674 -1.05457,0.64994 -1.60362,0.93544 -3.68232,1.91481 0.13422,-0.17456 -3.34086,1.33634 -0.51186,0.22255 -0.961,0.57277 -1.46999,0.80181 -0.86957,0.39131 -1.19655,0.23987 -1.87088,0.80181 -0.0765,0.0638 -0.0891,0.17818 -0.13364,0.26727"
       id="path238"
       inkscape:connector-curvature="0" />
    <text
       xml:space="preserve"
       style="font-style:normal;font-weight:normal;font-size:4.23333311px;line-height:1.25;font-family:sans-serif;letter-spacing:0px;word-spacing:0px;fill:#000000;fill-opacity:1;stroke:none;stroke-width:0.26458332"
       x="7.7508163"
       y="105.63502"
       id="text242"><tspan
         sodipodi:role="line"
         id="tspan240"
         x="7.7508163"
         y="105.63502"
         style="stroke-width:0.26458332">14V CC    Regulador LM317</tspan><tspan
         sodipodi:role="line"
         x="7.7508163"
         y="110.92668"
         style="stroke-width:0.26458332"
         id="tspan246">                  Potenciometro</tspan><tspan
         sodipodi:role="line"
         x="7.7508163"
         y="116.21835"
         style="stroke-width:0.26458332"
         id="tspan244" /></text>
    <text
       xml:space="preserve"
       style="font-style:normal;font-weight:normal;font-size:4.23333311px;line-height:1.25;font-family:sans-serif;letter-spacing:0px;word-spacing:0px;fill:#000000;fill-opacity:1;stroke:none;stroke-width:0.26458332"
       x="74.701836"
       y="108.37453"
       id="text250"><tspan
         sodipodi:role="line"
         id="tspan248"
         x="74.701836"
         y="108.37453"
         style="stroke-width:0.26458332">12V - 3V     LED   </tspan><tspan
         sodipodi:role="line"
         x="74.701836"
         y="113.66619"
         style="stroke-width:0.26458332"
         id="tspan252" /><tspan
         sodipodi:role="line"
         x="74.701836"
         y="118.95786"
         style="stroke-width:0.26458332"
         id="tspan254">Voltimetro LEDs</tspan><tspan
         sodipodi:role="line"
         x="74.701836"
         y="124.24953"
         style="stroke-width:0.26458332"
         id="tspan256">Sete segmentos</tspan></text>
    <path
       style="fill:none;stroke:#000000;stroke-width:0.26458332px;stroke-linecap:butt;stroke-linejoin:miter;stroke-opacity:1"
       d="m 25.123335,175.9269 c 0.214269,-1.12651 0.930036,-0.0641 1.336347,-0.26727 0.112692,-0.0563 0.154581,-0.21092 0.267269,-0.26727 0.07969,-0.0398 0.178181,0 0.267272,0 0.445447,0 0.890897,0 1.336347,0 0.08909,0 0.178178,0 0.267268,0 0.08909,0 0.187587,0.0398 0.267269,0 0.112692,-0.0563 0.15458,-0.21092 0.267272,-0.26727 0.157694,-0.0788 0.617971,0.0613 0.801809,0 0.188987,-0.063 0.345548,-0.20427 0.534538,-0.26727 0.150794,-0.0503 0.626184,0 0.801809,0 0.112429,0 1.524111,0.0398 1.603616,0 0.112691,-0.0563 0.15458,-0.21092 0.267271,-0.26727 0.09665,-0.0483 1.150451,0 1.336347,0 0.890897,0 1.781797,0 2.672694,0 1.959978,0 3.919953,0 5.87993,0 0.860328,0 -0.456258,0.063 0.534538,-0.26726 0.169037,-0.0563 0.35636,0 0.534541,0 0.267268,0 0.53454,0 0.801809,0 0.356359,0 0.712718,0 1.069078,0 0.44545,0 0.894336,-0.0553 1.336347,0 0.27955,0.0349 0.523914,0.22095 0.801809,0.26726 0.263633,0.0439 0.537226,-0.0378 0.801809,0 0.363633,0.052 0.704585,0.22171 1.069078,0.26727 0.545769,0.0682 1.508009,0 2.138156,0 0.175625,0 0.651015,-0.0503 0.801807,0 0.188989,0.063 0.349578,0.19329 0.53454,0.26727 0.261578,0.10463 0.560229,0.12232 0.801809,0.26727 1.336347,0.80181 0,0.26727 0.801807,0.80181 0.165753,0.1105 0.363717,0.16478 0.53454,0.26727 0.547434,-0.0552 0.715566,0.56613 1.069078,0.80181 0.442804,0.2952 0.607021,0.26727 1.069078,0.26727 0.08909,0 0.182751,-0.0282 0.267269,0 0.656188,0.21873 1.133433,0.86616 1.603619,1.33635 0.178178,0.17818 0.356359,0.35636 0.534537,0.53454 0.08909,0.0891 0.197382,0.16243 0.267272,0.26727 0.221004,0.3315 0.313534,0.73757 0.534537,1.06907 0.06989,0.10483 0.197382,0.16244 0.267269,0.26727 0.110504,0.16576 0.178181,0.35636 0.267272,0.53454 0.08909,0.17818 0.218953,0.34128 0.267269,0.53454 0.04321,0.17286 -0.04321,0.36168 0,0.53454 0.04832,0.19326 0.218953,0.34128 0.267268,0.53454 0.05434,0.21734 0,1.32383 0,1.60362 0,0.0891 -0.02817,0.18275 0,0.26727 0.063,0.18898 0.204275,0.34555 0.267269,0.53453 0.02817,0.0845 0,0.17818 0,0.26728 0,0.26726 0,0.53453 0,0.8018 0,0.17818 -0.03494,0.35982 0,0.53454 0.05525,0.27626 0.198943,0.52849 0.267272,0.80181 0.02162,0.0864 0,0.17818 0,0.26727 0,0.17818 0,0.35636 0,0.53454 0,0.44545 0,0.8909 0,1.33635 0,0.0891 -0.03984,0.18758 0,0.26727 0.05634,0.11269 0.30711,0.14774 0.267269,0.26727 -0.22673,0.68018 -1.117418,0.63974 -1.603619,0.8018 -0.377976,0.126 -0.678391,0.45641 -1.069078,0.53454 -0.262077,0.0524 -0.544822,-0.0734 -0.801806,0 -0.383093,0.10946 -0.691103,0.40855 -1.069081,0.53454 -0.240541,0.0802 -0.561266,-0.0802 -0.801807,0 -0.188989,0.063 -0.345551,0.20428 -0.53454,0.26727 -0.08452,0.0282 -0.178178,0 -0.267269,0 -0.979987,0 -1.959978,0 -2.939965,0 -0.801809,0 -1.603616,0 -2.405425,0 -1.247259,0 -2.494515,0 -3.741774,0 -0.445448,0 -0.890898,0 -1.336347,0 -0.267269,0 -0.538176,0.0439 -0.80181,0 -0.277891,-0.0463 -0.528492,-0.19894 -0.801806,-0.26727 -0.159729,-0.0399 -0.53454,0.11947 -0.53454,-0.26727 0,-0.12599 0.227427,-0.14774 0.267268,-0.26727 0.04059,-0.12175 0,-1.68988 0,-1.87088 0,-0.0891 -0.02817,-0.18276 0,-0.26727 0.063,-0.18899 0.156769,-0.36879 0.267272,-0.53454 0.04895,-0.0734 0.745482,-0.78304 0.801806,-0.80181 0.430959,-0.14365 0.895641,-0.15709 1.33635,-0.26727 1.000699,-0.25017 1.943301,-0.86975 2.939963,-1.06908 0.26208,-0.0524 0.53454,0 0.801809,0 0.53454,0 1.069078,0 1.603618,0 0.267269,0 0.538176,-0.0439 0.801807,0 0.575815,0.096 1.961472,0.80271 2.405427,1.06908 0.108038,0.0648 0.166476,0.19167 0.267269,0.26727 0.256974,0.19273 0.534538,0.35636 0.801809,0.53454 0.534538,0.35636 1.101958,0.66775 1.603616,1.06908 0.196768,0.15741 0.356359,0.35636 0.53454,0.53454 0.267269,0.26726 0.60148,0.48128 0.80181,0.8018 0.254272,0.40684 0.296508,0.9198 0.534537,1.33635 0.125019,0.21879 0.38335,0.33295 0.534541,0.53454 0.239051,0.31874 0.313534,0.73757 0.534537,1.06908 0.139777,0.20966 0.421849,0.30916 0.534541,0.53454 0.07066,0.14132 -0.03256,0.93886 0,1.06908 0.09663,0.38652 0.386567,0.69915 0.534537,1.06907 0.687848,1.71962 -0.251571,-0.0944 0.534541,1.87089 0.04679,0.11698 0.236712,0.14504 0.267269,0.26727 0.06482,0.25929 -0.04394,0.53818 0,0.80181 0.04631,0.27789 0.19894,0.52849 0.267269,0.80181 0.02162,0.0864 -0.02817,0.18275 0,0.26727 0.290816,0.87244 0.349154,0.22403 0.53454,1.33634 0.04394,0.26364 -0.06482,0.54252 0,0.80181 0.03056,0.12223 0.236712,0.14504 0.267269,0.26727 0.06482,0.25929 -0.05242,0.53973 0,0.80181 0.03907,0.19534 0.218953,0.34128 0.267269,0.53454 0.06922,0.27686 0,0.76261 0,1.06908 0,0.97395 0.05242,1.01926 -0.267269,2.13816 -0.05473,0.19154 -0.193286,0.34957 -0.267269,0.53453 -0.104632,0.26158 -0.14128,0.54983 -0.267272,0.80181 -0.143652,0.28731 -0.390884,0.51451 -0.534537,0.80181 -0.125992,0.25199 -0.141277,0.54982 -0.267269,0.80181 -0.05635,0.11269 -0.191675,0.16648 -0.267272,0.26727 -0.19273,0.25697 -0.341807,0.54483 -0.534537,0.80181 -0.226785,0.30238 -0.534541,0.53454 -0.80181,0.80181 -0.08909,0.0891 -0.154577,0.21092 -0.267268,0.26727 -0.251984,0.12599 -0.540232,0.16263 -0.80181,0.26727 -0.184962,0.074 -0.349575,0.19328 -0.534537,0.26726 -0.261578,0.10464 -0.540234,0.16264 -0.80181,0.26727 -0.623178,0.24928 -0.576558,0.40791 -1.336349,0.53454 -0.263631,0.0439 -0.534538,0 -0.801807,0 -0.53454,0 -1.069078,0 -1.603618,0 -0.995082,0 -1.801675,0.19131 -2.672694,-0.53454 -0.246766,-0.20563 -0.333878,-0.55098 -0.53454,-0.8018 -0.157414,-0.19677 -0.404895,-0.31847 -0.534538,-0.53454 -0.144949,-0.24158 -0.141279,-0.54983 -0.267271,-0.80181 -0.112689,-0.22538 -0.421847,-0.30916 -0.534538,-0.53454 -0.03984,-0.0797 0,-0.17818 0,-0.26727 0,-0.17818 0,-0.35636 0,-0.53454 0,-0.88479 0.719003,-1.14061 1.336347,-1.60362 0.751734,-0.5638 -0.493625,-0.0205 1.069078,-0.8018 0.251984,-0.126 0.53454,-0.17819 0.801809,-0.26728 1.922463,-0.64081 -0.4783,0.13666 1.870887,-0.53453 0.270886,-0.0774 0.528492,-0.19894 0.801807,-0.26727 0.228661,-0.0572 1.06921,0 1.336349,0 0.178179,0 0.365504,0.0563 0.534538,0 0.119528,-0.0399 0.15458,-0.21093 0.267269,-0.26727 0.07968,-0.0399 0.178181,0 0.267271,0 0.08909,0 0.178179,0 0.267269,0 0.267269,0 0.562756,-0.11953 0.80181,0 0.140234,0.0701 1.393565,0.98626 1.603615,1.33635 0.289896,0.48315 0.282557,1.09964 0.534541,1.60361 0.05635,0.11269 0.178178,0.17818 0.267268,0.26727 0.178181,0.17818 0.38335,0.33295 0.534541,0.53454 0.119525,0.15937 0.178178,0.35636 0.267269,0.53454 0.08909,0.17818 0.178178,0.35636 0.267269,0.53454 0.08909,0.17818 0.178181,0.35636 0.267268,0.53454 0.08909,0.17818 0.218956,0.34127 0.267272,0.53454 0.04321,0.17286 -0.04322,0.36168 0,0.53454 0.04831,0.19326 0.193283,0.34957 0.267269,0.53453 0.104629,0.26158 0.162639,0.54024 0.267269,0.80181 0.07399,0.18497 0.193283,0.34958 0.267268,0.53454 0.660533,1.65133 -0.09225,0.0828 0.534541,1.33635 0.08909,0.17818 0.218953,0.34128 0.267269,0.53454 0.108037,0.43215 -0.08736,0.89955 0,1.33635 0.03907,0.19534 0.218953,0.34127 0.267268,0.53454 0.04322,0.17286 0,0.35636 0,0.53453 0,0.26728 0,0.53454 0,0.80181 0,0.80181 0,1.60362 0,2.40543 0,0.29737 0.04984,1.72136 0,1.87088 -0.101576,0.30474 -0.415239,0.50357 -0.534537,0.80181 -0.06618,0.16544 0.06618,0.36911 0,0.53454 -0.07897,0.19743 -0.513506,0.85285 -0.801809,1.06908 -0.256974,0.19273 -0.534538,0.35636 -0.80181,0.53454 -0.267268,0.17818 -0.50656,0.40801 -0.801806,0.53454 -2.602942,1.11554 -0.04157,-0.12324 -1.603619,0.26727 -0.193262,0.0483 -0.345551,0.20427 -0.534537,0.26727 -0.08452,0.0282 -0.204274,-0.063 -0.267272,0 -0.06299,0.063 0.07969,0.22743 0,0.26727 -0.776332,0.38816 -0.326662,-0.14848 -0.801806,-0.26727 -0.259292,-0.0648 -0.534541,0 -0.80181,0 -0.62363,0 -1.247259,0 -1.870887,0 -0.178181,0 -0.365503,0.0563 -0.53454,0 -0.456256,-0.15209 -0.267269,-0.78653 -0.267269,-1.06908 0,-0.80181 0,-1.60362 0,-2.40542 0,-0.26428 -0.05808,-0.83677 0,-1.06908 0.06833,-0.27332 0.141277,-0.54983 0.267269,-0.80181 0.05635,-0.11269 0.178181,-0.17818 0.267271,-0.26727 0.404429,-0.40443 0.782712,-0.84763 1.336347,-1.06908 0.165436,-0.0662 0.36168,0.0432 0.534538,0 0.193265,-0.0483 0.339198,-0.2282 0.53454,-0.26727 0.436798,-0.0874 0.904198,0.10804 1.336347,0 0.193265,-0.0483 0.341276,-0.21895 0.534541,-0.26727 0.17286,-0.0432 0.356359,0 0.534537,0 0.35636,0 0.712719,0 1.069078,0 0.267272,0 0.548257,-0.0845 0.80181,0 0.304733,0.10158 0.503565,0.41524 0.801809,0.53454 0.775811,0.31033 0.328141,-0.26727 1.069078,-0.26727 0.08909,0 -0.063,0.20427 0,0.26727 0.06299,0.063 0.178178,0 0.267269,0 0.08909,0.26727 0.19894,0.52849 0.267268,0.80181 0.08357,0.33429 -0.109071,0.74186 0,1.06908 0.03984,0.11952 0.210926,0.15458 0.267272,0.26727 0.03984,0.0797 -0.02162,0.18084 0,0.26727 0.06833,0.27331 0.212019,0.52555 0.267269,0.80181 0.03494,0.17472 0,0.35635 0,0.53453 0,0.53454 0,1.06908 0,1.60362 0,0.21881 0.05772,1.16318 0,1.33635 -0.125992,0.37797 -0.437907,0.68255 -0.534541,1.06908 -0.231433,0.92574 0.338437,0.16052 -0.267268,1.06907 -0.209664,0.3145 -0.592146,0.48732 -0.80181,0.80181 -0.04942,0.0741 0.04942,0.19315 0,0.26727 -0.27955,0.41933 -0.766696,0.66591 -1.069078,1.06908 -0.119525,0.15937 -0.101515,0.42404 -0.267268,0.53454 -0.32216,0.21477 -1.260986,-0.33234 -1.603616,0.26727 -0.268865,0.47051 0.05788,1.17009 -0.267272,1.60362 -0.492053,0.65607 -0.43081,-1.17678 -1.069078,-1.33635 -0.525732,-0.13143 -1.061704,0.26727 -1.603616,0.26727 -0.08909,0 0,-0.17818 0,-0.26727 -0.178181,0 -0.35982,-0.0349 -0.53454,0 -0.276254,0.0553 -0.520081,0.26727 -0.801809,0.26727 -0.281726,0 -0.525553,-0.21202 -0.801807,-0.26727 -0.17472,-0.0349 -0.375171,0.0797 -0.53454,0 -0.22538,-0.11269 -0.356359,-0.35636 -0.534538,-0.53454 -0.08909,-0.0891 -0.141279,-0.26727 -0.267271,-0.26727 -0.37723,0 -0.564436,0.33108 -0.801807,0.53454 -0.528301,0.45283 -1.03741,0.93191 -1.603618,1.33635 -0.0725,0.0518 -0.178178,0 -0.267269,0 -0.356359,0 -0.731007,0.11269 -1.069078,0 -0.239054,-0.0797 -0.300577,-0.44096 -0.53454,-0.53454 -1.965275,-0.78611 0.137609,0.58958 -1.336347,0 -0.596487,-0.2386 -1.029005,-0.78177 -1.603616,-1.06908 -0.157694,-0.0788 -0.617974,0.0613 -0.801809,0 -0.188989,-0.063 -0.345551,-0.20427 -0.534541,-0.26727 -0.188174,-0.0627 -1.612802,0 -1.870884,0 -1.33635,0 -2.672697,0 -4.009043,0 -1.514528,0 -3.029056,0 -4.543584,0 -0.08909,0 -0.204272,0.063 -0.267269,0 -0.063,-0.063 0,-0.17818 0,-0.26727 -0.08909,-0.17818 -0.101515,-0.42404 -0.267269,-0.53454 -0.348025,-0.23202 -0.806423,0.17972 -1.069078,0.26727 -0.284004,0.0947 -0.785074,-0.0947 -1.069078,0 -0.188989,0.063 -0.339196,0.2282 -0.53454,0.26727 -0.262078,0.0524 -0.534538,0 -0.801807,0 -0.44545,0 -0.8909,0 -1.336349,0 -0.35636,0 -0.712719,0 -1.069078,0 -0.267269,0 -0.536602,-0.0332 -0.80181,0 -2.697257,0.33716 -0.08861,0.26727 -2.405425,0.26727 -0.445448,0 -0.890897,0 -1.336347,0 -0.267269,0 -0.539729,-0.0524 -0.801808,0 -0.195343,0.0391 -0.345551,0.20427 -0.534539,0.26727 -0.08452,0.0282 -0.330266,-0.063 -0.26727,0 0.140864,0.14086 0.356359,0.17818 0.534539,0.26727"
       id="path258"
       inkscape:connector-curvature="0" />
    <path
       style="fill:none;stroke:#000000;stroke-width:0.26458332px;stroke-linecap:butt;stroke-linejoin:miter;stroke-opacity:1"
       d="m 69.222807,172.71967 c 0.08909,0.44545 0.210923,0.88558 0.267269,1.33634 0.03315,0.26521 -0.0378,0.53723 0,0.80181 0.05195,0.36364 0.187587,0.7105 0.267269,1.06908 0.09855,0.44346 0.157093,0.89564 0.267271,1.33635 0.136657,0.54663 0.35636,1.06908 0.534538,1.60362 0.08909,0.26727 0.220953,0.52391 0.267269,0.80181 0,2.0389 -0.119526,-0.21084 0.267271,1.33634 0.04322,0.17286 -0.05634,0.36551 0,0.53454 0.125992,0.37798 0.408546,0.6911 0.534538,1.06908 0.05635,0.16904 0,0.35636 0,0.53454 0,0.26727 0,0.53454 0,0.80181 0,0.71272 0,1.42544 0,2.13815 0,0.17818 0,0.35636 0,0.53454 0,0.0891 -0.02817,0.18275 0,0.26727 0.063,0.18899 0.218953,0.34128 0.267269,0.53454 0.04322,0.17286 0,0.35636 0,0.53454 0,0.0891 -0.03984,0.18759 0,0.26727 0.05635,0.11269 0.210926,0.15458 0.267271,0.26727 0.03984,0.0797 -0.02817,0.18275 0,0.26727 0.063,0.18899 0.218954,0.34128 0.267269,0.53454 0.04322,0.17286 -0.05635,0.3655 0,0.53454 0.03984,0.11952 0.227428,0.14774 0.267269,0.26727 0.05635,0.16903 0,0.35636 0,0.53454 0,0.26726 0,0.53454 0,0.8018 0,0.17818 -0.04321,0.36168 0,0.53454 0.04832,0.19327 0.218953,0.34128 0.267269,0.53454 0.04322,0.17286 0,0.35636 0,0.53454 0,0.44545 0,0.8909 0,1.33635 0,1.15817 0,2.31633 0,3.4745 0,1.60362 0,3.20724 0,4.81086 0,0.35635 0,0.71271 0,1.06907 0,0.17818 0.02929,0.35879 0,0.53454 -0.06039,0.36233 -0.206881,0.70675 -0.267269,1.06908 -0.02929,0.17575 0,0.35636 0,0.53454 0,0.62363 0,1.24726 0,1.87088 0,0.26728 0.04394,0.53818 0,0.80181 -0.04632,0.2779 -0.220954,0.52392 -0.267269,0.80181 -0.04394,0.26364 0,0.53454 0,0.80181 0,0.71272 0,1.42544 0,2.13816 0,1.15817 0,2.31633 0,3.4745 0,0.17199 0.04522,1.69001 0,1.87089 -0.04832,0.19326 -0.204274,0.34555 -0.267269,0.53454 -0.02817,0.0845 0,0.17818 0,0.26727 0,0.17818 0,0.35636 0,0.53453 0,0.17819 0.04321,0.36168 0,0.53455 -0.04832,0.19326 -0.218953,0.34127 -0.267271,0.53453 -0.04321,0.17286 0,0.35636 0,0.53454 -0.08909,0.17818 -0.204272,0.34555 -0.267269,0.53454 -0.02817,0.0845 0,0.17818 0,0.26727 0,0.0459 0.03267,1.50561 0,1.60362 -0.03984,0.11952 -0.236712,0.14504 -0.267269,0.26727 -0.108037,0.43215 0.108037,0.9042 0,1.33635 -0.04832,0.19326 -0.218953,0.34127 -0.267269,0.53453 -0.04321,0.17286 0.03494,0.35982 0,0.53454 -0.05525,0.27626 -0.19894,0.5285 -0.267271,0.80181 -0.05264,0.21059 0,0.89474 0,1.06908 0,0.62363 0,1.24726 0,1.87089 0,0.26727 0.05242,0.53973 0,0.80181 -0.03907,0.19534 -0.218954,0.34127 -0.267269,0.53453 -0.08643,0.34572 0.06989,0.71964 0,1.06908 -0.05525,0.27626 -0.212019,0.52555 -0.267269,0.80181 -0.03494,0.17472 0,0.35636 0,0.53454 0,0.71272 0,1.42544 0,2.13816 0,0.62363 0,1.24725 0,1.87088 0,0.18456 -0.04063,0.98782 0,1.06908 0.05635,0.11269 0.154578,0.21093 0.267269,0.26727 0.07968,0.0398 0.178181,0 0.267269,0 0.08909,0 0.187587,0.0398 0.267271,0 0.58225,-0.29113 0.267269,-1.17056 0.267269,-1.60362 0,-0.44545 0,-0.89089 0,-1.33634"
       id="path260"
       inkscape:connector-curvature="0" />
    <path
       style="fill:none;stroke:#000000;stroke-width:0.26458332px;stroke-linecap:butt;stroke-linejoin:miter;stroke-opacity:1"
       d="m 74.568197,171.91786 c 0,2.93996 0,5.87993 0,8.81989 0,0.31714 -0.05188,1.87877 0,2.13816 0.07814,0.39068 0.408546,0.6911 0.534541,1.06908 0.17762,0.53286 -0.177623,0.002 0,0.53454 0.06299,0.18898 0.204271,0.34555 0.267268,0.53454 0.04821,0.14464 0,0.97802 0,1.06907 0,0.17818 0,0.35636 0,0.53454 0,0.0891 -0.02817,0.18275 0,0.26727 0.063,0.18899 0.204275,0.34555 0.267269,0.53454 0.08452,0.25356 -0.08452,0.54825 0,0.80181 0.03984,0.11953 0.227428,0.14774 0.267269,0.26727 0.05635,0.16904 -0.04321,0.36168 0,0.53454 0.04832,0.19326 0.228203,0.3392 0.267272,0.53454 0.05241,0.26208 0,0.53454 0,0.80181 0.08909,0.26727 0.19894,0.52849 0.267268,0.80181 0.09506,0.38022 -0.11853,0.98076 0,1.33634 0.03984,0.11953 0.227428,0.14775 0.267269,0.26727 0.110646,0.33194 -0.08785,0.98494 0,1.33635 0.04832,0.19326 0.204275,0.34555 0.267269,0.53454 0.02817,0.0845 0,0.17818 0,0.26727 0,0.53454 0,1.06908 0,1.60362 0,0.17817 -0.04321,0.36168 0,0.53453 0.757134,1.51427 -0.09961,-0.39842 0.267272,1.06908 0.04832,0.19327 0.2282,0.3392 0.267269,0.53454 0.08736,0.4368 0,0.8909 0,1.33635 0,0.71272 0,1.42544 0,2.13815 0,2.22725 0,4.4545 0,6.68174 0,1.87089 0,3.74178 0,5.61266 0,0.53454 0,1.06908 0,1.60362 0,0.17818 0,0.35636 0,0.53454 0,0.17818 0.04321,0.36168 0,0.53454 -0.104622,0.41848 -0.722607,1.2076 -0.80181,1.60362 -0.05242,0.26208 0.05242,0.53972 0,0.80181 -0.03907,0.19534 -0.193283,0.34957 -0.267269,0.53453 -0.104632,0.26158 -0.189872,0.53092 -0.267268,0.80181 -0.743744,2.6031 0.03225,-0.22575 -0.267272,1.87089 -0.05195,0.36363 -0.21532,0.70544 -0.267269,1.06908 -0.0378,0.26458 0.0378,0.53722 0,0.80181 -0.332091,2.32464 -0.267269,-0.0232 -0.267269,1.87088 0,1.51996 0.119526,0.17596 -0.267268,1.33635 -0.07467,0.224 0.08856,0.89195 0,1.06908 -0.05635,0.11269 -0.227428,0.14774 -0.267272,0.26727 -0.05635,0.16903 0,0.35636 0,0.53454 0,0.44545 0,0.89089 0,1.33634 0,1.51453 0,3.02906 0,4.54359 0,0.42174 -0.05745,1.58363 0,1.87088 0.03907,0.19534 0.204274,0.34555 0.267272,0.53454 0.02817,0.0845 0,0.17818 0,0.26727 0,0.17818 0,0.35636 0,0.53454 0,0.26727 0,0.53454 0,0.80181 0,0.0891 0,0.35636 0,0.26727 0,-2.92255 0.350263,-1.06114 -3.741775,-4.27631"
       id="path262"
       inkscape:connector-curvature="0" />
    <path
       style="fill:none;stroke:#000000;stroke-width:0.26458332px;stroke-linecap:butt;stroke-linejoin:miter;stroke-opacity:1"
       d="m 113.58955,173.78875 c -1.77266,0.59088 -1.04016,0.53454 -2.13816,0.53454 -0.0891,0 -0.18758,-0.0398 -0.26727,0 -1.11231,0.55615 0.28572,-0.0184 -0.26727,0.53453 -0.063,0.063 -0.18084,-0.0216 -0.26727,0 -0.27331,0.0683 -0.54982,0.14128 -0.8018,0.26727 -0.1127,0.0564 -0.15458,0.21093 -0.26728,0.26727 -0.0797,0.0398 -0.17817,0 -0.26726,0 -0.17818,0 -0.35879,-0.0293 -0.53454,0 -0.36233,0.0604 -0.70545,0.21532 -1.06908,0.26727 -0.26458,0.0378 -0.53454,0 -0.80181,0 -0.26727,0 -0.53454,0 -0.80181,0 -1.51453,0 -3.02905,0 -4.54358,0 -0.76406,0 -1.708983,-0.0995 -2.405428,0 -0.727268,0.1039 -1.417767,0.39046 -2.138156,0.53454 -0.617725,0.12355 -1.248251,0.17148 -1.870884,0.26727 -0.535612,0.0824 -1.069078,0.17818 -1.603619,0.26727 -1.515806,0.25264 -3.042615,0.46826 -4.543581,0.80181 -0.358579,0.0797 -0.706749,0.20688 -1.069078,0.26727 -0.175755,0.0293 -0.386286,-0.0988 -0.53454,0 -0.525008,0.35001 -0.151215,1.1394 -0.267269,1.60362 -0.176011,0.70404 -0.893067,1.16684 -1.069078,1.87088 -0.04682,0.18726 0,1.50685 0,1.60362 0,0.26727 -0.06482,0.54252 0,0.80181 0.04831,0.19326 0.178178,0.35636 0.267269,0.53454 0.178181,0.35636 0.386569,0.69915 0.53454,1.06907 0.10463,0.26158 0.162639,0.54024 0.267269,0.80181 0.147971,0.36993 0.356359,0.71272 0.534538,1.06908 0.08909,0.17818 0.156768,0.36879 0.267271,0.53454 0.06989,0.10483 0.178179,0.17818 0.267269,0.26727 0.44545,0.44545 0.8909,0.8909 1.336347,1.33635 0.178181,0.17818 0.356359,0.35636 0.53454,0.53454 0.08909,0.0891 0.162439,0.19738 0.267269,0.26727 1.350193,0.90013 0.0062,0.002 0.801809,0.26727 0.188987,0.063 0.341276,0.21895 0.534538,0.26727 0.17286,0.0432 0.365503,-0.0564 0.53454,0 0.119526,0.0398 0.154578,0.21092 0.267269,0.26726 0.251984,0.126 0.540232,0.16264 0.801809,0.26728 0.184963,0.074 0.35636,0.17817 0.534538,0.26726 0.178181,0.0891 0.375171,0.14775 0.53454,0.26727 0.201586,0.15119 0.324874,0.39477 0.534538,0.53454 0.07413,0.0494 0.187587,-0.0398 0.267272,0 0.112688,0.0563 0.154577,0.21093 0.267269,0.26727 0.07968,0.0398 0.187584,-0.0398 0.267268,0 0.112692,0.0563 0.162439,0.19738 0.267269,0.26727 0.165754,0.1105 0.35636,0.17818 0.534541,0.26727 0.178178,0.0891 0.341275,0.21896 0.534537,0.26727 0.17286,0.0432 0.35636,0 0.534541,0 0.178178,0 0.356359,0 0.534537,0 0.755695,0 1.421099,0.0913 2.138156,-0.26727 0.11269,-0.0563 0.17818,-0.17818 0.26727,-0.26727 0.0891,-0.0891 0.17818,-0.17818 0.26727,-0.26727 0.0891,-0.0891 0.21092,-0.15458 0.26727,-0.26727 0.0406,-0.0813 0,-0.88452 0,-1.06907 0,-0.31049 0.0606,-1.09406 0,-1.33635 -0.0483,-0.19327 -0.15677,-0.36879 -0.26727,-0.53454 -0.0699,-0.10484 -0.17818,-0.17818 -0.26727,-0.26727 -0.28481,-0.28481 -0.813153,-0.72785 -1.069076,-1.06908 -5.29e-4,-7.9e-4 -0.600237,-1.00189 -0.801809,-1.06908 -0.169037,-0.0563 -0.35636,0 -0.534541,0 -0.267269,0 -0.534537,0 -0.801806,0 -0.44545,0 -0.8909,0 -1.33635,0 -0.356359,0 -0.714896,-0.0394 -1.069078,0 -0.96756,0.10751 -1.305425,0.25696 -2.138156,0.53454 -0.267269,0.0891 -0.560229,0.12232 -0.801806,0.26727 -0.216075,0.12965 -0.35636,0.35636 -0.534541,0.53454 -0.356359,0.17818 -0.712719,0.35636 -1.069078,0.53454 -0.356359,0.17818 -0.712719,0.35636 -1.069078,0.53454 -0.178178,0.0891 -0.375171,0.14774 -0.534538,0.26727 -0.201588,0.15119 -0.356362,0.35636 -0.53454,0.53454 -0.08909,0.0891 -0.236712,0.14504 -0.267269,0.26727 -0.06482,0.25929 0.04394,0.53817 0,0.80181 -0.04632,0.27789 -0.220953,0.52391 -0.267271,0.8018 -0.04394,0.26364 0.04394,0.53818 0,0.80181 -0.04632,0.2779 -0.189873,0.53092 -0.267269,0.80181 -0.100912,0.35319 -0.178179,0.71272 -0.267269,1.06908 -0.08909,0.35636 -0.187584,0.7105 -0.267269,1.06908 -0.09855,0.44345 -0.157094,0.89564 -0.267271,1.33634 -0.06833,0.27332 -0.220954,0.52392 -0.267269,0.80181 -0.04394,0.26364 0,0.53454 0,0.80181 0,0.35636 0,0.71272 0,1.06908 0,0.26727 0,0.53454 0,0.80181 0,0.35636 -0.0979,0.72643 0,1.06908 0.08825,0.30886 0.390887,0.5145 0.53454,0.8018 0.125992,0.25199 0.162639,0.54024 0.267269,0.80181 0.07399,0.18497 0.193283,0.34958 0.267269,0.53454 0.209261,0.52316 0.282556,1.09965 0.53454,1.60362 0.143653,0.2873 0.390885,0.5145 0.534538,0.80181 0.03984,0.0797 -0.03984,0.18758 0,0.26727 0.143653,0.2873 0.390887,0.5145 0.53454,0.80181 0.251984,0.50396 0.325276,1.08046 0.534538,1.60361 0.237522,0.59381 0.297019,0.47528 0.53454,1.06908 0.10463,0.26158 0.141277,0.54983 0.267269,0.80181 0.143653,0.2873 0.369274,0.52637 0.53454,0.80181 0.307478,0.51246 0.505299,1.08472 0.801807,1.60362 0.44464,0.77811 0.983692,1.25096 1.603618,1.87088 0.35636,0.35636 0.712719,0.71272 1.069078,1.06908 0.08909,0.0891 0.154578,0.21093 0.267269,0.26727 0.08134,0.0407 0.681443,0 0.80181,0 0.356359,0 0.712718,0 1.069078,0 0.178178,0 0.35982,0.0349 0.534537,0 0.276257,-0.0553 0.523915,-0.22096 0.801809,-0.26727 0.263634,-0.0439 0.537226,0.0378 0.80181,0 0.239773,-0.0342 1.566275,-0.38223 1.870885,-0.53454 0.28731,-0.14365 0.54483,-0.34181 0.80181,-0.53454 0.25079,-0.18809 0.45971,-0.5025 0.53454,-0.80181 0.0432,-0.17286 -0.0563,-0.3655 0,-0.53454 0.0398,-0.11952 0.21092,-0.15457 0.26727,-0.26726 0.0398,-0.0797 0,-0.17819 0,-0.26727 0,-0.0891 0,-0.17818 0,-0.26727 0,-0.44545 0,-0.8909 0,-1.33635 0,-0.17818 0,-0.35636 0,-0.53454 0,-0.0891 0.0494,-0.19314 0,-0.26727 -0.20967,-0.3145 -0.53454,-0.53454 -0.80181,-0.80181 -0.0891,-0.0891 -0.15458,-0.21092 -0.26727,-0.26727 -0.0797,-0.0398 -0.17818,0 -0.26727,0 -0.26727,0 -0.53817,0.0439 -0.801808,0 -0.277892,-0.0463 -0.522912,-0.22743 -0.80181,-0.26727 -0.352777,-0.0504 -0.712718,0 -1.069078,0 -0.356359,0 -0.712718,0 -1.069078,0 -0.06351,0 -1.009173,-0.0299 -1.069078,0 -3.495482,1.74774 0.7601,-0.0368 -2.672694,1.33635 -1.593802,0.63752 -1.151532,0.34973 -2.138156,1.33635 -0.08909,0.0891 -0.197381,0.16243 -0.267269,0.26727 -0.900131,1.35019 -0.0021,0.006 -0.267271,0.80181 -0.063,0.18898 -0.218953,0.34127 -0.267269,0.53453 -0.04321,0.17286 0,0.35636 0,0.53454 0,0.44257 0.06034,1.50885 0,1.87089 -0.04631,0.27789 -0.212018,0.52555 -0.267269,0.80181 -0.06989,0.34944 0.06989,0.71964 0,1.06908 0.09283,0.54379 -0.440449,0.8659 -0.53454,1.33634 -0.415113,2.07557 0.311335,-0.22032 0,1.33635 -0.05525,0.27626 -0.212019,0.52556 -0.267269,0.80181 -0.03494,0.17472 0,0.35636 0,0.53454 0,0.26727 0,0.53454 0,0.80181 0,0.80181 0,1.60361 0,2.40542 0,0.53454 0,1.06908 0,1.60362 0,0.26727 -0.119525,0.56276 0,0.80181 0.0708,0.40888 0.632772,0.46374 0.801809,0.80181 0.125992,0.25198 0.141277,0.54982 0.267269,0.80181 0.05635,0.11269 0.191675,0.16647 0.267269,0.26727 0.19273,0.25697 0.34181,0.54483 0.53454,0.80181 0.07559,0.10079 0.191675,0.16647 0.267269,0.26726 0.90664,1.20886 0.188865,0.45614 0.801809,1.06908 0.534538,0.53454 1.069078,1.06908 1.603616,1.60362 0.178181,0.17818 0.356359,0.35636 0.53454,0.53454 0.08909,0.0891 0.154578,0.21092 0.267269,0.26727 1.614244,0.80712 0.11316,-0.0385 1.336347,0.26727 0.193265,0.0483 0.341278,0.21895 0.534541,0.26727 0.238614,0.0596 1.026974,0 1.336346,0 0.178181,0 0.365504,-0.0564 0.534541,0 0.801806,0.26727 0.935442,0.53454 1.603616,0.80181 0.261578,0.10463 0.540228,0.16263 0.801808,0.26727 0.18496,0.074 0.34958,0.19328 0.53454,0.26726 0.26158,0.10464 0.53802,0.16835 0.80181,0.26727 0.44922,0.16846 0.88547,0.37059 1.33635,0.53454 1.05906,0.38512 2.13015,0.73768 3.20723,1.06908 2.73486,0.8415 0.94462,0.29583 3.4745,0.80181 0.3602,0.072 0.704,0.22671 1.06908,0.26727 0.44273,0.0492 0.90151,-0.0966 1.33635,0 0.38893,0.0864 0.69915,0.38657 1.06908,0.53454 0.0886,0.0354 0.96204,0.0268 1.06908,0 0.27331,-0.0683 0.52148,-0.23924 0.8018,-0.26727 0.62054,-0.062 1.24726,0 1.87089,0 1.33635,0 2.6727,0 4.00905,0 0.53453,0 1.06907,0 1.60361,0 0.0891,0 0.26727,-0.0891 0.26727,0 0,0.0891 -0.35636,0 -0.26727,0 0.57859,0 0.54865,-0.0797 1.06908,0.26727 0.48903,0.32602 0.0267,0.34075 0.80181,0.53454 0.0484,0.0121 1.31971,-0.0166 1.33635,0 0.14086,0.14086 0.2282,0.33919 0.26726,0.53454 0.0524,0.26208 0,0.53454 0,0.8018"
       id="path264"
       inkscape:connector-curvature="0" />
    <text
       xml:space="preserve"
       style="font-style:normal;font-weight:normal;font-size:4.23333311px;line-height:1.25;font-family:sans-serif;letter-spacing:0px;word-spacing:0px;fill:#000000;fill-opacity:1;stroke:none;stroke-width:0.26458332"
       x="31.805073"
       y="161.76163"
       id="text268"><tspan
         sodipodi:role="line"
         id="tspan266"
         x="31.805073"
         y="161.76163"
         style="stroke-width:0.26458332">100 voltas                           18 voltas</tspan></text>
    <text
       xml:space="preserve"
       style="font-style:normal;font-weight:normal;font-size:4.23333311px;line-height:1.25;font-family:sans-serif;letter-spacing:0px;word-spacing:0px;fill:#000000;fill-opacity:1;stroke:none;stroke-width:0.26458332"
       x="8.8198938"
       y="204.25748"
       id="text272"><tspan
         sodipodi:role="line"
         id="tspan270"
         x="8.8198938"
         y="204.25748"
         style="stroke-width:0.26458332">100v</tspan></text>
    <text
       xml:space="preserve"
       style="font-style:normal;font-weight:normal;font-size:4.23333311px;line-height:1.25;font-family:sans-serif;letter-spacing:0px;word-spacing:0px;fill:#000000;fill-opacity:1;stroke:none;stroke-width:0.26458332"
       x="114.9259"
       y="202.92113"
       id="text276"><tspan
         sodipodi:role="line"
         id="tspan274"
         x="114.9259"
         y="202.92113"
         style="stroke-width:0.26458332">18v</tspan></text>
    <text
       xml:space="preserve"
       style="font-style:normal;font-weight:normal;font-size:4.23333311px;line-height:1.25;font-family:sans-serif;letter-spacing:0px;word-spacing:0px;fill:#000000;fill-opacity:1;stroke:none;stroke-width:0.26458332"
       x="20.847023"
       y="145.99272"
       id="text280"><tspan
         sodipodi:role="line"
         id="tspan278"
         x="20.847023"
         y="145.99272"
         style="stroke-width:0.26458332">P1 = V1 * I1               ==            P2=V2 * I2</tspan></text>
    <text
       xml:space="preserve"
       style="font-style:normal;font-weight:normal;font-size:4.23333311px;line-height:1.25;font-family:sans-serif;letter-spacing:0px;word-spacing:0px;fill:#000000;fill-opacity:1;stroke:none;stroke-width:0.26458332"
       x="9.3544331"
       y="211.74101"
       id="text284"><tspan
         sodipodi:role="line"
         id="tspan282"
         x="9.3544331"
         y="211.74101"
         style="stroke-width:0.26458332">I = 1,8W / 100V</tspan><tspan
         sodipodi:role="line"
         x="9.3544331"
         y="217.03268"
         style="stroke-width:0.26458332"
         id="tspan292">I1 = 0,018A</tspan></text>
    <text
       xml:space="preserve"
       style="font-style:normal;font-weight:normal;font-size:4.23333311px;line-height:1.25;font-family:sans-serif;letter-spacing:0px;word-spacing:0px;fill:#000000;fill-opacity:1;stroke:none;stroke-width:0.26458332"
       x="115.72771"
       y="211.47375"
       id="text288"><tspan
         sodipodi:role="line"
         id="tspan286"
         x="115.72771"
         y="211.47375"
         style="stroke-width:0.26458332">100mA</tspan><tspan
         sodipodi:role="line"
         x="115.72771"
         y="216.76543"
         style="stroke-width:0.26458332"
         id="tspan290">P = 1,8W</tspan></text>
    <path
       style="fill:none;stroke:#000000;stroke-width:0.26458332px;stroke-linecap:butt;stroke-linejoin:miter;stroke-opacity:1"
       d="m 167.04345,175.39236 c 0,1.95998 0,3.91996 0,5.87993 0,0.71272 -0.0474,1.42702 0,2.13816 0.0419,0.62856 0.21896,1.24278 0.26727,1.87088 0.041,0.53297 -0.0532,1.07174 0,1.60362 0.0366,0.36551 0.22671,0.704 0.26727,1.06908 0.10822,0.974 -0.0814,1.96336 0,2.93996 0.33946,4.07352 0.11716,-0.90068 0.80181,3.20724 0.0879,0.52727 0,1.06908 0,1.60362 0,1.15817 0,2.31633 0,3.4745 0,0.53454 -0.0381,1.07044 0,1.60362 -0.31638,1.15597 0.41485,2.13004 0.53454,3.20723 0.0492,0.44273 0,0.8909 0,1.33635 0,0.8909 0,1.7818 0,2.6727 0,2.22724 0,4.45449 0,6.68173 0,7.30537 0,14.61074 0,21.9161"
       id="path294"
       inkscape:connector-curvature="0" />
    <path
       style="fill:none;stroke:#000000;stroke-width:0.26458332px;stroke-linecap:butt;stroke-linejoin:miter;stroke-opacity:1"
       d="m 173.19065,176.46144 c 0,7.30537 0,14.61073 0,21.9161 0,1.42544 0,2.85088 0,4.27632 0,0.35635 0,0.71271 0,1.06907 0,0.35636 -0.0586,0.71757 0,1.06908 0.0327,0.1965 0.23452,0.33804 0.26727,0.53454 0.0586,0.35151 -0.0586,0.71757 0,1.06908 0.0327,0.1965 0.23452,0.33804 0.26727,0.53454 0.0879,0.52726 0,1.06908 0,1.60361 0,1.33635 0,2.6727 0,4.00905 0,0.2857 -0.0579,1.58145 0,1.87088 0.0553,0.27626 0.21202,0.52556 0.26727,0.80181 0.0349,0.17472 -0.0349,0.35982 0,0.53454 0.0553,0.27626 0.22095,0.52392 0.26727,0.80181 0.0439,0.26363 0,0.53454 0,0.80181 0,0.80181 0,1.60361 0,2.40542 0,0.35636 0,0.71272 0,1.06908 0,0.26727 -0.0439,0.53818 0,0.80181 0.0463,0.27789 0.22095,0.52392 0.26727,0.80181 0.0439,0.26363 -0.0524,0.53973 0,0.80181 0.0391,0.19534 0.2282,0.3392 0.26727,0.53454 0.22272,1.11362 -0.14848,0.44545 0,1.33634 0.0604,0.36233 0.19523,0.70889 0.26727,1.06908 0.0175,0.0874 -0.0147,0.17939 0,0.26727 0.0747,0.44809 0.21092,0.88559 0.26727,1.33635 0.0332,0.26521 -0.0332,0.5366 0,0.80181 0.0162,0.83497 0.41838,1.59231 0.53454,2.40542 0.0756,0.52917 -0.0879,1.07635 0,1.60362 0.0463,0.2779 0.21201,0.52555 0.26727,0.80181 0.0603,0.30143 0,0.98658 0,1.33635 0,1.15817 0,2.31633 0,3.4745"
       id="path296"
       inkscape:connector-curvature="0" />
    <path
       style="fill:none;stroke:#000000;stroke-width:0.26458332px;stroke-linecap:butt;stroke-linejoin:miter;stroke-opacity:1"
       d="m 152.34363,183.14318 c 0.77289,-0.71597 1.30455,-0.38501 2.13815,-0.80181 0.1127,-0.0564 0.14775,-0.22743 0.26727,-0.26727 0.16904,-0.0563 0.35982,0.0349 0.53454,0 0.27626,-0.0553 0.5285,-0.19894 0.80181,-0.26727 0.0864,-0.0216 0.18455,0.0331 0.26727,0 0.36993,-0.14797 0.705,-0.37272 1.06908,-0.53454 0.43841,-0.19485 0.89793,-0.33969 1.33635,-0.53454 0.36408,-0.16181 0.69915,-0.38657 1.06907,-0.53454 0.0827,-0.0331 0.18759,0.0399 0.26727,0 0.1127,-0.0563 0.16244,-0.19738 0.26728,-0.26727 1.35019,-0.90012 0.006,-0.002 0.8018,-0.26726 0.18899,-0.063 0.34555,-0.20428 0.53454,-0.26727 0.16904,-0.0564 0.36551,0.0563 0.53454,0 0.18899,-0.063 0.34555,-0.20428 0.53454,-0.26727 0.14465,-0.0482 0.97803,0 1.06908,0 0.80181,0 1.60362,0 2.40542,0 0.8909,0 1.7818,0 2.6727,0 0.2874,0 0.76804,-0.0602 1.06908,0 1.50382,0.30076 0.84098,0.35136 2.67269,0.53454 0.35459,0.0355 0.71272,0 1.06908,0 0.17818,0 0.3655,-0.0564 0.53454,0 0.48542,0.1618 0.49601,0.22874 0.80181,0.53453 0.0891,0.0891 0.15458,0.21093 0.26727,0.26727 0.50397,0.25199 1.09965,0.28256 1.60362,0.53454 0.2873,0.14366 0.5145,0.39089 0.8018,0.53454 0.25199,0.12599 0.54983,0.14128 0.80181,0.26727 0.11269,0.0564 0.17818,0.17818 0.26727,0.26727 0.17818,0.17818 0.33295,0.38335 0.53454,0.53454 0.15937,0.11953 0.39368,0.12641 0.53454,0.26727 0.22714,0.22713 0.34181,0.54483 0.53454,0.80181 0.0756,0.10079 0.21092,0.15458 0.26727,0.26727 0.12599,0.25198 0.16264,0.54023 0.26727,0.80181 0.0148,0.0369 0.53202,1.05647 0.53454,1.06908 0.0524,0.26207 -0.0524,0.53972 0,0.8018 0.0391,0.19535 0.2282,0.3392 0.26727,0.53454 0.0524,0.26208 0,0.53454 0,0.80181 0,0.8909 0,1.7818 0,2.6727 0,0.26726 0,0.53454 0,0.8018 0,0.35636 0.0979,0.72643 0,1.06908 -0.0882,0.30886 -0.40801,0.50657 -0.53454,0.80181 -0.55625,2.22498 0.12106,0.0252 -0.80181,1.87089 -0.12599,0.25198 -0.111,0.5674 -0.26727,0.80181 -0.20966,0.31449 -0.55583,0.51482 -0.80181,0.8018 -0.28989,0.33822 -0.51191,0.73087 -0.80181,1.06908 -0.24598,0.28698 -0.58211,0.49424 -0.80181,0.80181 -0.23157,0.32421 -0.33686,0.72315 -0.53453,1.06908 -0.0775,0.66408 -0.77559,0.84719 -1.06908,1.33635 -0.92134,1.53556 0.20663,0.32791 -0.53454,1.06907 -0.17818,0.17819 -0.32488,0.39477 -0.53454,0.53455 -0.7006,0.46706 -0.46707,0.0999 -1.33635,0.53453 -0.9235,0.46175 -0.59593,0.63387 -1.60362,0.80181 -0.3387,0.0565 -2.09919,0 -2.40542,0 -0.53454,0 -1.06908,0 -1.60362,0 -0.26727,0 -0.53818,0.0439 -0.80181,0 -2.27976,-0.37996 0.92177,-0.26727 -1.87088,-0.26727 -0.71272,0 -1.42544,0 -2.13816,0 -0.0891,0 -0.20427,0.063 -0.26727,0 -0.14086,-0.14086 -0.20427,-0.34555 -0.26727,-0.53454 -0.0282,-0.0845 0,-0.17818 0,-0.26727 0,-0.17818 0,-0.35636 0,-0.53454 0,-0.26727 -0.0524,-0.53973 0,-0.8018 0.0391,-0.19535 0.19328,-0.34958 0.26727,-0.53454 0.10463,-0.26158 0.14128,-0.54983 0.26727,-0.80181 0.14365,-0.28731 0.36927,-0.52637 0.53454,-0.80181 0.10249,-0.17082 0.15677,-0.36879 0.26727,-0.53454 0.66181,-0.99271 0.85271,-1.23453 1.87088,-1.87089 0.33787,-0.21116 0.705,-0.37272 1.06908,-0.53453 0.43842,-0.19485 0.92951,-0.28027 1.33635,-0.53454 0.32052,-0.20033 0.48129,-0.60148 0.80181,-0.80181 1.29844,-0.81153 2.86309,-0.64511 4.27631,-1.06908 0.45953,-0.13786 0.87504,-0.40274 1.33635,-0.53454 0.19302,-0.0551 1.36322,0 1.60362,0 0.17817,0 0.35636,0 0.53454,0 0.0891,0 0.18758,-0.0398 0.26727,0 0.94513,0.47257 0.77608,0.62704 1.60361,1.33635 0.33821,0.28989 0.7066,0.54289 1.06908,0.80181 1.48426,1.06018 0.17667,-0.10873 1.60362,1.60361 0.0222,0.0267 1.02996,0.95174 1.06908,1.06908 0.0563,0.16904 -0.0349,0.35982 0,0.53454 0.0553,0.27626 0.22095,0.52392 0.26726,0.80181 0.0439,0.26363 0,0.53454 0,0.80181 0,0.53454 0,1.06908 0,1.60361 0,0.84723 0.17713,1.89502 -0.26726,2.6727 -0.18753,0.32817 -0.57503,0.49943 -0.80181,0.80181 -2.36929,3.15905 1.01607,-0.66874 -1.87089,2.93996 -0.31483,0.39354 -0.7411,0.68644 -1.06908,1.06908 -1.03313,1.20532 -0.036,0.66557 -1.06908,1.87089 -0.28989,0.33821 -0.73086,0.51191 -1.06908,0.80181 -0.28698,0.24598 -0.48731,0.59214 -0.8018,0.80181 -0.23441,0.15627 -0.54024,0.16263 -0.80181,0.26727 -0.40976,0.1639 -0.65932,0.37063 -1.06908,0.53453 -0.26158,0.10464 -0.53092,0.18988 -0.80181,0.26727 -1.11637,0.31897 -1.41259,0.32452 -2.67269,0.53454 -0.53454,0.0891 -1.0633,0.22571 -1.60362,0.26727 -1.06593,0.082 -2.13816,0 -3.20723,0 -0.62363,0 -1.24726,0 -1.87089,0 -0.0891,0 -0.17818,0 -0.26727,0 -0.0891,0 -0.26727,0.0891 -0.26727,0 0,-0.0172 0.73699,-0.73699 0.80181,-0.80181 0.35636,-0.35635 0.65898,-0.77615 1.06908,-1.06907 0.22925,-0.16375 0.53801,-0.16835 0.8018,-0.26727 2.4059,-0.90221 0.30792,-0.35975 2.40543,-0.53454 0.71578,-0.0597 1.42113,-0.22509 2.13816,-0.26727 0.80042,-0.0471 1.60361,0 2.40542,0 0.97999,0 1.95998,0 2.93997,0 0.8018,0 1.60361,0 2.40542,0 0.50563,0 1.82369,-0.16904 2.40543,0.26727 0.15937,0.11952 0.17818,0.35636 0.26727,0.53454 0.0891,0.17818 0.17818,0.35635 0.26727,0.53454 0.30811,0.61623 0.63268,1.19436 0.80181,1.87088 0.0216,0.0864 0,0.17818 0,0.26727 0,0.26727 -0.0648,0.54252 0,0.80181 0.0306,0.12223 0.19738,0.16244 0.26727,0.26727 0.1105,0.16575 0.21895,0.34128 0.26727,0.53454 0.10803,0.43215 -0.0732,0.89696 0,1.33635 0.0463,0.27789 0.22095,0.52391 0.26726,0.8018 0.0439,0.26364 0,0.53454 0,0.80181 0,0.62363 0,1.24726 0,1.87089 0,0.15107 0.0586,1.24851 0,1.33635 -0.20966,0.31449 -0.53453,0.53454 -0.8018,0.80181 -0.17818,0.17818 -0.35636,0.35636 -0.53454,0.53454 -0.0891,0.0891 -0.15923,0.20244 -0.26727,0.26727 -0.83292,0.49974 -1.73781,0.8141 -2.6727,1.06907 -0.43826,0.11953 -0.89808,0.14775 -1.33634,0.26727 -0.5436,0.14826 -1.05268,0.41648 -1.60362,0.53454 -2.1383,0.45821 -2.51621,0.1675 -4.81085,0.26727 -8.19023,0.3561 1.23756,0.26727 -6.94901,0.26727 -2.93997,0 -5.87993,0 -8.81989,0 -0.62364,0 -1.24726,0 -1.87089,0 -0.35636,0 -0.72121,-0.0773 -1.06908,0 -0.46834,0.10408 -0.86801,0.43046 -1.33635,0.53454 -0.34787,0.0773 -0.71272,0 -1.06908,0 -1.67976,0 -2.08294,-0.0882 -3.74177,0.26727 -1.98803,0.42601 -1.56861,0.64298 -3.4745,0.80181 -0.5327,0.0444 -1.06908,0 -1.60362,0 -0.80181,0 -1.60362,0 -2.40543,0 -0.35636,0 -0.71964,-0.0699 -1.06907,0 -0.2305,0.0461 -0.4918,0.727 -0.53454,0.80181 -0.25774,0.45103 -0.54953,0.88224 -0.80181,1.33634 -0.19349,0.34829 -0.30296,0.74487 -0.53454,1.06908 -0.2197,0.30757 -0.53454,0.53454 -0.80181,0.80181 -0.17818,0.17818 -0.35636,0.35636 -0.53454,0.53454"
       id="path298"
       inkscape:connector-curvature="0" />
    <path
       style="fill:none;stroke:#000000;stroke-width:0.26458332px;stroke-linecap:butt;stroke-linejoin:miter;stroke-opacity:1"
       d="m 195.90856,182.0741 c -0.91906,0.27572 -1.75363,0.79336 -2.67269,1.06908 -0.43512,0.13053 -0.89565,0.15709 -1.33635,0.26727 -0.54663,0.13665 -1.05699,0.39788 -1.60362,0.53454 -0.17286,0.0432 -0.3655,-0.0563 -0.53454,0 -0.18899,0.063 -0.3392,0.2282 -0.53454,0.26727 -0.26208,0.0524 -0.53617,-0.0295 -0.80181,0 -2.64763,0.29418 -0.69122,0.10599 -2.40542,0.53454 -0.44545,0.0891 -0.8909,0.17818 -1.33635,0.26727 -0.26727,0 -0.53817,-0.0439 -0.80181,0 -0.27789,0.0463 -0.52849,0.19894 -0.80181,0.26726 -0.0864,0.0216 -0.18275,-0.0282 -0.26727,0 -0.18898,0.063 -0.36371,0.16478 -0.53453,0.26727 -0.27545,0.16527 -0.49708,0.43297 -0.80181,0.53454 -2.0166,0.6722 -1.17444,-0.0455 -3.20724,0.26727 -0.64104,0.0986 -1.23891,0.3887 -1.87088,0.53454 -0.52804,0.12186 -1.06801,0.18487 -1.60362,0.26727 -1.78082,0.27398 -3.56457,0.52784 -5.34539,0.80181 -0.53561,0.0824 -1.07461,0.14971 -1.60362,0.26727 -1.66847,0.37077 -0.0706,0.11264 -1.33635,0.53454 -0.0845,0.0282 -0.20427,-0.063 -0.26727,0 -0.54222,0.54222 -0.006,0.8991 -0.53453,1.60362 -0.1512,0.20158 -0.35636,0.35636 -0.53454,0.53453 -0.0891,0.0891 -0.22743,0.14775 -0.26727,0.26728 -0.0564,0.16903 0,0.35635 0,0.53453 0,0.154 -0.0487,1.23894 0,1.33635 0.0563,0.11269 0.19738,0.16244 0.26727,0.26727 0.32894,0.49342 0.47286,1.1102 0.8018,1.60362 0.0699,0.10483 0.19739,0.16244 0.26727,0.26727 0.22101,0.33151 0.31354,0.73757 0.53454,1.06908 0.0699,0.10483 0.17818,0.17818 0.26727,0.26727 0.17818,0.17817 0.33295,0.38334 0.53454,0.53453 0.15937,0.11953 0.36879,0.15677 0.53454,0.26727 0.0734,0.049 0.78303,0.74549 0.80181,0.80181 0.0563,0.16904 -0.0564,0.3655 0,0.53454 0.0398,0.11953 0.21092,0.15458 0.26727,0.26727 0.0398,0.0797 0,0.17818 0,0.26727 0.0891,0.17818 0.14774,0.37517 0.26727,0.53454 0.027,0.036 1.22173,1.27904 1.33635,1.33635 0.11892,0.0595 0.94683,-0.0408 1.06907,0 0.11953,0.0398 0.15458,0.21092 0.26727,0.26727 0.0813,0.0407 0.68145,0 0.80181,0 0.53454,0 1.06908,0 1.60362,0 1.69271,0 3.38541,0 5.07812,0 0.8909,0 1.7818,0 2.6727,0 0.26727,0 0.54825,0.0845 0.8018,0 0.30474,-0.10158 0.51451,-0.39089 0.80181,-0.53454 0.27007,-0.13503 0.67499,0.24003 0.80181,-0.26727 0.0648,-0.25929 -0.0993,-0.55366 0,-0.80181 0.0936,-0.23396 0.42185,-0.30916 0.53454,-0.53454 0.0797,-0.15937 -0.0349,-0.35982 0,-0.53454 0.0553,-0.27625 0.22096,-0.52391 0.26727,-0.80181 0.0309,-0.18533 0.0309,-1.95282 0,-2.13815 -0.12285,-0.73707 -0.15047,-0.68501 -0.53454,-1.06908 -0.0891,-0.0891 -0.19738,-0.16244 -0.26727,-0.26727 -0.1105,-0.16575 -0.15677,-0.36879 -0.26727,-0.53454 -0.13977,-0.20966 -0.35636,-0.35636 -0.53454,-0.53454 -0.35636,-0.35636 -0.71272,-0.71272 -1.06908,-1.06908 -0.17817,-0.17818 -0.32487,-0.39476 -0.53453,-0.53454 -0.66379,-0.44252 -0.82569,-0.14557 -1.60362,-0.53453 -0.11269,-0.0564 -0.15458,-0.21093 -0.26727,-0.26728 -0.0797,-0.0398 -0.19314,0.0494 -0.26727,0 -0.20966,-0.13977 -0.33295,-0.38334 -0.53454,-0.53453 -0.75713,-0.56785 -0.27878,-0.0697 -1.06908,-0.26727 -0.19326,-0.0483 -0.33733,-0.2391 -0.53454,-0.26727 -0.44097,-0.063 -0.8909,0 -1.33635,0 -0.53453,0 -1.06907,0 -1.60361,0 -0.80181,0 -1.60362,0 -2.40543,0 -0.26727,0 -0.55365,-0.0993 -0.80181,0 -0.23396,0.0936 -0.33295,0.38335 -0.53454,0.53454 -0.15936,0.11952 -0.39367,0.1264 -0.53453,0.26727 -0.14087,0.14086 -0.15677,0.36878 -0.26727,0.53454 -0.13978,0.20966 -0.38335,0.33295 -0.53454,0.53453 -0.19273,0.25698 -0.33388,0.55098 -0.53454,0.80181 -0.15741,0.19677 -0.35636,0.35636 -0.53454,0.53454 -0.35636,0.35636 -0.71272,0.71272 -1.06908,1.06908 -0.17818,0.17818 -0.34096,0.37322 -0.53454,0.53454 -0.3422,0.28517 -0.72687,0.51664 -1.06908,0.80181 -0.19358,0.16131 -0.35636,0.35636 -0.53453,0.53454 -0.35636,0.35635 -0.71272,0.71271 -1.06908,1.06907 -0.30495,0.30496 -1.08682,1.00365 -1.33635,1.33635 -0.20737,0.2765 -0.46716,1.06684 -0.53454,1.33635 -0.0566,0.22627 0,0.79158 0,1.06908 0,0.80181 0,1.60361 0,2.40542 0,0.71272 0,1.42544 0,2.13816 0,0.17818 0,0.35636 0,0.53454 0,0.17818 -0.0564,0.3655 0,0.53454 0.0398,0.11953 0.19738,0.16244 0.26727,0.26727 0.1105,0.16575 0.15677,0.36878 0.26727,0.53454 0.13977,0.20966 0.39476,0.32487 0.53454,0.53453 0.1105,0.16576 0.14774,0.37518 0.26727,0.53454 0.0198,0.0264 0.9261,0.97377 1.06908,1.06908 0.68292,0.45528 0.49106,0.0311 1.06907,0.80181 0.11953,0.15937 0.16478,0.36372 0.26727,0.53454 0.16527,0.27544 0.35636,0.53454 0.53454,0.80181 0.53391,0.80085 1.09251,1.82164 1.87089,2.40542 0.93385,0.70039 0.12072,-0.0488 1.06908,0.26727 0.11952,0.0399 0.15458,0.21093 0.26727,0.26727 0.0797,0.0398 0.17818,0 0.26727,0 0.0891,0 0.17991,0.0175 0.26727,0 0.36019,-0.072 0.71272,-0.17818 1.06907,-0.26727 0.44545,-0.17818 0.86801,-0.43046 1.33635,-0.53454 0.34788,-0.0773 0.71547,0.0442 1.06908,0 0.36449,-0.0456 0.70888,-0.19523 1.06908,-0.26726 0.0874,-0.0175 0.18758,0.0398 0.26727,0 0.40255,-0.20128 0.37038,-0.74077 0.53454,-1.06908 0.0563,-0.11269 0.19167,-0.16648 0.26727,-0.26727 0.19273,-0.25698 0.39088,-0.5145 0.53454,-0.80181 0.0398,-0.0797 0,-0.17818 0,-0.26727 0,-0.17818 0,-0.35636 0,-0.53454 0,-0.11513 0.0362,-1.53129 0,-1.60362 -0.0564,-0.11269 -0.21093,-0.15458 -0.26728,-0.26727 -0.0398,-0.0797 0,-0.17818 0,-0.26727 -0.0891,-0.26726 -0.14127,-0.54982 -0.26726,-0.8018 -0.0563,-0.1127 -0.19739,-0.16244 -0.26727,-0.26727 -0.22101,-0.33151 -0.28565,-0.75797 -0.53454,-1.06908 -1.0059,-1.25737 -2.02384,-1.34337 -3.47451,-1.87089 -1.26692,-0.4607 -2.66324,-1.14409 -4.00904,-1.33635 -0.26458,-0.0378 -0.53454,0 -0.80181,0 -0.35636,0 -0.71272,0 -1.06908,0 -0.21881,0 -1.16317,-0.0577 -1.33634,0 -0.81661,0.27221 -0.96958,0.91366 -1.60362,1.33635 -0.33151,0.22101 -0.71272,0.35636 -1.06908,0.53454 -2.29352,1.14676 0.018,-0.0642 -1.87088,1.06908 -0.17083,0.10249 -0.37518,0.14774 -0.53455,0.26727 -0.20158,0.15119 -0.35635,0.35636 -0.53453,0.53454 -0.0891,0.0891 -0.17818,0.17818 -0.26727,0.26727 -0.0891,0.0891 -0.22743,0.14774 -0.26727,0.26727 -0.0564,0.16903 0.0349,0.35982 0,0.53453 -0.0553,0.27626 -0.17818,0.53454 -0.26727,0.80181 -0.0891,0.26727 -0.1275,0.5572 -0.26727,0.80181 -0.22101,0.38676 -0.5429,0.7066 -0.80181,1.06908 -1.25974,1.88962 0.32122,-0.4497 -1.33635,1.87089 -0.11054,0.15476 -0.72236,1.01857 -0.80181,1.33634 -0.0648,0.25929 0,0.53454 0,0.80181 0,0.17818 0,0.35636 0,0.53454 0,0.0891 -0.0216,0.18084 0,0.26727 0.16914,0.67653 0.4937,1.25466 0.80181,1.87089 0.0891,0.17818 0.15677,0.36878 0.26727,0.53454 0.0699,0.10483 0.17818,0.17818 0.26727,0.26727 0.0891,0.17818 0.15677,0.36878 0.26727,0.53454 0.0699,0.10483 0.22743,0.14774 0.26727,0.26727 0.0563,0.16903 -0.0797,0.37517 0,0.53453 0.11269,0.22539 0.37712,0.33778 0.53454,0.53454 0.20066,0.25083 0.33387,0.55098 0.53454,0.80181 0.15741,0.19677 0.37712,0.33778 0.53454,0.53454 0.20066,0.25083 0.33387,0.55098 0.53454,0.80181 0.31482,0.39353 0.71272,0.71272 1.06908,1.06908 0.71665,0.71666 1.0122,1.08841 1.87088,1.60362 0.43011,0.25806 0.84959,0.39546 1.33635,0.53453 0.35319,0.10092 0.73145,0.12258 1.06908,0.26727 0.29524,0.12654 0.49295,0.4463 0.80181,0.53454 0.34264,0.0979 0.7354,-0.12512 1.06907,0 0.41709,0.15641 0.67066,0.6026 1.06908,0.80181 0.50397,0.25199 1.07409,0.34198 1.60362,0.53454 0.45088,0.16396 0.88713,0.36608 1.33635,0.53454 0.26379,0.0989 0.54982,0.14128 0.8018,0.26727 0.46464,0.23232 0.88532,0.54407 1.33635,0.80181 0.55057,0.31461 0.67925,0.3155 1.33635,0.53454 1.56601,0.522 1.42888,0.54996 2.93997,0.80181 1.32983,0.22163 2.68138,0.30024 4.00904,0.53453 4.94792,0.87317 -0.30775,0.31024 5.34539,0.80181 0.6948,0.0604 6.11143,0.51342 6.68174,0.53454 1.2464,0.0462 2.49747,-0.0858 3.74177,0 1.34498,0.0928 2.66087,0.53454 4.00904,0.53454 1.34818,0 2.66455,-0.43495 4.00905,-0.53454 1.06615,-0.079 2.13815,0 3.20723,0 1.42544,0 2.85087,0 4.27631,0 0.87945,0 1.84505,0.0776 2.6727,-0.26727 0.59301,-0.24709 1.06908,-0.71272 1.60361,-1.06908"
       id="path300"
       inkscape:connector-curvature="0" />
  </g>
</svg>
