<?xml version="1.0" encoding="UTF-8" standalone="no"?>
<!-- Created with Inkscape (http://www.inkscape.org/) -->

<svg
   xmlns:dc="http://purl.org/dc/elements/1.1/"
   xmlns:cc="http://creativecommons.org/ns#"
   xmlns:rdf="http://www.w3.org/1999/02/22-rdf-syntax-ns#"
   xmlns:svg="http://www.w3.org/2000/svg"
   xmlns="http://www.w3.org/2000/svg"
   xmlns:sodipodi="http://sodipodi.sourceforge.net/DTD/sodipodi-0.dtd"
   xmlns:inkscape="http://www.inkscape.org/namespaces/inkscape"
   width="210mm"
   height="297mm"
   viewBox="0 0 210 297"
   version="1.1"
   id="svg501"
   sodipodi:docname="LabOrgA14_01.svg"
   inkscape:version="0.92.3 (2405546, 2018-03-11)">
  <defs
     id="defs495" />
  <sodipodi:namedview
     id="base"
     pagecolor="#ffffff"
     bordercolor="#666666"
     borderopacity="1.0"
     inkscape:pageopacity="0.0"
     inkscape:pageshadow="2"
     inkscape:zoom="1.979899"
     inkscape:cx="85.514186"
     inkscape:cy="869.93051"
     inkscape:document-units="mm"
     inkscape:current-layer="layer1"
     showgrid="false"
     inkscape:window-width="1366"
     inkscape:window-height="741"
     inkscape:window-x="0"
     inkscape:window-y="27"
     inkscape:window-maximized="1" />
  <metadata
     id="metadata498">
    <rdf:RDF>
      <cc:Work
         rdf:about="">
        <dc:format>image/svg+xml</dc:format>
        <dc:type
           rdf:resource="http://purl.org/dc/dcmitype/StillImage" />
      </cc:Work>
    </rdf:RDF>
  </metadata>
  <g
     inkscape:label="Layer 1"
     inkscape:groupmode="layer"
     id="layer1">
    <rect
       style="fill:#0000ff;stroke:#0000ff;stroke-width:0.26458332"
       id="rect503"
       width="24.9897"
       height="51.850288"
       x="47.440342"
       y="38.817635" />
    <rect
       style="fill:#0000ff;stroke:#0000ff;stroke-width:0.26458332"
       id="rect505"
       width="24.588797"
       height="50.380306"
       x="98.756088"
       y="39.753078" />
    <text
       xml:space="preserve"
       style="font-style:normal;font-weight:normal;font-size:4.23333311px;line-height:1.25;font-family:sans-serif;letter-spacing:0px;word-spacing:0px;fill:#000000;fill-opacity:1;stroke:none;stroke-width:0.26458332"
       x="50.513939"
       y="36.412212"
       id="text509"><tspan
         sodipodi:role="line"
         id="tspan507"
         x="50.513939"
         y="36.412212"
         style="stroke-width:0.26458332">Prog</tspan></text>
    <text
       xml:space="preserve"
       style="font-style:normal;font-weight:normal;font-size:4.23333311px;line-height:1.25;font-family:sans-serif;letter-spacing:0px;word-spacing:0px;fill:#000000;fill-opacity:1;stroke:none;stroke-width:0.26458332"
       x="105.43783"
       y="37.080383"
       id="text513"><tspan
         sodipodi:role="line"
         id="tspan511"
         x="105.43783"
         y="37.080383"
         style="stroke-width:0.26458332">Data</tspan></text>
    <text
       xml:space="preserve"
       style="font-style:normal;font-weight:normal;font-size:4.23333311px;line-height:1.25;font-family:sans-serif;letter-spacing:0px;word-spacing:0px;fill:#000000;fill-opacity:1;stroke:none;stroke-width:0.26458332"
       x="54.923889"
       y="101.89325"
       id="text517"><tspan
         sodipodi:role="line"
         id="tspan515"
         x="54.923889"
         y="101.89325"
         style="stroke-width:0.26458332">PC  = 0</tspan></text>
    <text
       xml:space="preserve"
       style="font-style:normal;font-weight:normal;font-size:4.23333311px;line-height:1.25;font-family:sans-serif;letter-spacing:0px;word-spacing:0px;fill:#000000;fill-opacity:1;stroke:none;stroke-width:0.26458332"
       x="108.64507"
       y="121.67119"
       id="text521"><tspan
         sodipodi:role="line"
         id="tspan519"
         x="108.64507"
         y="121.67119"
         style="stroke-width:0.26458332">SP    </tspan></text>
    <text
       xml:space="preserve"
       style="font-style:normal;font-weight:normal;font-size:4.23333311px;line-height:1.25;font-family:sans-serif;letter-spacing:0px;word-spacing:0px;fill:#000000;fill-opacity:1;stroke:none;stroke-width:0.26458332"
       x="5.4790249"
       y="52.715652"
       id="text525"><tspan
         sodipodi:role="line"
         id="tspan523"
         x="5.4790249"
         y="56.461159"
         style="stroke-width:0.26458332" /></text>
    <text
       xml:space="preserve"
       style="font-style:normal;font-weight:normal;font-size:4.23333311px;line-height:1.25;font-family:sans-serif;letter-spacing:0px;word-spacing:0px;fill:#000000;fill-opacity:1;stroke:none;stroke-width:0.26458332"
       x="49.979401"
       y="43.628487"
       id="text529"><tspan
         sodipodi:role="line"
         id="tspan527"
         x="49.979401"
         y="43.628487"
         style="stroke-width:0.26458332">Load R1 1000</tspan></text>
    <text
       xml:space="preserve"
       style="font-style:normal;font-weight:normal;font-size:4.23333311px;line-height:1.25;font-family:sans-serif;letter-spacing:0px;word-spacing:0px;fill:#000000;fill-opacity:1;stroke:none;stroke-width:0.26458332"
       x="6.4144688"
       y="68.88546"
       id="text537"><tspan
         sodipodi:role="line"
         id="tspan535"
         x="6.4144688"
         y="68.88546"
         style="stroke-width:0.26458332">Load R1 1000</tspan></text>
    <path
       style="fill:none;stroke:#000000;stroke-width:0.26458332px;stroke-linecap:butt;stroke-linejoin:miter;stroke-opacity:1"
       d="m 24.321527,71.558152 c 0,0.668173 0,1.336349 0,2.004523 0,0.133633 -0.04226,0.274127 0,0.400904 0.01992,0.05976 0.09869,0.08122 0.133634,0.133633 0.110503,0.165754 0.156768,0.368787 0.26727,0.534541 0.06989,0.10483 0.197382,0.162435 0.26727,0.267269 0.05525,0.08288 0.07838,0.184393 0.133634,0.267268 0.06989,0.104834 0.17818,0.178181 0.26727,0.267269 0.133635,0.133636 0.267269,0.267272 0.400904,0.400905 0.07035,0.07036 0.329532,0.36522 0.400904,0.400905 0.03984,0.01992 0.08909,0 0.133635,0 0.04454,0 0.08909,0 0.133634,0 0.222727,0 0.44545,0 0.668174,0 0.376851,0 0.255688,0.01159 0.53454,-0.267269 0.0176,-0.0176 0.655937,-0.631463 0.668174,-0.668174 0.02817,-0.08452 -0.02817,-0.182753 0,-0.267269 0.01992,-0.05976 0.113712,-0.07387 0.133635,-0.133635 0.02455,-0.07367 0,-0.688401 0,-0.80181 0,-0.04454 0,-0.08909 0,-0.133633 0,-0.04454 -0.01992,-0.09379 0,-0.133635 0.304171,-0.304173 0.03532,0.02768 0.133633,-0.267269 0.08091,-0.242713 0.114372,-0.248007 0.267269,-0.400905 0.04455,-0.04454 0.07729,-0.105463 0.133636,-0.133636 0.03984,-0.01992 0.08909,0 0.133636,0 0.04454,0 0.08909,0 0.133633,0 0.04454,0 0.102137,-0.0315 0.133636,0 0.0315,0.0315 -0.01992,0.09379 0,0.133636 0.05922,0.118446 0.319804,0.279255 0.400904,0.400905 0.05678,0.08516 0.379233,0.715126 0.400905,0.801806 0.02162,0.08643 -0.02817,0.182753 0,0.267272 0.01992,0.05976 0.10546,0.07729 0.133633,0.133633 0.01992,0.03984 -0.01992,0.09379 0,0.133636 0.196633,0.39326 0.133636,-0.207439 0.133636,0.400904 0,0.178179 0,0.35636 0,0.534538 0,0.04454 0,0.08909 0,0.133636 0,0.04454 0.04454,0.133635 0,0.133635 -0.04455,0 0,-0.08909 0,-0.133635 0,-0.178181 0,-0.35636 0,-0.534541 0,-0.113141 -0.02395,-0.462695 0,-0.534537 0.01992,-0.05976 0.09869,-0.08122 0.133635,-0.133636 0.05525,-0.08288 0.07838,-0.184391 0.133634,-0.267269 0.03494,-0.05242 0.08909,-0.08909 0.133635,-0.133636 0.04455,-0.04454 0.07729,-0.10546 0.133636,-0.133633 0.03984,-0.01992 0.08909,0 0.133633,0 0.04454,0 0.08909,0 0.133636,0 0.256238,0 0.206893,-0.06037 0.400905,0.133633 0.04454,0.04455 0.10546,0.07729 0.133633,0.133636 0.01992,0.03984 -0.01992,0.09379 0,0.133636 0.02817,0.05634 0.08909,0.08909 0.133635,0.133633 0.104381,0.104381 0.324028,0.285591 0.400905,0.400904 0.153556,0.230334 0.133633,0.202002 0.133633,0.400905 0,0.04454 -0.01992,0.09379 0,0.133636 0.147738,0.295473 0.08294,0.04147 0.267272,0.133633 0.118446,0.05922 0.279254,0.319804 0.400904,0.400905 0.08288,0.05525 0.178179,0.08909 0.267269,0.133635 0.08909,0.04455 0.172776,0.102137 0.267269,0.133633 0.04226,0.01408 0.09138,-0.01407 0.133636,0 0.188986,0.063 0.345551,0.204275 0.534537,0.267272 0.08452,0.02817 0.178181,0 0.267269,0 0.222726,0 0.44545,0 0.668176,0 0.178179,0 0.35636,0 0.534538,0 0.08909,0 0.182753,0.02817 0.267269,0 0.484465,-0.161489 0.09511,-0.06341 0.400904,-0.267272 0.08288,-0.05525 0.184394,-0.07838 0.267272,-0.133633 0.05241,-0.03494 0.08122,-0.09869 0.133633,-0.133635 0.08288,-0.05525 0.184393,-0.07838 0.267269,-0.133634 0.06479,-0.0432 0.62498,-0.603382 0.668176,-0.668176 0.294418,-0.0673 0.07064,-0.27491 0.133633,-0.400902 0.02817,-0.05635 0.105463,-0.07729 0.133636,-0.133635 0.01992,-0.03984 -0.01992,-0.09379 0,-0.133636 0.02817,-0.05635 0.10546,-0.07729 0.133633,-0.133633 0.03984,-0.07968 -0.02817,-0.182753 0,-0.267272 0.153556,-0.460666 0.133636,-0.09899 0.133636,-0.400902 0,-0.08909 0,-0.178181 0,-0.267271 0,-0.04454 0.01407,-0.09137 0,-0.133633 -0.0315,-0.0945 -0.102137,-0.172776 -0.133636,-0.267272 -0.01408,-0.04226 0.01992,-0.09379 0,-0.133633 -0.165132,-0.330266 -0.133633,0.04613 -0.133633,-0.267269 0,-0.04454 -0.04455,-0.133635 0,-0.133635 0.04454,0 0,0.08909 0,0.133635 0,0.04454 0,0.08909 0,0.133633 0,0.04455 0.01992,0.09379 0,0.133636 -0.02817,0.05635 -0.08909,0.08909 -0.133636,0.133633"
       id="path539"
       inkscape:connector-curvature="0" />
    <path
       style="fill:none;stroke:#000000;stroke-width:0.26458332px;stroke-linecap:butt;stroke-linejoin:miter;stroke-opacity:1"
       d="m 30.86963,77.170813 c 0,0.178179 0.04322,0.361678 0,0.534538 -0.38499,1.539962 -0.186147,-0.434226 -0.400904,1.069078 -0.01889,0.132292 0.01656,0.268301 0,0.400905 -0.02817,0.225382 -0.105463,0.442793 -0.133636,0.668173 -0.01656,0.132604 0.01889,0.268613 0,0.400905 -0.02598,0.181816 -0.103439,0.353375 -0.133633,0.53454 -0.01466,0.08788 0,0.178179 0,0.267269 0,0.356359 0,0.712719 0,1.069078 0,0.935442 0,1.870887 0,2.80633 0,2.138156 0,4.276312 0,6.414468 0,1.380892 0,2.761784 0,4.142679 0,0.445447 0,0.890897 0,1.336347 0,0.133633 0,0.267269 0,0.400905 0,0.133633 -0.03671,0.272409 0,0.400904 0.05473,0.191545 0.197321,0.348012 0.267269,0.534538 0.06449,0.171968 0.08318,0.357941 0.133635,0.53454 0.0774,0.270886 0.189873,0.530921 0.267269,0.801807 0.05046,0.176599 0.09379,0.355251 0.133636,0.534543 0.04927,0.22172 0.06837,0.45061 0.133633,0.66817 0.06893,0.22976 0.181158,0.44428 0.267269,0.66817 0.136626,0.35523 0.280551,0.70802 0.400905,1.06908 0.521602,1.56481 -0.462974,-0.90568 0.400904,1.46998 0.06808,0.18722 0.193286,0.34958 0.267269,0.53455 0.104632,0.26157 0.170992,0.53704 0.267272,0.8018 0.188277,0.51777 0.268517,0.60573 0.400904,1.06908 0.05046,0.1766 0.08318,0.35794 0.133633,0.53454 0.0387,0.13544 0.09947,0.26425 0.133636,0.4009 0.05509,0.22036 0.04416,0.45941 0.133633,0.66818 0.04963,0.1158 0.227428,0.14774 0.267272,0.26727 0.05635,0.16903 -0.02519,0.35815 0,0.53454 0.01992,0.13944 0.08909,0.26727 0.133633,0.4009 0.08909,0.26727 0.178181,0.53454 0.267271,0.80181 0.04454,0.0891 0.09866,0.174 0.133633,0.26727 0.09892,0.26379 0.141277,0.54982 0.267269,0.80181 0.09961,0.19921 0.27736,0.34922 0.400905,0.53454 0.144079,0.21611 0.263244,0.44791 0.400904,0.66817 0.170247,0.27239 0.375172,0.52291 0.534541,0.80181 0.0092,0.0161 0.531045,1.06442 0.534537,1.06908 0.151191,0.20158 0.38335,0.33295 0.534541,0.53454 0.119525,0.15936 0.178178,0.35635 0.267269,0.53454 0.104812,0.20962 0.345654,0.74655 0.53454,0.93544 0.157488,0.15749 0.377047,0.24341 0.534538,0.4009 0.201686,0.20169 0.345045,0.455 0.53454,0.66818 0.167407,0.18833 0.368604,0.3449 0.534538,0.53454 0.146666,0.16761 0.233285,0.38787 0.400904,0.53453 0.195474,0.17104 0.463148,0.24144 0.668174,0.40091 0.198903,0.1547 0.344903,0.36861 0.53454,0.53454 0.167616,0.14666 0.366922,0.25424 0.534538,0.4009 0.189637,0.16593 0.343217,0.37055 0.53454,0.53454 0.396124,0.33954 0.46877,0.24287 0.935442,0.53454 0.188871,0.11804 0.345671,0.28286 0.534538,0.4009 0.566793,0.35425 0.5691,0.21774 1.202714,0.53454 0.342535,0.17127 0.816626,0.53948 1.202714,0.66818 1.126701,0.37557 0.221445,-0.15655 1.336347,0.4009 0.146264,0.0731 1.147926,0.6847 1.469982,0.80181 0.301739,0.10972 1.738696,0.48137 2.004521,0.53454 0.308864,0.0618 0.6311,0.0525 0.935445,0.13363 2.217864,0.59144 -0.12713,0.26836 2.271789,0.66818 0.397883,0.0663 0.804831,0.0673 1.202714,0.13363 0.405095,0.0675 0.797054,0.20322 1.202713,0.26727 1.023483,0.1616 1.429795,0.0843 2.405425,0.26727 0.361035,0.0677 0.712719,0.17818 1.069078,0.26727 0.400905,0.0446 0.805479,0.0635 1.202714,0.13364 0.361736,0.0638 0.704265,0.22435 1.069078,0.26726 0.398158,0.0468 0.80259,-0.025 1.202711,0 2.944506,0.18404 -1.253408,0.13364 2.004523,0.13364 0.400905,0 0.807908,-0.0697 1.202712,0 0.3748,0.0661 0.694277,0.33476 1.069078,0.40091 0.394806,0.0697 0.802425,-0.0222 1.202713,0 0.402752,0.0224 0.800037,0.10994 1.202714,0.13363 0.355743,0.0209 0.712719,0 1.069078,0 0.35636,0 0.712719,0 1.069078,0 0.979988,0 1.959975,0 2.939966,0 1.024532,0 2.049065,0 3.073598,0 0.222724,0 0.44545,0 0.668173,0 0.222724,0 0.446813,0.0246 0.668174,0 0.182541,-0.0203 0.352295,-0.11085 0.53454,-0.13363 0.176803,-0.0221 0.358151,0.0252 0.534538,0 0.139449,-0.0199 0.261459,-0.11372 0.400905,-0.13364 0.176389,-0.0252 0.360603,0.0387 0.53454,0 0.234169,-0.052 0.435454,-0.20909 0.668173,-0.26727 0.129644,-0.0324 0.27241,0.0367 0.400905,0 0.191545,-0.0547 0.345551,-0.20427 0.534538,-0.26727 0.215479,-0.0718 0.446447,-0.0844 0.668173,-0.13363 0.358579,-0.0797 0.710499,-0.18759 1.069078,-0.26727 0.222726,-0.0446 0.44545,-0.0891 0.668174,-0.13364 0.133635,0 0.269089,0.022 0.400904,0 0.138949,-0.0232 0.261459,-0.11371 0.400905,-0.13363 0.17639,-0.0252 0.356359,0 0.53454,0 0.08909,0 0.179909,0.0175 0.267269,0 0.138128,-0.0276 0.262776,-0.10601 0.400905,-0.13364 0.08736,-0.0175 0.18084,0.0216 0.267268,0 0.09663,-0.0242 0.169598,-0.1141 0.267269,-0.13363 0.13104,-0.0262 0.269865,0.0262 0.400905,0 0.09767,-0.0195 0.178181,-0.0891 0.267271,-0.13364 0.237572,-0.11878 0.392952,-0.21222 0.668174,-0.26727 0.08736,-0.0175 0.17939,0.0147 0.267269,0 1.750814,-0.2918 -0.877208,0.0299 1.202713,-0.26727 0.08819,-0.0126 0.179909,0.0175 0.267269,0 0.138129,-0.0276 0.264248,-0.0995 0.400905,-0.13363 0.04321,-0.0108 0.09137,0.0141 0.133633,0 0.188989,-0.063 0.339198,-0.2282 0.53454,-0.26727 0.131041,-0.0262 0.269865,0.0262 0.400905,0 0.346046,-0.0692 0.18265,-0.12177 0.400905,-0.26727 0.165753,-0.1105 0.356359,-0.17818 0.534537,-0.26727 0.178181,-0.0891 0.35636,-0.17818 0.534541,-0.26727 0.08909,-0.0445 0.172775,-0.10213 0.267268,-0.13363 0.348478,-0.11616 0.720601,-0.15111 1.069079,-0.26727 0.22757,-0.0759 0.43752,-0.20137 0.668173,-0.26727 0.08566,-0.0245 0.18084,0.0216 0.267269,0 0.193265,-0.0483 0.345551,-0.20428 0.53454,-0.26727 0.505344,-0.16845 -0.664564,0.63206 0.534538,-0.26727 0.170616,-0.12796 0.392134,-0.39214 0.53454,-0.53454 0.07035,-0.0704 0.365218,-0.32953 0.400905,-0.40091 0.107278,-0.21455 0.159991,-0.45361 0.267269,-0.66817 0.274211,-0.54842 0.203081,-0.25385 0.534537,-0.66817 0.546778,-0.68347 -0.01418,-0.11237 0.534541,-0.93545 0.06989,-0.10483 0.178178,-0.17818 0.267269,-0.26727 0.08559,-0.0856 0.451168,-0.40948 0.534538,-0.53453 0.0553,-0.0829 0.0891,-0.17819 0.13364,-0.26727"
       id="path541"
       inkscape:connector-curvature="0" />
    <path
       style="fill:none;stroke:#000000;stroke-width:0.26458332px;stroke-linecap:butt;stroke-linejoin:miter;stroke-opacity:1"
       d="m 96.885203,109.10952 c -1.023551,1.70592 0.283951,-0.40564 -0.935445,1.33635 -0.14895,0.21278 -0.231867,0.47096 -0.400902,0.66817 -0.104523,0.12195 -0.298087,0.14389 -0.400904,0.26727 -0.260713,0.31285 -0.253455,0.5914 -0.400905,0.93545 -0.07847,0.1831 -0.193286,0.34957 -0.267271,0.53453 -0.01654,0.0414 0,0.0891 0,0.13364 -0.04454,0.0891 -0.08909,0.17818 -0.133634,0.26727"
       id="path543"
       inkscape:connector-curvature="0" />
    <path
       style="fill:none;stroke:#000000;stroke-width:0.26458332px;stroke-linecap:butt;stroke-linejoin:miter;stroke-opacity:1"
       d="m 96.885201,109.10952 c 0.311816,0.17818 0.614227,0.37393 0.935444,0.53454 0.03984,0.0199 0.08909,0 0.133636,0 0.133633,0 0.267269,0 0.400905,0 0.579083,0 1.158166,0 1.737254,0 1.60361,0 3.20723,0 4.81085,0 5.16721,0 10.33442,0 15.50163,0 1.20271,0 2.40543,0 3.60814,0 0.31181,0 0.62363,0 0.93544,0 0.15096,0 1.05766,-0.0986 1.33635,0.13364 0.39288,0.3274 0.33161,0.46359 0.53454,0.8018 0.0826,0.13772 0.1709,0.27242 0.26727,0.40091 0.0378,0.0504 0.10546,0.0773 0.13363,0.13363 0.063,0.12599 0.0813,0.27012 0.13364,0.40091 0.037,0.0925 0.0891,0.17818 0.13363,0.26727 0.0446,0.0891 0.0784,0.18439 0.13364,0.26726 0.0349,0.0524 0.0987,0.0812 0.13363,0.13364 0.1105,0.16575 0.15677,0.36878 0.26727,0.53454 0.035,0.0524 0.0987,0.0812 0.13364,0.13363 0.0553,0.0829 0.0784,0.1844 0.13363,0.26727 0.13109,0.19664 0.40345,0.3379 0.53454,0.53454 0.0553,0.0829 0.0739,0.18759 0.13363,0.26727 0.003,0.004 0.47013,0.50234 0.53454,0.53454 0.0399,0.0199 0.0938,-0.0199 0.13364,0 0.0714,0.0357 0.33055,0.33055 0.4009,0.40091 0.0445,0.0445 0.13364,0.0706 0.13364,0.13363 0,0.063 -0.0773,0.10546 -0.13364,0.13364 -0.0398,0.0199 -0.0891,0 -0.13363,0 -0.13364,0 -0.26727,0 -0.40091,0 -0.22272,0 -0.44544,0 -0.66817,0 -0.13363,0 -0.26727,0 -0.4009,0 -0.0891,0 -0.1794,-0.0147 -0.26727,0 -0.18117,0.0302 -0.35273,0.10765 -0.53454,0.13363 -0.22049,0.0315 -0.44545,0 -0.66818,0 -0.0891,0 -0.17818,0 -0.26726,0 -0.0446,0 -0.0938,-0.0199 -0.13364,0 -0.0564,0.0282 -0.0739,0.11371 -0.13364,0.13363 -0.0845,0.0282 -0.17817,0 -0.26726,0 -0.26727,0 -0.53454,0 -0.80181,0 -0.57909,0 -1.15817,0 -1.73726,0 -2.89542,0 -5.79084,0 -8.68626,0 -0.93544,0 -1.87088,0 -2.80633,0 -0.26726,0 -0.53453,0 -0.8018,0 -0.13364,0 -0.26861,0.0189 -0.40091,0 -0.36363,-0.0519 -0.70458,-0.2217 -1.06907,-0.26726 -0.17681,-0.0221 -0.35774,0.0221 -0.53454,0 -0.18225,-0.0228 -0.352,-0.11336 -0.53454,-0.13364 -0.22137,-0.0246 -0.44717,0.0276 -0.66818,0 -0.13977,-0.0175 -0.26113,-0.11616 -0.4009,-0.13363 -0.22101,-0.0276 -0.44656,0.0222 -0.66818,0 -0.226,-0.0226 -0.44242,-0.10856 -0.66817,-0.13364 -0.17709,-0.0197 -0.35815,0.0252 -0.53454,0 -0.13945,-0.0199 -0.26196,-0.11048 -0.4009,-0.13363 -0.13182,-0.022 -0.26727,0 -0.40091,0 -0.22272,0 -0.44717,0.0276 -0.66817,0 -0.13978,-0.0175 -0.26146,-0.11372 -0.40091,-0.13364 -0.17638,-0.0252 -0.35635,0 -0.53453,0 -0.13364,0 -0.26727,0 -0.40091,0 -0.48999,0 -0.97999,0 -1.46998,0 -0.32833,0 -1.06576,0.0693 -1.33635,-0.13363 -0.0797,-0.0598 -0.0632,-0.19684 -0.13363,-0.26727 -0.0315,-0.0315 -0.0891,0 -0.133638,0 -0.222724,0 -0.44545,0 -0.668174,0 -0.222723,0 -0.44545,0 -0.668173,0 -0.08909,0 -0.179909,-0.0175 -0.267269,0 -0.180097,0.036 -0.353375,0.10344 -0.534541,0.13363 -0.175754,0.0293 -0.365503,-0.0563 -0.534537,0 -0.05976,0.0199 -0.07387,0.11372 -0.133636,0.13364 -0.126778,0.0423 -0.267269,0 -0.400905,0 -0.311814,0 -0.626036,-0.0387 -0.935442,0 -0.182245,0.0228 -0.354444,0.0976 -0.53454,0.13363 -0.08736,0.0175 -0.187585,-0.0398 -0.267269,0 -0.05635,0.0282 -0.0715,0.12328 -0.133636,0.13364 -0.219694,0.0366 -0.445447,0 -0.668173,0 -0.178179,0 -0.358783,0.0293 -0.534538,0 -0.09825,-0.0164 -0.184393,-0.0784 -0.267271,-0.13364 -0.05241,-0.0349 -0.17231,-0.0839 -0.133634,-0.13363 0.309407,-0.39781 0.712719,-0.71272 1.069076,-1.06908"
       id="path545"
       inkscape:connector-curvature="0" />
    <path
       style="fill:none;stroke:#000000;stroke-width:0.26458332px;stroke-linecap:butt;stroke-linejoin:miter;stroke-opacity:1"
       d="m 110.24868,109.51042 c 0.0219,-0.47835 0.28811,-0.88517 0.4009,-1.33634 0.0108,-0.0432 0,-0.0891 0,-0.13364 0,-0.17818 0,-0.35636 0,-0.53454 0,-0.4009 0,-0.80181 0,-1.20271 0,-1.33635 0,-2.67269 0,-4.00904 0,-0.40091 0,-0.80181 0,-1.20271 0,-0.17819 -0.0432,-0.36168 0,-0.53455 0.0483,-0.19326 0.20428,-0.34555 0.26727,-0.53453 0.0282,-0.08452 -0.0175,-0.179914 0,-0.267272 0.0276,-0.138128 0.10601,-0.262776 0.13364,-0.400904 0.0289,-0.144719 0,-0.792591 0,-0.935445 0,-0.579083 0,-1.158166 0,-1.737252 0,-0.178178 0,-0.356359 0,-0.534537 0,-0.133636 -0.022,-0.26909 0,-0.400905 0.0232,-0.138949 0.0995,-0.264247 0.13363,-0.400905 0.0286,-0.114329 0,-0.534604 0,-0.668173 0,-0.53454 0,-1.069078 0,-1.603619 0,-0.178178 0,-0.356359 0,-0.534537 0,-0.08909 -0.0216,-0.18084 0,-0.267272 0.0242,-0.09663 0.0891,-0.178178 0.13364,-0.267269"
       id="path547"
       inkscape:connector-curvature="0" />
    <path
       style="fill:none;stroke:#000000;stroke-width:0.26458332px;stroke-linecap:butt;stroke-linejoin:miter;stroke-opacity:1"
       d="m 45.16855,61.13464 c -0.12867,0.398423 -0.468964,-0.0996 -0.668174,0 -0.05635,0.02817 -0.07729,0.105463 -0.133636,0.133636 -0.02995,0.01497 -0.502782,0 -0.534537,0 -0.267272,0 -0.534541,0 -0.80181,0 -0.178181,0 -0.356359,0 -0.53454,0 -0.178178,0 -0.357735,0.02209 -0.534538,0 -1.657183,-0.207148 0.395918,-0.04538 -0.935442,-0.267269 -0.131818,-0.02196 -0.268303,0.01656 -0.400904,0 -1.799614,-0.359923 0.454271,0.04543 -1.33635,-0.133636 -0.452014,-0.0452 -0.88433,-0.222067 -1.336347,-0.267269 -0.221618,-0.02217 -0.446553,0.02217 -0.668173,0 -0.226007,-0.0226 -0.444701,-0.093 -0.668174,-0.133635 -0.266586,-0.04847 -0.535223,-0.08516 -0.801809,-0.133633 -0.223472,-0.04063 -0.442166,-0.111035 -0.668173,-0.133636 -0.221621,-0.02217 -0.446363,0.02016 -0.668174,0 -2.080667,-0.189151 0.348107,-0.06526 -1.469983,-0.267269 -0.17709,-0.01968 -0.360603,0.03865 -0.53454,0 -0.234169,-0.05204 -0.432948,-0.220226 -0.668173,-0.267272 -0.218398,-0.04368 -0.446554,0.02217 -0.668174,0 -0.226007,-0.02259 -0.442428,-0.10855 -0.668173,-0.133633 -0.177091,-0.01969 -0.35636,0 -0.534538,0 -0.222726,0 -0.44545,0 -0.668176,0 -0.534538,0 -1.069078,0 -1.603616,0 -2.049066,0 -4.098133,0 -6.147199,0 -0.26727,0 -0.534539,0 -0.801809,0 -0.311814,0 -0.624547,0.02392 -0.935443,0 -0.270158,-0.02077 -0.531965,-0.109103 -0.801809,-0.133635 -0.22181,-0.02016 -0.445449,0 -0.668174,0 -0.133634,0 -0.269087,0.02196 -0.400904,0 -0.138947,-0.02315 -0.262776,-0.106008 -0.400904,-0.133633 -0.17472,-0.03495 -0.356359,0 -0.534539,0 -0.04454,0 -0.09138,0.01407 -0.133635,0 -0.09449,-0.0315 -0.167664,-0.133636 -0.267269,-0.133636 -0.09961,0 -0.172776,0.102137 -0.26727,0.133636 -0.04226,0.01407 -0.09379,-0.01992 -0.133635,0 -0.05635,0.02817 -0.07729,0.10546 -0.133634,0.133633 -0.04871,0.02437 -0.591174,0 -0.668174,0 -0.757264,0 -1.514528,0 -2.271791,0 -2.093612,0 -4.1872227,0 -6.2808341,0"
       id="path549"
       inkscape:connector-curvature="0" />
    <text
       xml:space="preserve"
       style="font-style:normal;font-weight:normal;font-size:4.23333311px;line-height:1.25;font-family:sans-serif;letter-spacing:0px;word-spacing:0px;fill:#000000;fill-opacity:1;stroke:none;stroke-width:0.26458332"
       x="21.782465"
       y="56.591057"
       id="text553"><tspan
         sodipodi:role="line"
         id="tspan551"
         x="21.782465"
         y="56.591057"
         style="stroke-width:0.26458332">32 bits</tspan></text>
    <text
       xml:space="preserve"
       style="font-style:normal;font-weight:normal;font-size:4.23333311px;line-height:1.25;font-family:sans-serif;letter-spacing:0px;word-spacing:0px;fill:#000000;fill-opacity:1;stroke:none;stroke-width:0.26458332"
       x="66.015572"
       y="131.15926"
       id="text557"><tspan
         sodipodi:role="line"
         id="tspan555"
         x="66.015572"
         y="131.15926"
         style="stroke-width:0.26458332">MemProg(bits 15-0)</tspan></text>
    <text
       xml:space="preserve"
       style="font-style:normal;font-weight:normal;font-size:4.23333311px;line-height:1.25;font-family:sans-serif;letter-spacing:0px;word-spacing:0px;fill:#000000;fill-opacity:1;stroke:none;stroke-width:0.26458332"
       x="95.281586"
       y="137.0392"
       id="text561"><tspan
         sodipodi:role="line"
         id="tspan559"
         x="95.281586"
         y="137.0392"
         style="stroke-width:0.26458332">64Kb</tspan></text>
    <path
       style="fill:none;stroke:#000000;stroke-width:0.26458332px;stroke-linecap:butt;stroke-linejoin:miter;stroke-opacity:1"
       d="m 18.307962,181.00502 c 0.17818,0 0.35982,0.035 0.534539,0 0.06177,-0.0123 0.07387,-0.11371 0.133635,-0.13363 0.169036,-0.0563 0.36168,0.0432 0.534539,0 0.09663,-0.0242 0.172776,-0.10214 0.26727,-0.13364 0.04226,-0.0141 0.09138,0.0141 0.133635,0 0.09449,-0.0315 0.178179,-0.0891 0.267269,-0.13363 0.08909,-0.0445 0.190751,-0.0699 0.26727,-0.13364 0.551402,-0.4595 0.58633,-0.651 1.069078,-1.20271 0.124449,-0.14223 0.279917,-0.25572 0.400904,-0.4009 0.102819,-0.12339 0.16445,-0.27752 0.267269,-0.40091 0.241975,-0.29037 0.534539,-0.53454 0.801809,-0.80181 0.400904,-0.4009 0.801809,-0.8018 1.202713,-1.20271 0.08909,-0.0891 0.191674,-0.16647 0.267269,-0.26727 0.119527,-0.15937 0.142824,-0.37898 0.26727,-0.53454 0.11806,-0.14757 0.300741,-0.24064 0.400904,-0.4009 0.127137,-0.20342 0.148255,-0.4599 0.26727,-0.66818 0.06251,-0.10939 0.194038,-0.16474 0.267269,-0.26726 0.150971,-0.21136 0.272038,-0.44266 0.400905,-0.66818 0.04942,-0.0865 0.07387,-0.18758 0.133634,-0.26727 0.0756,-0.10079 0.188563,-0.16889 0.267269,-0.26727 0.100333,-0.12541 0.166939,-0.27549 0.267269,-0.4009 0.07871,-0.0984 0.178181,-0.17818 0.267272,-0.26727 0.445447,-0.44545 0.890897,-0.8909 1.336347,-1.33635 0.133635,-0.13363 0.276455,-0.25868 0.400904,-0.4009 0.187823,-0.21466 0.346716,-0.45352 0.534538,-0.66818 0.124449,-0.14223 0.267271,-0.26727 0.400905,-0.4009 0.356359,-0.35636 0.712718,-0.71272 1.069078,-1.06908 0.133635,-0.13364 0.267271,-0.26727 0.400904,-0.4009 0.04454,-0.0445 0.08909,-0.17818 0.133636,-0.13364 0.04454,0.0445 -0.189981,0.16181 -0.133636,0.13364 0.143653,-0.0718 0.257252,-0.19545 0.400905,-0.26727 0.02995,-0.015 0.502782,0 0.53454,0 0.400902,0 0.801807,0 1.202711,0 1.559073,0 3.118144,0 4.677217,0 1.291804,0 2.583606,0 3.875408,0 0.08909,0 0.178181,0 0.267271,0 0.04454,0 0.09379,0.0199 0.133633,0 0.05635,-0.0282 0.07387,-0.11372 0.133636,-0.13364 0.08452,-0.0282 0.178178,0 0.267269,0 0.04454,0 0.09379,-0.0199 0.133636,0 0.118446,0.0592 0.279254,0.31981 0.400904,0.40091 0.08288,0.0553 0.181859,0.0824 0.267269,0.13363 0.137721,0.0826 0.257252,0.19544 0.400905,0.26727 0.03984,0.0199 0.09657,-0.0247 0.133633,0 0.15725,0.10483 0.243657,0.29607 0.400904,0.40091 0.08288,0.0553 0.184394,0.0784 0.267272,0.13363 0.05241,0.0349 0.08122,0.0987 0.133633,0.13363 0.08288,0.0553 0.189492,0.0714 0.267269,0.13364 0.556813,0.44545 0.222726,0.29697 0.668176,0.66817 0.171101,0.14259 0.349221,0.27736 0.534538,0.40091 0.210986,0.14066 0.819917,0.46884 1.069078,0.66817 0.147574,0.11806 0.243657,0.29607 0.400904,0.4009 0.485423,0.32362 0.0945,-0.0391 0.400905,0.26727 0.51308,0.51308 0.0288,-0.006 0.534538,0.66818 0.113392,0.15119 0.267271,0.26727 0.400904,0.4009 0.08909,0.0891 0.166476,0.19168 0.267269,0.26727 0.07969,0.0598 0.187587,0.0739 0.267272,0.13364 0.100793,0.0756 0.166475,0.19167 0.267268,0.26727 0.07969,0.0598 0.184394,0.0784 0.267269,0.13363 0.104833,0.0699 0.178181,0.17818 0.267269,0.26727 0.178181,0.17818 0.356359,0.35636 0.53454,0.53454 0.04455,0.0445 0.07729,0.10546 0.133636,0.13363 0.125992,0.063 0.27491,0.0706 0.400905,0.13364 0.112688,0.0563 0.14774,0.22743 0.267269,0.26727 0.08452,0.0282 0.18275,-0.0282 0.267268,0 0.05976,0.0199 0.08122,0.0987 0.133636,0.13363 0.0673,0.29442 0.27491,0.0706 0.400905,0.13364 0.05634,0.0282 0.07729,0.10546 0.133633,0.13363 0.03984,0.0199 0.09379,-0.0199 0.133636,0 0.05635,0.0282 0.08909,0.0891 0.133633,0.13364 0.08909,0.0891 0.166476,0.19167 0.267271,0.26727 0.07968,0.0598 0.184391,0.0784 0.267269,0.13363 0.185317,0.12355 0.345668,0.28286 0.534538,0.40091 0.168931,0.10558 0.356359,0.17818 0.53454,0.26726 0.267269,0.13364 0.530495,0.27569 0.801809,0.40091 0.30802,0.14216 0.623629,0.26727 0.935443,0.4009 0.311814,0.13364 0.613608,0.29363 0.935442,0.40091 0.696955,0.23232 1.436944,0.31541 2.138159,0.53454 1.872686,0.58521 0.277122,0.23632 2.00452,0.66817 0.220353,0.0551 0.447821,0.0786 0.668173,0.13364 0.136658,0.0342 0.264248,0.0995 0.400905,0.13363 0.04321,0.0108 0.102137,-0.0315 0.133636,0 0.07043,0.0704 0.14878,0.16882 0.133633,0.26727 -0.07723,0.50198 -0.272701,0.97854 -0.400905,1.46998 -0.139081,0.53315 -0.249533,1.07383 -0.400904,1.60362 -0.205137,0.71798 -0.487069,1.41374 -0.668174,2.13816 -0.441864,1.76745 -0.708504,3.52594 -0.801806,5.34539 -0.04335,0.84524 0,1.6927 0,2.53906 0,0.66817 -0.162058,1.35629 0,2.00452 0.116858,0.46744 0.550558,0.79158 0.801806,1.20271 0.878451,1.43746 0.319202,0.85374 0.801809,1.33635"
       id="path563"
       inkscape:connector-curvature="0" />
    <path
       style="fill:none;stroke:#000000;stroke-width:0.26458332px;stroke-linecap:butt;stroke-linejoin:miter;stroke-opacity:1"
       d="m 12.294398,184.07862 c 11.982584,0 23.965168,0 35.94775,0 3.296325,0 6.592649,0 9.888974,0 1.603616,0 3.207853,-0.0445 4.81085,0 1.605473,0.0446 3.205419,0.2214 4.810852,0.26727 1.513909,0.0433 3.029794,-0.0473 4.543581,0 1.338662,0.0418 2.670649,0.2177 4.009044,0.26727 1.068345,0.0396 2.139489,-0.0534 3.207234,0 0.71737,0.0359 1.422008,0.21218 2.138156,0.26727 0.532966,0.041 1.069078,0 1.603618,0"
       id="path565"
       inkscape:connector-curvature="0" />
    <path
       style="fill:none;stroke:#000000;stroke-width:0.26458332px;stroke-linecap:butt;stroke-linejoin:miter;stroke-opacity:1"
       d="m 18.307962,181.00502 c 0.801808,0 1.614527,-0.13182 2.405426,0 0.131817,0.022 0,0.26727 0,0.40091 0,0.0891 0,0.17818 0,0.26727 0,0.0445 -0.01992,0.0938 0,0.13363 0.02817,0.0564 0.08909,0.0891 0.133635,0.13363 0.04454,0.0445 0.07064,0.13364 0.133635,0.13364 0.04455,0 0,-0.0891 0,-0.13364 0,-0.26726 0,-0.53453 0,-0.8018 0,-0.84636 0,-1.69271 0,-2.53906 0,-0.17818 0,-0.35636 0,-0.53454 0,-0.0445 0,-0.17818 0,-0.13364 0,0.40091 0,0.80181 0,1.20272 0,0.4009 0.06967,0.80791 0,1.20271 -0.799928,4.53293 -0.04038,-2.93085 -0.668174,2.40542 0,2.18493 0.07563,0.005 -0.133635,1.46999 -0.0189,0.13229 -0.133635,0.4009 0,0.4009 0.140863,0 0.113714,-0.26145 0.133635,-0.4009 0.0252,-0.17639 -0.01613,-0.3571 0,-0.53454 0.02852,-0.31369 0.06281,-0.62853 0.133635,-0.93545 0.212162,-0.91936 0.314355,-0.60449 0.400904,-1.46998 0.267295,-2.67295 -0.316269,1.36307 0.133635,-1.33635 0.03291,-0.19748 -0.09352,-0.17375 0.133634,-0.4009 0.0315,-0.0315 -0.0087,0.09 0,0.13364 0.03602,0.18009 0.103441,0.35337 0.133635,0.53453 0.05904,0.35425 0.106091,0.71101 0.133635,1.06908 0.01708,0.22207 -0.03984,0.44904 0,0.66817 0.0504,0.27719 0.17818,0.53455 0.267269,0.80181 0.04454,0.13364 0.09947,0.26425 0.133635,0.40091 0.0048,0.0191 -0.03825,0.35321 0.133635,0.26727 0.08909,-0.0445 0.102137,-0.17278 0.133635,-0.26727 0.05808,-0.17424 0.08531,-0.35735 0.133634,-0.53454 0.08533,-0.31287 0.175766,-0.62433 0.26727,-0.93544 0.131225,-0.44617 0.300018,-0.88236 0.400904,-1.33635 0.224514,-1.79611 -0.01077,-0.35783 0.400904,-2.00452 0.05509,-0.22036 0.101514,-0.44332 0.133635,-0.66818 0.0126,-0.0882 0,-0.17818 0,-0.26727 0,-0.0891 0,-0.35636 0,-0.26726 0,1.6927 0,3.38541 0,5.07812 0,0.26727 -0.03315,0.5366 0,0.8018 0.01235,0.0988 0.07838,0.1844 0.133635,0.26727 0.03494,0.0524 0.08909,0.17818 0.133635,0.13364 0.09961,-0.0996 0.113714,-0.26146 0.133635,-0.40091 0.0252,-0.17638 -0.0252,-0.35814 0,-0.53453 0.06424,-0.44971 0.18227,-0.89011 0.267269,-1.33635 0.09319,-0.48923 0.156896,-0.98434 0.26727,-1.46998 0.112559,-0.49526 0.329077,-0.9672 0.400904,-1.46999 0.063,-0.44097 -0.04663,-0.89334 0,-1.33634 0.249144,-2.36687 0.224004,-0.27878 0.400904,-1.87089 0.0428,-0.38522 -0.137417,-0.66565 0.26727,-0.93545 0.05242,-0.0349 0.119969,0.0721 0.133635,0.13364 0.18336,0.82512 0.133634,1.42635 0.133634,2.27179 0,1.60362 0,3.20724 0,4.81085 0,0.44545 0.063,0.89538 0,1.33635 -0.07183,0.50279 -0.294486,0.97337 -0.400904,1.46998 -0.028,0.13067 0,0.26727 0,0.40091 0,0.13172 0,0.39899 0,0.26727 0,-0.13364 0,-0.26727 0,-0.40091 0,-0.26727 -0.06886,-0.54356 0,-0.80181 0.113041,-0.4239 0.382872,-0.79104 0.534539,-1.20271 0.160775,-0.43639 0.309698,-0.88032 0.400904,-1.33635 0.0878,-0.43898 0.06382,-0.89415 0.133635,-1.33634 0.320764,-2.0315 0.255322,-0.36727 0.400903,-2.40543 0.03306,-0.46283 -0.08128,-0.77288 0.133636,-1.20271 0.03984,-0.0797 0,0.17818 0,0.26727 0,0.26726 0,0.53454 0,0.80181 0,0.48999 0,0.97998 0,1.46998 0,0.57908 0.02143,1.15856 0,1.73725 -0.04249,1.1473 -0.201049,2.75622 -0.400905,3.87541 -0.104472,0.58505 -0.324037,1.14794 -0.400903,1.73725 0,2.38636 0.108037,0.34124 -0.26727,2.40543 -0.01779,0.0978 -0.106265,0.64126 0.26727,0.53453 1.185602,-0.33874 1.11096,-1.62554 1.469981,-2.67269 0.274114,-0.7995 0.574625,-1.59135 0.80181,-2.40543 0.30784,-1.10309 0.539501,-2.22606 0.801809,-3.34087 0.671192,-2.85256 0.824701,-3.46105 1.336347,-6.14719 0.186375,-0.97847 0.339196,-1.96326 0.53454,-2.93997 0.204282,-1.02142 0.680773,-3.20848 1.069078,-4.27631 0.136157,-0.37444 0.356359,-0.71272 0.534538,-1.06908 0.08909,-0.17818 0.178181,-0.71272 0.267269,-0.53454 0.159369,0.31874 0,0.71272 0,1.06908 0,0.26727 0,0.53454 0,0.80181 0,2.85087 0,5.70175 0,8.55262 0,1.15817 0,2.31634 0,3.4745 0,1.56703 -0.22238,0.78754 0.267271,1.60362 0.05125,0.0854 0.0632,0.19684 0.133633,0.26727 0.107852,0.10785 0.448054,-0.22793 0.534541,-0.4009 0.188986,-0.37798 0.279474,-0.79795 0.400904,-1.20271 0.145939,-0.48648 0.313881,-0.96961 0.400902,-1.46999 0.09191,-0.52846 0.07215,-1.07076 0.133636,-1.60362 0.07221,-0.6258 0.189132,-1.24579 0.267269,-1.87088 0.559133,-4.47307 -0.364678,2.04236 0.400904,-2.80633 0.05601,-0.35474 0.101121,-0.71142 0.133636,-1.06908 0.01209,-0.13309 0,-0.53454 0,-0.4009 0,1.24725 0,2.49451 0,3.74177 0,0.57908 0.06638,1.16198 0,1.73725 -0.77592,6.72464 -0.07236,-2.9152 -0.668173,3.34087 -0.03801,0.3991 0.02856,0.80283 0,1.20271 -0.0037,0.0512 -0.31091,0.91363 0,1.06908 0.05635,0.0282 0.101221,-0.0796 0.133633,-0.13363 0.102494,-0.17083 0.197323,-0.34801 0.267271,-0.53454 0.19784,-0.52758 0.329216,-1.07891 0.534538,-1.60362 0.722987,-1.84763 0.756846,-1.24017 1.336347,-3.34087 0.181208,-0.65687 0.262848,-1.33725 0.400904,-2.00452 0.12922,-0.62456 0.26542,-1.24766 0.400905,-1.87089 0.08724,-0.40131 0.216331,-0.7952 0.267269,-1.20271 0.03868,-0.30941 0,-0.62363 0,-0.93544 0,-0.0446 0,-0.17818 0,-0.13364 0,2.1827 0,4.3654 0,6.54811 0,0.97998 0,1.95997 0,2.93996 0,0.66445 -0.03315,1.20375 0.133636,1.87089 0.01079,0.0432 0.09885,0.0278 0.133635,0 0.196766,-0.15742 0.388075,-0.32949 0.534538,-0.53454 0.301943,-0.42272 0.569492,-0.87171 0.801809,-1.33635 0.169527,-0.33905 1.416762,-3.46299 1.469983,-3.60814 0.126844,-0.34594 1.091528,-3.25256 1.202711,-3.74177 0.414843,-1.8253 -0.168595,-0.58077 0.400905,-2.00452 0.01654,-0.0414 0,0.0891 0,0.13363 0,0.49 0,0.97999 0,1.46998 0,0.80181 0.04107,1.60467 0,2.40543 -0.109824,2.14155 -0.301869,2.83317 -0.534538,4.81085 -0.09944,0.8452 -0.220065,1.68934 -0.267269,2.53906 -0.03398,0.61156 -0.08886,3.26117 0.267269,4.00904 0.222628,0.46753 1.245478,1.32566 1.870887,1.46999 0.303829,0.0701 0.623628,0 0.935443,0 0.267268,0 0.552354,0.0959 0.801809,0 0.861496,-0.33135 1.284502,-1.05538 1.603616,-1.87089 0.593015,-1.51548 0.580511,-2.27101 0.801809,-3.87541 0.349165,-2.53144 0.267269,-1.16068 0.267269,-3.60814 0,-0.53453 0,-1.06907 0,-1.60361 0,-0.23101 0.15749,-0.82926 -0.267269,-0.93545 -0.09663,-0.0241 -0.235771,0.0391 -0.267269,0.13364 -0.113567,0.3407 -0.08285,0.71355 -0.133636,1.06908 -0.08286,0.58001 -0.156623,1.16189 -0.267269,1.73725 -0.112233,0.58361 -0.327189,1.14754 -0.400904,1.73725 -0.06078,0.48621 0,0.97999 0,1.46998 0,0.53454 -0.08337,1.07562 0,1.60362 0.118837,0.75264 0.359632,0.89417 0.801809,1.33635 0.135842,0.13584 0.185161,0.26968 0.400904,0 0.343546,-0.42944 0.445437,-1.31402 0.534538,-1.73725 0.09359,-0.44453 0.17077,-0.89245 0.267269,-1.33635 0.126249,-0.58074 0.332785,-1.14687 0.400905,-1.73725 0.06638,-0.57527 0,-1.15817 0,-1.73726 0,-0.71271 0,-1.42543 0,-2.13815 0,-0.0891 -0.08909,-0.26727 0,-0.26727 0.08909,0 -0.01746,0.17991 0,0.26727 0.02763,0.13813 0.08417,0.26901 0.133635,0.4009 0.08423,0.22461 0.172776,0.44769 0.267269,0.66818 0.03924,0.0916 0.07387,0.18758 0.133636,0.26726 0.07559,0.1008 0.178178,0.17819 0.267269,0.26728 0.04454,0.0445 0.07729,0.10546 0.133636,0.13363 0.03984,0.0199 0.08909,0 0.133633,0 0.08909,0 0.178181,0 0.267271,0 0.133633,0 0.281377,0.0598 0.400905,0 0.43076,-0.21538 0.452263,-0.52407 0.534537,-0.93544 0.02146,-0.10722 0.205846,-1.30619 0.267269,-1.46999 0.115364,-0.30763 0.378944,-0.33315 0.267272,-0.66817 -0.01992,-0.0598 -0.115533,-0.19397 -0.133636,-0.13363 -0.265893,0.8863 -0.27183,1.76918 -0.400905,2.67269 -0.186824,1.30777 -0.3406,1.67358 -0.400904,2.93996 -0.02331,0.48945 0,0.97999 0,1.46999 0,0.35636 0,0.71272 0,1.06907 0,0.37883 -0.07043,0.72897 0.133636,1.06908 0.06482,0.10804 0.154577,0.21093 0.267268,0.26727 0.330701,0.16535 1.057535,-0.41411 1.202714,-0.66817 0.09112,-0.15947 0.09762,-0.35444 0.133633,-0.53454 0.162928,-0.81464 0.133636,-0.63799 0.133636,-1.33635 0,-0.0445 0.0063,0.0895 0,0.13364 -0.03832,0.26823 -0.09782,0.53323 -0.133636,0.80181 -0.168068,1.26051 -0.133633,0.99422 -0.133633,2.13815 0,0.26727 0,0.53454 0,0.80181 0,0.42343 -0.07968,0.72213 0.267269,1.06908 0.161806,0.16181 0.464712,0.13364 0.668174,0.13364 0.282527,0 0.686374,0.0324 0.935442,-0.13364 0.133636,-0.0891 0.195445,-0.25725 0.267271,-0.40091 0.151715,-0.30342 0.257443,-0.62802 0.400905,-0.93544 0.168487,-0.36104 0.394642,-0.69602 0.534538,-1.06908 0.128976,-0.34394 0.166356,-0.71588 0.267268,-1.06907 0.0774,-0.27089 0.198943,-0.5285 0.267272,-0.80181 0.06571,-0.26287 0.04795,-0.54476 0.133633,-0.80181 0.0945,-0.28348 0.279543,-0.52875 0.400905,-0.80181 0.05721,-0.12872 0.08132,-0.27012 0.133635,-0.40091 0.07399,-0.18496 0.178179,-0.35636 0.267269,-0.53453 0.116105,-0.23221 0.19966,-0.51253 0.534541,-0.40091 0.259625,0.0865 0.133633,0.5602 0.133633,0.66818 0,0.26726 0,0.53454 0,0.8018 0,0.17818 -0.02519,0.35816 0,0.53454 0.03303,0.23119 0.164052,0.46174 0.267269,0.66818 0.05425,0.10851 0.131225,0.33288 0.267271,0.4009 0.03984,0.0199 0.09137,-0.0141 0.133633,0 0.0945,0.0315 0.172776,0.10214 0.267272,0.13364 0.08452,0.0282 0.178178,0 0.267269,0 0.133633,0 0.276828,0.0496 0.400904,0 0.11698,-0.0468 0.178178,-0.17818 0.267269,-0.26727 0.952323,-0.95233 -0.07603,0.12844 0.668173,-0.80181 0.11806,-0.14758 0.287513,-0.24972 0.400905,-0.40091 0.09636,-0.12848 0.195442,-0.25725 0.267269,-0.4009 0.01992,-0.0398 -0.01992,-0.0938 0,-0.13363 0.02817,-0.0564 0.105463,-0.18999 0.133636,-0.13364 0.05976,0.11953 0,0.26727 0,0.4009 0,0.17818 0,0.35636 0,0.53454 0,0.22273 0.02217,0.44656 0,0.66818 -0.0226,0.22601 -0.093,0.4447 -0.133636,0.66817 -0.04847,0.26659 -0.103711,0.53251 -0.133633,0.80181 -0.02952,0.26563 0,0.53454 0,0.80181 0,0.0891 0,0.35636 0,0.26727 0,-0.50051 -0.05976,-0.28138 0.133633,-0.66818"
       id="path567"
       inkscape:connector-curvature="0" />
    <path
       style="fill:none;stroke:#000000;stroke-width:0.26458332px;stroke-linecap:butt;stroke-linejoin:miter;stroke-opacity:1"
       d="m 83.254455,184.88043 c 0.712721,-0.71272 1.468522,-1.38482 2.138158,-2.13816 0.05919,-0.0666 0,-0.17817 0,-0.26726 0,-0.22273 0,-0.44545 0,-0.66818 0,-0.17818 -0.02209,-0.35773 0,-0.53454 0.02278,-0.18224 0.110853,-0.35229 0.133634,-0.53454 0.02209,-0.1768 0,-0.35636 0,-0.53454 0,-0.48999 0,-0.97998 0,-1.46998 0,-0.48999 0,-0.97999 0,-1.46998 0,-0.17818 -0.02519,-0.35815 0,-0.53454 0.01992,-0.13945 0.113715,-0.26146 0.133635,-0.4009 0.02519,-0.17639 -0.02519,-0.35815 0,-0.53454 0.01992,-0.13945 0.08909,-0.26727 0.133636,-0.40091 0,-0.17818 -0.01773,-0.35724 0,-0.53454 0.02696,-0.26961 0.06792,-0.53894 0.133633,-0.80181 0.274045,-1.09617 0.0021,1.05489 0.267272,-0.8018 0.01889,-0.13229 -0.01659,-0.26831 0,-0.40091 0.02119,-0.16946 0.198599,-0.99671 0.267269,-1.20271 0.0315,-0.0945 0.109476,-0.17064 0.133633,-0.26727 0.02162,-0.0864 -0.02162,-0.18084 0,-0.26727 0.02416,-0.0966 0.102137,-0.17277 0.133635,-0.26727 0.01408,-0.0423 0,-0.0891 0,-0.13363 0,-0.17818 0,-0.35636 0,-0.53454 0,-0.57798 0.05267,-1.17834 -0.133635,-1.73726 -0.01992,-0.0598 -0.105461,-0.0773 -0.133633,-0.13363 -0.161809,-0.32362 -0.133636,-0.36238 -0.133636,-0.66817 0,-0.0891 -0.03984,-0.18759 0,-0.26727 0.01992,-0.0398 0.08909,0 0.133636,0 0.04454,0 0.08909,0 0.133633,0 0.356359,0 -0.04454,-0.0445 0.133635,0.13363 0.0315,0.0315 0.09657,-0.0247 0.133636,0 0.104831,0.0699 0.166476,0.19167 0.267269,0.26727 0.647229,0.48542 -0.0078,-0.14147 0.400905,0.26727 0.178178,0.17818 0.356359,0.35636 0.534537,0.53454 0.08909,0.0891 0.162439,0.19738 0.267272,0.26727 0.08288,0.0553 0.184391,0.0784 0.267269,0.13364 0.06526,0.0435 0.491032,0.46927 0.534537,0.53453 0.110504,0.16576 0.156769,0.36879 0.267272,0.53454 0.102796,0.1542 0.298108,0.24671 0.400904,0.40091 0.05525,0.0829 0.07387,0.18758 0.133634,0.26727 0.03177,0.0424 0.584631,0.61248 0.668173,0.66817 0.08288,0.0553 0.184393,0.0784 0.267271,0.13363 0.05241,0.0349 0.07729,0.10547 0.133634,0.13364 0.03984,0.0199 0.09379,-0.0199 0.133635,0 0.06188,0.0309 0.455944,0.45594 0.534538,0.53454 0.04454,0.0445 0.07729,0.10546 0.133636,0.13363 0.03984,0.0199 0.08909,0 0.133636,0 0.04454,0 0.102134,0.0315 0.133633,0 0.113567,-0.11356 0.164451,-0.27752 0.267268,-0.4009 0.201647,-0.24198 0.44545,-0.44545 0.668177,-0.66818 0.04454,-0.0445 0.09584,-0.0832 0.133633,-0.13363 0.09637,-0.12849 0.184636,-0.26318 0.267269,-0.4009 0.05125,-0.0854 0.07387,-0.18759 0.133635,-0.26727 0.578009,-0.57801 0.02096,0.0354 0.400905,-0.53454 0.03494,-0.0524 0.113712,-0.0739 0.133636,-0.13364 0.02817,-0.0845 -0.02817,-0.18275 0,-0.26727 0.01992,-0.0598 0.09869,-0.0812 0.133633,-0.13363 0.05525,-0.0829 0.102137,-0.17278 0.133635,-0.26727 0.01408,-0.0423 -0.02471,-0.0966 0,-0.13363 0.06989,-0.10484 0.178179,-0.17819 0.267269,-0.26728 0.04455,-0.0445 0.105463,-0.0773 0.133636,-0.13363 0.03984,-0.0797 -0.03984,-0.18759 0,-0.26727 0.02817,-0.0563 0.08909,-0.0891 0.133633,-0.13363 0.04454,-0.0445 0.07729,-0.10547 0.133636,-0.13364 0.03984,-0.0199 0.133636,-0.0445 0.133636,0 0,0.0445 -0.178181,0 -0.133636,0 0.08909,0 0.187584,0.0398 0.267269,0 0.03984,-0.0199 -0.03984,-0.11371 0,-0.13363 0.07968,-0.0399 0.178181,0 0.267271,0 0.133633,0 0.269865,0.0262 0.400902,0 0.09767,-0.0195 0.169601,-0.1141 0.267272,-0.13364 0.129693,-0.0259 0.910505,0 1.069078,0 0.133633,0 0.267269,0 0.400904,0 0.04454,0 0.09137,0.0141 0.133633,0 0.09449,-0.0315 0.172776,-0.10214 0.267269,-0.13363 0.08452,-0.0282 0.182753,0.0282 0.267272,0 0.01061,-0.004 0.300265,-0.20073 0.400904,-0.13364 0.209662,0.13978 0.324874,0.39477 0.534538,0.53454 0.331507,0.22101 0.737572,0.31353 1.069082,0.53454 0.23732,0.15822 0.41777,0.39796 0.66817,0.53454 0.24733,0.1349 0.53454,0.17818 0.80181,0.26727 0.26727,0.0891 0.53001,0.19314 0.80181,0.26727 0.21913,0.0598 0.46139,0.0396 0.66817,0.13363 0.29243,0.13292 0.5145,0.39089 0.80181,0.53454 0.16427,0.0821 0.3603,0.0756 0.53454,0.13364 0.0945,0.0315 0.17818,0.0891 0.26727,0.13363 0.0891,0.0445 0.18758,0.0739 0.26727,0.13364 0.41549,0.31162 0.26121,0.38879 0.53454,0.93544 0.0282,0.0563 0.0891,0.0891 0.13363,0.13363 0.0446,0.0891 0.0966,0.17479 0.13364,0.26727 0.0523,0.13079 0.0612,0.28012 0.13363,0.40091 0.0648,0.10804 0.17818,0.17818 0.26727,0.26727 0.0446,0.0445 0.10546,0.0773 0.13364,0.13363 0.0199,0.0398 -0.0247,0.0966 0,0.13364 0.0699,0.10483 0.17817,0.17818 0.26726,0.26727 0.0891,0.0891 0.17819,0.17818 0.26727,0.26727 0.38639,0.38638 0.57963,0.60914 1.06908,0.93544 0.33151,0.22101 0.72315,0.33687 1.06908,0.53454 0.13945,0.0797 0.26318,0.18464 0.4009,0.26727 0.17083,0.10249 0.37518,0.14774 0.53454,0.26727 0.1008,0.0756 0.16648,0.19167 0.26727,0.26727 0.15937,0.11952 0.36879,0.15676 0.53454,0.26727 0.18532,0.12354 0.33984,0.29274 0.53454,0.4009 0.2097,0.1165 0.44274,0.18529 0.66817,0.26727 0.6707,0.24389 1.15381,0.38088 1.87089,0.53454 0.26494,0.0568 0.54284,0.054 0.80181,0.13363 0.32424,0.0998 0.6112,0.30114 0.93544,0.40091 1.56011,0.48003 0.31683,-0.10886 1.06908,0.26727 0.0891,0.0445 0.20751,0.054 0.26727,0.13363 0.0845,0.11269 0.0891,0.26727 0.13364,0.40091 0.0445,0.13363 0.0891,0.26727 0.13363,0.4009 0.0446,0.13364 0.0813,0.27012 0.13363,0.4009 0.11098,0.27745 0.2832,0.52716 0.40091,0.80181 0.0555,0.12948 0.0995,0.26425 0.13364,0.40091 0.11389,0.45557 -0.37425,-0.48122 0.13363,0.53454 0.0718,0.14365 0.18464,0.26318 0.26727,0.4009 0.10249,0.17082 0.15677,0.36879 0.26727,0.53454 0.0699,0.10483 0.21092,0.15458 0.26727,0.26727 0.0199,0.0398 0,0.0891 0,0.13364 0.0445,0.0891 0.0784,0.18439 0.13363,0.26726 0.035,0.0524 0.0987,0.0812 0.13364,0.13364 0.0553,0.0829 0.0784,0.18439 0.13363,0.26727 0.0349,0.0524 0.11836,0.0725 0.13364,0.13363 0.006,0.0251 10e-4,0.93289 0,0.93545 -0.0282,0.0563 -0.11836,0.0725 -0.13364,0.13363 -0.0324,0.12965 0,0.26727 0,0.40091 0,0.17818 0,0.35636 0,0.53453 0,0.13364 0.0189,0.26862 0,0.40091 -0.026,0.18182 -0.10766,0.35272 -0.13363,0.53454 -0.0504,0.35278 0.0442,0.71547 0,1.06908 -0.0175,0.13977 -0.11372,0.26145 -0.13364,0.4009 -0.0406,0.28442 0,0.63842 0,0.93544"
       id="path571"
       inkscape:connector-curvature="0" />
    <path
       style="fill:none;stroke:#000000;stroke-width:0.26458332px;stroke-linecap:butt;stroke-linejoin:miter;stroke-opacity:1"
       d="m 83.254455,184.88043 c 1.06908,-0.35636 2.175761,-0.61523 3.207237,-1.06908 0.212484,-0.0935 0.101584,-0.50792 0.133633,-0.66817 0.02763,-0.13813 0.09947,-0.26425 0.133635,-0.40091 0.05509,-0.22035 0.08436,-0.44644 0.133636,-0.66817 0.433848,-1.7354 -0.06122,0.42855 0.133633,-0.93544 0.02598,-0.18182 0.110855,-0.3523 0.133636,-0.53454 0.02209,-0.1768 -0.01968,-0.35745 0,-0.53454 0.277543,-2.49789 -0.01032,0.59638 0.267269,-1.06908 0.05126,-0.30757 -0.0441,-0.62676 0,-0.93544 0.01992,-0.13945 0.113715,-0.26146 0.133636,-0.40091 0,-1.15601 -0.05635,0.0144 0.133635,-0.93544 0.04283,-0.21416 -0.04283,-0.45401 0,-0.66817 0.01953,-0.0977 0.109477,-0.17064 0.133633,-0.26727 0.04321,-0.17286 -0.04321,-0.36168 0,-0.53454 0.02416,-0.0966 0.109477,-0.17064 0.133636,-0.26727 0.02162,-0.0864 0,-0.17818 0,-0.26727 0.04454,-0.0891 0.102137,-0.17278 0.133633,-0.26727 0.01408,-0.0423 -0.01992,-0.0938 0,-0.13363 0.02817,-0.0563 0.105463,-0.0773 0.133636,-0.13364 0.01992,-0.0398 -0.0108,-0.0904 0,-0.13364 0.03417,-0.13665 0.07064,-0.27491 0.133636,-0.4009 0.08909,-0.13363 0.178178,-0.26727 0.267269,-0.4009 0,-0.0445 -0.01408,-0.0914 0,-0.13364 0.194577,-0.58373 0.09594,0.0943 0.400904,-0.66817 0.03309,-0.0827 0,-0.17818 0,-0.26727 0.08909,-0.13364 0.195443,-0.25725 0.267269,-0.40091 0.063,-0.12599 0.08132,-0.27011 0.133636,-0.4009 0.03699,-0.0925 0.102137,-0.17278 0.133633,-0.26727 0.02817,-0.0845 -0.03984,-0.18759 0,-0.26727 0.02817,-0.0564 0.07729,-0.10546 0.133636,-0.13363 0.134633,-0.0673 0.640998,0.11189 0.668173,0.13363 0.148265,0.11861 0.480113,0.81299 0.53454,0.93544 0.291331,0.6555 0.53538,1.33846 0.801807,2.00453 0.08909,0.22272 0.159991,0.45361 0.267272,0.66817 0.07183,0.14365 0.182147,0.26471 0.267268,0.4009 0.13766,0.22026 0.272037,0.44266 0.400905,0.66818 0.09883,0.17296 0.164775,0.36371 0.267269,0.53454 0.08263,0.13772 0.216479,0.24853 0.267269,0.4009 0.04226,0.12678 -0.03671,0.27241 0,0.40091 0.05473,0.19154 0.178181,0.35636 0.267269,0.53453 0.04454,0.0891 0.11726,0.16902 0.133635,0.26727 0.02929,0.17576 -0.02209,0.35774 0,0.53454 0.02278,0.18225 0.107662,0.35272 0.133636,0.53454 0.04409,0.30868 -0.03868,0.62604 0,0.93545 0.02278,0.18224 0.08909,0.35636 0.133633,0.53453 0.04455,0.17818 0.09762,0.35445 0.133636,0.53454 0.0087,0.0437 -0.01408,0.0914 0,0.13364 0.0809,0.24271 0.114371,0.248 0.267269,0.4009 0.04454,0.0446 0.07729,0.10546 0.133635,0.13364 0.109713,0.0548 0.37001,-0.10274 0.400905,-0.13364 0.157491,-0.15749 0.271447,-0.3533 0.400905,-0.53454 0.27001,-0.37801 0.402264,-0.58408 0.534537,-1.06907 0.07129,-0.26141 0.07271,-0.5378 0.133636,-0.80181 0.117435,-0.5089 0.352317,-1.06917 0.400905,-1.60362 0.02421,-0.26617 -0.0222,-0.53546 0,-0.80181 0.02249,-0.27002 0.112852,-0.53165 0.133633,-0.80181 0.041,-0.53296 0,-1.06908 0,-1.60362 0,-0.4896 -0.04368,-0.8635 0.133636,-1.33634 0.05639,-0.15039 0.216479,-0.24854 0.267268,-0.40091 0.04226,-0.12678 -0.02622,-0.26986 0,-0.4009 0.01953,-0.0977 0.102138,-0.17278 0.133636,-0.26727 0.01408,-0.0423 -0.01408,-0.0914 0,-0.13364 0.0315,-0.0945 0.102137,-0.17277 0.133633,-0.26727 0.0495,-0.14848 -0.193027,-0.48999 0.400905,-0.13363 0.316513,0.18991 0.486931,1.21733 0.53454,1.33635 0.147971,0.36992 0.377592,0.70287 0.534538,1.06908 0.415721,0.97001 0.204282,0.94922 0.53454,2.13815 0.657318,2.36635 0.160597,-0.29305 0.801809,2.27179 0.07639,0.30558 0.0471,0.63259 0.133634,0.93545 0.0932,0.32619 0.307708,0.60925 0.400908,0.93544 0.0865,0.30286 0.041,0.63439 0.13363,0.93544 0.0879,0.28561 0.30641,0.51833 0.40091,0.80181 0.0857,0.25705 0.0558,0.54228 0.13363,0.80181 0.0572,0.19081 0.18636,0.3525 0.26727,0.53454 0.59705,1.34336 -0.10605,0.0414 0.66817,1.20271 0.0553,0.0829 0.0967,0.17479 0.13364,0.26727 0.0523,0.13079 0.0491,0.28822 0.13363,0.40091 0.0598,0.0797 0.19684,0.0632 0.26727,0.13363 0.0704,0.0704 0.0632,0.19684 0.13364,0.26727 0.0315,0.0315 0.0891,0 0.13363,0 0.0446,0 0.0891,0 0.13364,0 0.0445,0 0.0938,0.0199 0.13363,0 0.26047,-0.13024 0.63762,-0.4383 0.80181,-0.66817 0.11579,-0.16211 0.18636,-0.3525 0.26727,-0.53454 0.0974,-0.21921 0.16801,-0.4498 0.26727,-0.66818 0.12365,-0.27203 0.28992,-0.52436 0.4009,-0.8018 0.13643,-0.34106 0.16172,-0.71725 0.26727,-1.06908 0.081,-0.26985 0.18632,-0.53197 0.26727,-0.80181 0.0528,-0.17592 0.10344,-0.35338 0.13364,-0.53454 0.0751,-0.45049 -0.17639,-0.18176 0.13363,-0.80181 0.0563,-0.11269 0.20245,-0.15923 0.26727,-0.26727 0.43533,-0.72554 0.0427,-0.17074 0.13364,-0.53454 0.0342,-0.13666 0.0813,-0.27011 0.13363,-0.4009 0.16738,-0.41846 0.0918,-0.14814 0.40091,-0.53454 0.60442,-0.75553 0.0352,-0.1688 0.4009,-0.53454 0.0446,-0.0446 0.0706,-0.13363 0.13363,-0.13363 0.0446,0 -0.0122,0.0908 0,0.13363 0.0774,0.27089 0.20393,0.5273 0.26727,0.80181 0.0965,0.41838 0.19476,1.6178 0.26727,2.00452 0.0677,0.36104 0.19958,0.70804 0.26727,1.06908 0.0662,0.35298 0.0632,0.71692 0.13364,1.06907 0.0636,0.318 0.17818,0.62364 0.26727,0.93545 0.0891,0.31181 0.17818,0.62363 0.26727,0.93544 0.0891,0.31182 0.13556,0.6391 0.26727,0.93545 0.0512,0.11513 0.19738,0.16243 0.26727,0.26727 0.1105,0.16575 0.16477,0.36371 0.26727,0.53453 0.0324,0.054 0.0739,0.15356 0.13363,0.13364 0.11953,-0.0398 0.17818,-0.17818 0.26727,-0.26727 0.0891,-0.0891 0.20245,-0.15923 0.26727,-0.26727 0.0725,-0.12079 0.0966,-0.265 0.13363,-0.4009 0.17304,-0.63446 0.28757,-1.11389 0.40091,-1.73726 0.0485,-0.26658 0.048,-0.54475 0.13363,-0.8018 0.0945,-0.28349 0.28598,-0.52598 0.40091,-0.80181 0.74692,-1.79261 -0.0172,-0.23294 0.4009,-1.06908 0.22273,-0.44545 0,-0.13364 0.40091,-0.40091 0.0524,-0.0349 0.0739,-0.15355 0.13363,-0.13363 0.11953,0.0398 0.19738,0.16244 0.26727,0.26727 0.1105,0.16575 0.17818,0.35636 0.26727,0.53454 0.13364,0.26727 0.32391,0.51308 0.4009,0.80181 0.10394,0.38975 0.0505,0.80799 0.13364,1.20271 0.0958,0.45509 0.26727,0.8909 0.4009,1.33635 0.58616,1.95385 0.16819,0.70455 0.66818,2.00452 0.13662,0.35522 0.25098,0.71926 0.4009,1.06908 0.11771,0.27465 0.28993,0.52436 0.4009,0.80181 0.56768,1.41918 -0.31373,-0.25563 0.40091,0.93544 0.0512,0.0854 0.17818,0.35636 0.13363,0.26727 -0.62548,-1.25096 0.14139,0.20309 -0.66817,-1.06908 -1.09008,-1.71299 0.12468,-0.18205 -1.46998,-2.00452"
       id="path573"
       inkscape:connector-curvature="0" />
    <path
       style="fill:none;stroke:#000000;stroke-width:0.26458332px;stroke-linecap:butt;stroke-linejoin:miter;stroke-opacity:1"
       d="m 91.406177,177.79779 c 0.403699,0.15518 0.790625,0.13363 1.202714,0.13363 0.08909,0 0.18084,-0.0216 0.267269,0 0.09663,0.0242 0.172775,0.10214 0.267269,0.13364 0.04226,0.0141 0.08909,0 0.133635,0 0.222724,0 0.44545,0 0.668174,0 0.489995,0 0.979987,0 1.469983,0 0.221284,0 0.754424,-0.0302 0.935442,0 0.138948,0.0232 0.261958,0.11047 0.400904,0.13363 0.307573,0.0513 0.626036,-0.0387 0.935445,0 0.182245,0.0228 0.352293,0.11086 0.534538,0.13364 0.353608,0.0442 0.71547,-0.0442 1.069078,0 0.182245,0.0228 0.352721,0.10766 0.53454,0.13363 0.132292,0.0189 0.269082,-0.022 0.400902,0 0.13895,0.0232 0.26546,0.0949 0.40091,0.13364 0.17659,0.0504 0.35337,0.10344 0.53454,0.13363 0.0879,0.0147 0.1799,-0.0175 0.26726,0 0.27626,0.0553 0.52556,0.21202 0.80181,0.26727 0.0874,0.0175 0.17991,-0.0175 0.26727,0 1.11517,0.22304 -0.16333,0.0297 0.66818,0.26727 0.21839,0.0624 0.44644,0.0844 0.66817,0.13363 0.58169,0.12927 0.67162,0.20684 1.33635,0.26728 0.22181,0.0202 0.44655,-0.0222 0.66817,0 0.45202,0.0452 0.88433,0.22206 1.33635,0.26726 0.22162,0.0222 0.44681,-0.0246 0.66817,0 0.18254,0.0203 0.352,0.11336 0.53454,0.13364 0.35418,0.0393 0.71272,0 1.06908,0 0.17818,0 0.35815,-0.0252 0.53454,0 0.13945,0.0199 0.26425,0.0995 0.4009,0.13363 0.0864,0.0216 0.17818,0 0.26727,0"
       id="path575"
       inkscape:connector-curvature="0" />
    <path
       style="fill:none;stroke:#000000;stroke-width:0.26458332px;stroke-linecap:butt;stroke-linejoin:miter;stroke-opacity:1"
       d="m 78.176336,182.74227 c 0.222724,-0.13363 0.542033,-0.17385 0.668173,-0.4009 0.129797,-0.23364 0,-0.53454 0,-0.80181 0,-0.44545 0,-0.8909 0,-1.33635 0,-0.4009 0,-0.80181 0,-1.20271 0,-0.48999 0.02574,-0.98067 0,-1.46998 -0.01886,-0.35864 -0.08036,-0.71392 -0.133635,-1.06908 -0.08039,-0.53592 -0.178179,-1.06908 -0.267269,-1.60362 -0.133633,-0.53453 -0.313852,-1.05954 -0.400905,-1.60361 -0.09176,-0.5735 -0.0695,-1.16001 -0.133633,-1.73726 -0.139136,-1.25221 -0.404894,-2.48854 -0.53454,-3.74177 -0.06891,-0.6661 -0.04214,-1.34114 -0.133633,-2.00452 -0.400963,-2.90697 -0.465834,-0.84029 -0.668176,-3.87541 -0.04444,-0.66669 0,-1.33635 0,-2.00452 0,-0.57908 0,-1.15817 0,-1.73725 0,-2.40543 0,-4.81085 0,-7.21628 0,-0.53454 0,-1.06908 0,-1.60362 0,-0.4009 -0.06967,-0.8079 0,-1.20271 0.06614,-0.3748 0.264281,-0.71385 0.400904,-1.06908 0.623115,-1.62009 -0.03684,0.26871 0.400905,-1.33635 0.07413,-0.27179 0.212018,-0.52555 0.267269,-0.8018 0.03495,-0.17472 -0.02519,-0.35815 0,-0.53454 0.01992,-0.13945 0.110479,-0.26196 0.133635,-0.40091 0.02196,-0.13181 -0.05976,-0.28137 0,-0.4009 0.04455,-0.0891 0.178181,-0.0891 0.267269,-0.13363"
       id="path577"
       inkscape:connector-curvature="0" />
    <path
       style="fill:none;stroke:#000000;stroke-width:0.26458332px;stroke-linecap:butt;stroke-linejoin:miter;stroke-opacity:1"
       d="m 73.23185,141.58277 c 0.178017,-0.25829 0.694024,-0.0733 0.935443,-0.13364 0.545068,-0.13626 0.850333,-0.42516 1.336347,-0.66817 0.356359,-0.17818 0.712718,-0.35636 1.069078,-0.53454 0.178181,-0.0891 0.368786,-0.15677 0.53454,-0.26727 0.237323,-0.15821 0.43085,-0.37632 0.668173,-0.53454 1.906503,-1.271 -1.122198,0.99248 1.202714,-0.66817 0.102524,-0.0732 0.166476,-0.19168 0.267269,-0.26727 0.07968,-0.0598 0.184393,-0.0784 0.267269,-0.13364 0.101618,-0.0677 0.267269,-0.34898 0.267269,-0.13363 0,0.0445 -0.08909,0 -0.133633,0 0.178178,0 0.358783,-0.0293 0.534537,0 0.09825,0.0164 0.212019,0.0508 0.267272,0.13363 0.133061,0.1996 0.159991,0.45362 0.267269,0.66818 0.116157,0.23231 0.293423,0.43171 0.400904,0.66817 0.116578,0.25647 0.166135,0.53886 0.267269,0.80181 0.121783,0.31663 0.270425,0.62229 0.400905,0.93544 0.09226,0.22143 0.159991,0.45362 0.267269,0.66818 0.11616,0.23232 0.272036,0.44265 0.400904,0.66817 0.04942,0.0865 0.117261,0.16902 0.133636,0.26727 0.02929,0.17576 -0.03494,0.35982 0,0.53454 0.165132,0.16513 0.133633,0.0706 0.133633,0.26727"
       id="path579"
       inkscape:connector-curvature="0" />
    <path
       style="fill:none;stroke:#000000;stroke-width:0.26458332px;stroke-linecap:butt;stroke-linejoin:miter;stroke-opacity:1"
       d="m 74.167293,178.46596 c -0.06407,0.42606 0.318341,0.69755 0.400904,1.06908 0.04832,0.21742 0,0.44545 0,0.66817 0,0.26727 -0.02421,0.53564 0,0.80181 0.244174,2.68592 0.01828,-1.03811 0.267269,1.20272 0.04857,0.43709 -0.110662,0.92918 0.133636,1.33634 0.08909,0.0891 0.178178,0.17818 0.267269,0.26727 0,0.0445 -0.01992,0.0938 0,0.13364 0.05634,0.11269 0.210926,0.15458 0.267269,0.26727 0.063,0.12599 0.07064,0.27491 0.133635,0.4009 0.01773,0.0355 0.365424,0.38317 0.400905,0.40091 0.03984,0.0199 0.09138,-0.0141 0.133636,0 0.96797,0.32265 -0.210691,-0.0385 0.400902,0.26726 0.03984,0.0199 0.09379,-0.0199 0.133635,0 0.05635,0.0282 0.07729,0.10547 0.133636,0.13364 0.03984,0.0199 0.08909,0 0.133633,0 0.04454,0 0.08909,0 0.133636,0 0.06988,0 0.499401,0.0176 0.534538,0 0.05635,-0.0282 0.07729,-0.10546 0.133635,-0.13364 0.03984,-0.0199 0.09379,0.0199 0.133636,0 0.05635,-0.0282 0.07729,-0.10546 0.133633,-0.13363 0.07968,-0.0398 0.187587,0.0398 0.267272,0 0.05634,-0.0282 0.08122,-0.0987 0.133633,-0.13363 0.08288,-0.0553 0.184393,-0.0784 0.267269,-0.13364 0.05242,-0.0349 0.09428,-0.0844 0.133635,-0.13363 0.139137,-0.17392 0.267269,-0.35636 0.400905,-0.53454 0.133636,-0.17818 0.271449,-0.3533 0.400905,-0.53454 0.186703,-0.26139 0.356359,-0.53454 0.534537,-0.80181 0.08909,-0.13364 0.195445,-0.25725 0.267272,-0.4009 0.06299,-0.126 0.07064,-0.27492 0.133633,-0.40091 0.07183,-0.14365 0.187587,-0.26146 0.267271,-0.4009 0.148254,-0.25945 0.267269,-0.53454 0.400902,-0.80181 0.08909,-0.17818 0.178181,-0.35636 0.267272,-0.53454 0.04454,-0.0891 0.102137,-0.17278 0.133633,-0.26727 0.01408,-0.0423 -0.01992,-0.0938 0,-0.13364 0.02817,-0.0563 0.09869,-0.0812 0.133636,-0.13363 0.05525,-0.0829 0.08909,-0.17818 0.133635,-0.26727"
       id="path581"
       inkscape:connector-curvature="0" />
    <path
       style="fill:none;stroke:#000000;stroke-width:0.26458332px;stroke-linecap:butt;stroke-linejoin:miter;stroke-opacity:1"
       d="m 8.1517206,139.84552 c 0,4.94448 0,9.88897 0,14.83345 0,1.3809 0,2.76179 0,4.14268 0,0.53454 0,1.06908 0,1.60362 0,0.13363 0,0.53454 0,0.4009 0,-8.41899 0,-16.83798 0,-25.25697 0,-4.52004 -0.2390532,-0.11286 0.2672694,-2.13815 0.043215,-0.17286 -0.1781797,-0.53454 0,-0.53454 0.1781796,0 -0.023548,0.35792 0,0.53454 0.065821,0.49366 0.1992204,0.97662 0.2672696,1.46998 0.1102312,0.79918 0.1582679,1.60608 0.2672694,2.40543 0.1583248,1.16104 0.3628144,2.31536 0.534539,3.4745 0.1846398,1.24632 0.3429593,2.4965 0.534539,3.74177 0.164803,1.07122 0.394358,2.13252 0.534539,3.20724 0.127274,0.97576 0.121298,1.96682 0.26727,2.93996 0.28979,1.93193 0.439624,2.43978 1.336347,4.00904 0.06251,0.1094 0.197382,0.37211 0.26727,0.26727 0.123545,-0.18531 0,-0.44544 0,-0.66817 0,-0.57908 0,-1.15817 0,-1.73725 0,-0.44545 -0.063,-0.89538 0,-1.33635 0.07183,-0.50278 0.317407,-0.969 0.400904,-1.46998 0.753677,-4.52206 -0.710756,1.23206 0.801809,-3.60814 0.483,-1.5456 0.805932,-2.83107 1.069078,-4.40995 0.110819,-0.66491 0.168483,-1.33771 0.267269,-2.00452 0.824691,-4.94814 -0.242193,1.72318 0.400905,-3.20723 0.06441,-0.49385 0.140525,-0.98836 0.267269,-1.46999 0.09534,-0.36228 0.505237,-1.30275 0.668174,-1.73725 0.04946,-0.13189 0.02094,-0.31638 0.133635,-0.4009 0.106908,-0.0802 0.326777,-0.11119 0.400904,0 0.234411,0.35162 0.311134,0.78977 0.400904,1.20271 0.479749,2.20685 0.148197,2.11716 0.26727,4.67722 0.04572,0.98297 0.222587,1.95695 0.267269,2.93996 0.0445,0.97898 0,1.95998 0,2.93997 0,0.80181 0,1.60361 0,2.40542 0,0.57909 0,1.15817 0,1.73726 0,0.44545 -0.05887,0.8948 0,1.33634 0.0317,0.23778 0.05271,0.5609 0.26727,0.66818 0.159369,0.0797 0,-0.35636 0,-0.53454 0,-0.71272 0,-1.42544 0,-2.13816 0,-3.78632 0,-7.57263 0,-11.35895 0,-1.02454 0,-2.04907 0,-3.0736 0,-0.31182 0,-0.62363 0,-0.93545 0,-0.0445 0,-0.17818 0,-0.13363 0,7.61718 0,15.23436 0,22.85154 0,0.97999 0,1.95998 0,2.93997 0,0.62363 -0.05646,1.24982 0,1.87089 0.03326,0.36581 0.130848,0.72802 0.267269,1.06907 0.0542,0.13551 0.227744,0.32499 0.400905,0.26727 0.09449,-0.0315 0.232295,-0.0404 0.267269,-0.13363 0.110597,-0.29493 0.08451,-0.62432 0.133635,-0.93545 0.08452,-0.53528 0.184868,-1.068 0.26727,-1.60361 0.09579,-0.62264 0.178179,-1.24726 0.267269,-1.87089 0.04454,-0.75726 0.02928,-1.52043 0.133635,-2.27179 0.118984,-0.85668 0.424554,-1.68118 0.534539,-2.53906 0.113432,-0.88477 0.112896,-1.78093 0.133635,-2.6727 0.02382,-1.02425 0,-2.04906 0,-3.0736 0,-0.97998 0,-1.95997 0,-2.93996 0,-0.8909 0,-1.7818 0,-2.6727 0,-0.8018 -0.05002,-1.60517 0,-2.40542 0.03929,-0.62874 0.214954,-1.2431 0.267269,-1.87089 0.101705,-1.22045 -0.196416,-1.2285 0.26727,-2.27179 0.05117,-0.11513 0.178179,-0.17818 0.267269,-0.26727 0.08909,-0.0891 0.223031,-0.38524 0.26727,-0.26727 0.157187,0.41917 0.06803,0.89351 0.133634,1.33635 0.112691,0.76066 0.277351,1.51282 0.400905,2.27179 0.188279,1.15657 0.425163,2.30783 0.534539,3.4745 0.381521,4.06956 0.136843,5.64474 0.534539,9.62171 0.116598,1.16598 0.333762,2.32004 0.534539,3.4745 0.155671,0.89511 0.376648,1.77798 0.534539,2.6727 0.109478,0.62037 0.101516,1.26312 0.267269,1.87088 0.104832,0.38438 0.329553,0.72744 0.53454,1.06908 0.06482,0.10804 0.186611,0.36406 0.267269,0.26727 0.542068,-0.65048 0.467499,-2.15828 0.534539,-2.80633 0.146585,-1.41699 0.452232,-3.4535 0.668173,-4.81085 0.485505,-3.05175 0.667634,-3.32847 0.80181,-6.41447 0.04257,-0.97906 0,-1.95997 0,-2.93997 0,-1.46998 0,-2.93996 0,-4.40994 0,-0.22273 0,0.44545 0,0.66817 0,0.35636 0,0.71272 0,1.06908 0,2.00452 0,4.00904 0,6.01356 0,0.80181 0,1.60362 0,2.40543 0,0.53454 -0.04439,1.07092 0,1.60362 0.154056,1.84869 0.008,1.12704 0.534537,2.00452 0.09905,0.16509 0.277408,0.68907 0.400905,0.4009 0.14147,-0.33009 0.09085,-0.7125 0.133636,-1.06908 0.09085,-0.75705 0.148349,-1.51863 0.267268,-2.27179 0.42798,-2.71053 0.852768,-3.62792 1.069079,-6.5481 0.08555,-1.155 0,-2.31634 0,-3.4745 0,-1.15817 0,-2.31634 0,-3.47451 0,-1.87088 0,-3.74177 0,-5.61266 0,-1.47143 -0.169035,-1.31466 0.267271,-2.40542 0.01654,-0.0414 -0.0055,0.0894 0,0.13363 0.08361,0.66888 0.186156,1.33534 0.267269,2.00452 0.09708,0.80089 0.19423,1.602 0.267269,2.40543 0.105166,1.15682 0.170804,2.31693 0.267269,3.4745 0.08172,0.98063 0.224528,1.95687 0.267271,2.93997 0.04644,1.06807 0,2.13815 0,3.20723 0,0.8909 0,1.7818 0,2.6727 0,0.71272 -0.05078,1.42725 0,2.13815 0.173829,2.43362 0.124825,0.8378 0.534538,2.27179 0.02447,0.0857 -0.03984,0.18759 0,0.26727 0.05635,0.11269 0.210923,0.37996 0.267269,0.26727 0.119528,-0.23905 0,-0.53454 0,-0.8018 0,-0.26727 -0.01905,-0.53522 0,-0.80181 0.02558,-0.35822 0.111233,-0.71065 0.133635,-1.06908 0.03334,-0.5335 0,-1.06908 0,-1.60362 0,-0.13363 0,-0.53454 0,-0.4009 0,0.57908 0,1.15816 0,1.73725 0,0.26727 -0.02951,0.53617 0,0.80181 0.01556,0.14 0.106008,0.26277 0.133636,0.4009 0.01746,0.0874 -0.02817,0.18275 0,0.26727 0.01992,0.0598 0.118356,0.0725 0.133633,0.13364 0.03241,0.12964 0,0.26727 0,0.4009 0,0.17818 0,0.35636 0,0.53454 0,0.26727 0,0.53454 0,0.80181 0,0.0891 0.02162,0.18084 0,0.26727 -0.02416,0.0966 -0.109476,0.17064 -0.133633,0.26727 -0.03241,0.12964 0,0.26727 0,0.4009 0,0.31182 0,0.62363 0,0.93544 0,0.31182 0,0.62363 0,0.93545 0,0.22272 -0.02763,0.44717 0,0.66817 0.09776,0.78205 0.118279,0.0722 0.267269,0.66818 0.02162,0.0864 -0.01746,0.1799 0,0.26726 0.139039,0.6952 0.08909,0.13364 0.267269,0.66818 0.02817,0.0845 -0.03984,0.18758 0,0.26727 0.08257,0.16513 0.129021,0.13363 0.267269,0.13363 0.04454,0 0.133635,-0.0445 0.133635,0 0,0.0445 -0.178181,0 -0.133635,0 0.08909,0 0.178181,0 0.267271,0 0.04454,0 0.119547,0.0423 0.133633,0 0.0061,-0.0182 -0.0059,-0.76065 0,-0.80181 0.07183,-0.50278 0.2867,-0.97509 0.400905,-1.46998 0.06953,-0.3013 0.230031,-1.47658 0.267269,-1.73725 0.04454,-0.31181 0.041,-0.63439 0.133635,-0.93544 0.08788,-0.2856 0.306412,-0.51833 0.400905,-0.80181 5.29e-4,-0.002 0.26438,-1.58773 0.267269,-1.60362 0.453395,-2.49367 -0.238742,1.22223 0.400905,-1.33635 0.03241,-0.12964 0,-0.26727 0,-0.4009 0,-0.31182 0,-0.62363 0,-0.93544 0,-0.0891 -0.02817,-0.18275 0,-0.26727 0.08272,-0.24818 0.570994,-0.16603 0.668173,-0.13364 0.117036,0.039 0.878012,0.5317 1.069078,0.66817 0.18124,0.12946 0.341159,0.29041 0.53454,0.40091 0.179959,0.10283 0.534538,0.10476 0.534538,0.26727 0,0.0445 -0.08909,0 -0.133633,0"
       id="path583"
       inkscape:connector-curvature="0" />
    <path
       style="fill:none;stroke:#000000;stroke-width:0.26458332px;stroke-linecap:butt;stroke-linejoin:miter;stroke-opacity:1"
       d="m 3.3408691,156.01532 c 0.2227247,-0.31181 0.5648542,-0.56644 0.6681737,-0.93544 0.4461801,-1.5935 0.1778289,-3.06728 0.2672697,-4.67722 0.047206,-0.84972 0.1410274,-1.69744 0.2672693,-2.53906 0.141259,-0.94173 0.3998691,-1.86364 0.5345391,-2.80633 0.1328904,-0.93023 0.1482767,-1.87422 0.2672696,-2.80633 0.2967728,-2.32472 0.7783917,-4.62352 1.0690781,-6.94901 0.1220538,-0.97643 0.1343141,-1.96495 0.2672696,-2.93996 0.13458,-0.98692 0.4401039,-1.9484 0.534539,-2.93997 0.084465,-0.88688 0,-1.78179 0,-2.67269 0,-2.04907 0,-4.09813 0,-6.1472"
       id="path585"
       inkscape:connector-curvature="0" />
    <path
       style="fill:none;stroke:#000000;stroke-width:0.26458332px;stroke-linecap:butt;stroke-linejoin:miter;stroke-opacity:1"
       d="m 2.9399648,123.27481 c 0.427532,-0.53134 0.9536842,-0.7003 1.4699824,-1.06908 0.1812385,-0.12946 0.3456688,-0.28286 0.534539,-0.40091 0.1689306,-0.10558 0.3603974,-0.17052 0.534539,-0.26727 0.454106,-0.25228 0.8980837,-0.52291 1.3363477,-0.80181 0.2709992,-0.17245 0.5145024,-0.39088 0.8018087,-0.53453 0.2519841,-0.12599 0.555535,-0.13046 0.8018084,-0.26727 0.1652053,-0.0918 0.2672696,-0.26727 0.4009043,-0.40091 0.2227247,-0.22272 0.4454493,-0.44545 0.6681737,-0.66817 0.08909,-0.0891 0.1781797,-0.17818 0.2672697,-0.26727 0.044545,-0.0446 0.1102386,-0.0751 0.1336347,-0.13364 0.068211,-0.17052 -0.050028,-0.53453 0.1336346,-0.53453 0.183663,0 0.112175,0.35213 0.133635,0.53453 0.443231,3.76747 -0.310692,0.003 0.668174,2.93997 0.08568,0.25705 0.06792,0.53894 0.133634,0.80181 0.06833,0.27331 0.193143,0.53001 0.26727,0.80181 0.01046,0.0384 0.207268,1.10271 0.267269,1.20271 0.05125,0.0854 0.196838,0.0632 0.26727,0.13363 0.0315,0.0315 -0.01992,0.0938 0,0.13364 0.02817,0.0563 0.08909,0.0891 0.133635,0.13363"
       id="path587"
       inkscape:connector-curvature="0" />
    <path
       style="fill:none;stroke:#000000;stroke-width:0.26458332px;stroke-linecap:butt;stroke-linejoin:miter;stroke-opacity:1"
       d="m 0.53453905,147.99724 c 0,0.66817 0,1.33634 0,2.00452 0,1.54837 -0.0439389,0.12323 0.26726951,2.40542 0.57266514,4.19955 -0.32874762,-1.35241 0.40090434,2.53906 0.452458,2.41311 -0.1048235,-0.40887 0.1336347,1.73726 0.033089,0.2978 0.301921,0.68798 0.4009043,0.93544 0.016544,0.0414 -0.019921,0.0938 0,0.13363 0.028173,0.0564 0.08909,0.0891 0.1336348,0.13364 0.044545,0.0445 0.077289,0.10546 0.1336347,0.13363 0.048707,0.0243 0.5911739,0 0.6681737,0 0.2672697,0 0.5345393,0 0.8018087,0 0.1385035,0 0.7402729,0.0308 0.8018087,0 0.056345,-0.0282 0.08909,-0.0891 0.1336347,-0.13363 0.08909,-0.0891 0.2151337,-0.15257 0.2672696,-0.26727 0.1748689,-0.38471 0.2292742,-0.81655 0.4009041,-1.20271 1.4761638,-2.6571 0.1108487,-0.0255 0.9354433,-2.00453 0.1149295,-0.27583 0.3064103,-0.51832 0.4009044,-0.8018 0,-0.50051 -0.059763,-0.28138 0.1336346,-0.66818"
       id="path589"
       inkscape:connector-curvature="0" />
    <path
       style="fill:none;stroke:#000000;stroke-width:0.26458332px;stroke-linecap:butt;stroke-linejoin:miter;stroke-opacity:1"
       d="m 1.3363476,163.09796 c 0.1781797,-0.0445 0.3522939,-0.15641 0.5345391,-0.13363 0.1976726,0.0247 0.3455509,0.20427 0.534539,0.26727 0.2154796,0.0718 0.4433213,0.10151 0.6681738,0.13363 0.3993173,0.0571 0.8001269,0.10848 1.202713,0.13364 0.3112071,0.0194 0.6283735,-0.0542 0.9354433,0 0.4579858,0.0808 0.8776126,0.32445 1.3363474,0.4009 0.3515109,0.0586 0.7146769,-0.0373 1.0690784,0 0.4952907,0.0521 0.9741982,0.22006 1.4699823,0.26727 0.4434425,0.0422 0.8936228,-0.0492 1.3363471,0 4.205297,0.46726 -2.3102391,0.11453 2.271791,0.40091 0.311208,0.0194 0.623629,0 0.935444,0 0.400904,0 0.801808,0 1.202713,0 1.514527,0 3.029054,0 4.543582,0 4.320857,0 8.641715,0 12.962572,0"
       id="path591"
       inkscape:connector-curvature="0" />
    <path
       style="fill:none;stroke:#000000;stroke-width:0.26458332px;stroke-linecap:butt;stroke-linejoin:miter;stroke-opacity:1"
       d="m 29.934188,161.36071 c 0.656902,0.25302 1.353254,0.40001 2.00452,0.66818 0.368411,0.1517 0.72493,0.33378 1.069078,0.53453 0.192384,0.11223 0.35636,0.26728 0.534538,0.40091 0.09268,0.0695 0.668176,0.37662 0.668176,0.66817 0,0.41845 -0.357878,0.6245 -0.668176,0.80181 -0.172963,0.0988 -0.345548,0.20428 -0.534538,0.26727 -0.215479,0.0718 -0.452694,0.0618 -0.668173,0.13364 -0.377976,0.12599 -0.702871,0.37759 -1.069078,0.53454 -0.129474,0.0555 -0.270116,0.0813 -0.400905,0.13363 -0.09248,0.037 -0.351303,0.18711 -0.267269,0.13364 0.573646,-0.36505 1.158166,-0.71272 1.737252,-1.06908"
       id="path593"
       inkscape:connector-curvature="0" />
    <path
       style="fill:none;stroke:#000000;stroke-width:0.26458332px;stroke-linecap:butt;stroke-linejoin:miter;stroke-opacity:1"
       d="m 1.3363476,163.09796 c 0.2227246,-0.66817 0.6681738,-1.3002 0.6681738,-2.00452 0,-0.28522 -0.4516135,0.34892 -0.6681738,0.53454 -0.92570792,0.79347 0.4971949,-0.36356 -0.53453904,0.66818 -0.15749008,0.15749 -0.36062033,0.26177 -0.53453905,0.4009 -0.0983833,0.0787 -0.17817967,0.17818 -0.26726951,0.26727 -0.17777955,0.17778 -0.44889343,0.38024 -0.40090428,0.66817 0.0373408,0.22405 0.0209441,0.47097 0.13363477,0.66818 0.20560798,0.35981 0.95230115,0.3383 1.20271284,0.4009 0.27331517,0.0683 0.54023177,0.16264 0.80180857,0.26727 0.3699254,0.14797 0.7127187,0.35636 1.0690782,0.53454 0.08909,0.0445 0.1676641,0.13364 0.2672694,0.13364 0.044545,0 0,-0.0891 0,-0.13364 0,-0.0445 0,-0.0891 0,-0.13363"
       id="path595"
       inkscape:connector-curvature="0"
       inkscape:export-filename="/home/simoes/LabOrgA14_01.png"
       inkscape:export-xdpi="96"
       inkscape:export-ydpi="96" />
  </g>
</svg>
