<?xml version="1.0" encoding="UTF-8" standalone="no"?>
<!-- Created with Inkscape (http://www.inkscape.org/) -->

<svg
   xmlns:dc="http://purl.org/dc/elements/1.1/"
   xmlns:cc="http://creativecommons.org/ns#"
   xmlns:rdf="http://www.w3.org/1999/02/22-rdf-syntax-ns#"
   xmlns:svg="http://www.w3.org/2000/svg"
   xmlns="http://www.w3.org/2000/svg"
   xmlns:sodipodi="http://sodipodi.sourceforge.net/DTD/sodipodi-0.dtd"
   xmlns:inkscape="http://www.inkscape.org/namespaces/inkscape"
   width="210mm"
   height="297mm"
   viewBox="0 0 210 297"
   version="1.1"
   id="svg8"
   inkscape:version="0.92.3 (2405546, 2018-03-11)"
   sodipodi:docname="SisEvol01.svg"
   inkscape:export-filename="/home/simoes/Documents/AulaEvolutivo02.png"
   inkscape:export-xdpi="96"
   inkscape:export-ydpi="96">
  <defs
     id="defs2" />
  <sodipodi:namedview
     id="base"
     pagecolor="#ffffff"
     bordercolor="#666666"
     borderopacity="1.0"
     inkscape:pageopacity="0.0"
     inkscape:pageshadow="2"
     inkscape:zoom="0.98994949"
     inkscape:cx="172.6855"
     inkscape:cy="703.35922"
     inkscape:document-units="mm"
     inkscape:current-layer="layer1"
     showgrid="false"
     inkscape:window-width="1366"
     inkscape:window-height="741"
     inkscape:window-x="0"
     inkscape:window-y="27"
     inkscape:window-maximized="1" />
  <metadata
     id="metadata5">
    <rdf:RDF>
      <cc:Work
         rdf:about="">
        <dc:format>image/svg+xml</dc:format>
        <dc:type
           rdf:resource="http://purl.org/dc/dcmitype/StillImage" />
        <dc:title></dc:title>
      </cc:Work>
    </rdf:RDF>
  </metadata>
  <g
     inkscape:label="Layer 1"
     inkscape:groupmode="layer"
     id="layer1">
    <rect
       style="fill:#00ffff;stroke-width:0.26458332"
       id="rect10"
       width="24.054256"
       height="51.583019"
       x="162.49986"
       y="134.50012" />
    <rect
       style="fill:#00ffff;stroke-width:0.26458332"
       id="rect12"
       width="28.063299"
       height="6.6817379"
       x="122.40945"
       y="154.81261" />
    <text
       xml:space="preserve"
       style="font-style:normal;font-weight:normal;font-size:8.20966053px;line-height:1.25;font-family:sans-serif;letter-spacing:0px;word-spacing:0px;fill:#000000;fill-opacity:1;stroke:none;stroke-width:0.20524153"
       x="160.15135"
       y="126.92633"
       id="text16"
       transform="scale(0.96456273,1.0367392)"><tspan
         sodipodi:role="line"
         id="tspan14"
         x="160.15135"
         y="126.92633"
         style="stroke-width:0.20524153">Problema</tspan></text>
    <text
       xml:space="preserve"
       style="font-style:normal;font-weight:normal;font-size:7.0694561px;line-height:1.25;font-family:sans-serif;letter-spacing:0px;word-spacing:0px;fill:#000000;fill-opacity:1;stroke:none;stroke-width:0.1767364"
       x="126.23736"
       y="151.03827"
       id="text20"
       transform="scale(0.9716165,1.0292127)"><tspan
         sodipodi:role="line"
         id="tspan18"
         x="126.23736"
         y="151.03827"
         style="stroke-width:0.1767364">Solução</tspan></text>
    <text
       xml:space="preserve"
       style="font-style:normal;font-weight:normal;font-size:10.58333302px;line-height:1.25;font-family:sans-serif;letter-spacing:0px;word-spacing:0px;fill:#000000;fill-opacity:1;stroke:none;stroke-width:0.26458332"
       x="99.691536"
       y="180.73775"
       id="text24"><tspan
         sodipodi:role="line"
         id="tspan22"
         x="99.691536"
         y="180.73775"
         style="stroke-width:0.26458332">Especialista</tspan></text>
    <text
       xml:space="preserve"
       style="font-style:normal;font-weight:normal;font-size:10.58333302px;line-height:1.25;font-family:sans-serif;letter-spacing:0px;word-spacing:0px;fill:#000000;fill-opacity:1;stroke:none;stroke-width:0.26458332"
       x="125.88395"
       y="124.07661"
       id="text28"><tspan
         sodipodi:role="line"
         id="tspan26"
         x="125.88395"
         y="124.07661"
         style="stroke-width:0.26458332">AG1</tspan></text>
    <path
       style="fill:none;stroke:#000000;stroke-width:0.26458332px;stroke-linecap:butt;stroke-linejoin:miter;stroke-opacity:1"
       d="m 134.1693,137.97463 c -0.44545,0 -0.8909,0 -1.33635,0 -0.0891,0 -0.20427,-0.063 -0.26727,0 -0.063,0.063 0.063,0.20427 0,0.26727 -0.12599,0.12599 -0.40854,-0.12599 -0.53453,0 -0.063,0.063 0.063,0.20427 0,0.26727 -0.063,0.063 -0.17819,0 -0.26728,0 -0.17817,0.26727 -0.37516,0.52291 -0.53453,0.80181 -0.19768,0.34592 -0.53454,0.67065 -0.53454,1.06907 0,0.0835 0.54448,0.89753 0.80181,1.06908 0.16575,0.11051 0.36371,0.16478 0.53454,0.26727 0.27544,0.16527 0.52636,0.36928 0.8018,0.53454 0.17083,0.1025 0.37517,0.14774 0.53454,0.26727 0.20159,0.15119 0.33777,0.37713 0.53454,0.53454 0.25083,0.20066 0.55098,0.33388 0.80181,0.53454 0.4254,0.34032 0.93239,0.93239 1.33635,1.33635 0.0891,0.0891 0.21092,0.15458 0.26727,0.26727 0.0398,0.0797 0,0.17818 0,0.26727 0,0.26726 0,0.53454 0,0.8018 0,0.0891 0,0.17818 0,0.26727 0,0.0891 0.063,0.20428 0,0.26727 -0.063,0.063 -0.17818,0 -0.26727,0"
       id="path34"
       inkscape:connector-curvature="0" />
    <path
       style="fill:none;stroke:#000000;stroke-width:0.26458332px;stroke-linecap:butt;stroke-linejoin:miter;stroke-opacity:1"
       d="m 136.842,172.71967 c -0.12352,-0.99152 0.64889,-1.75523 0.8018,-2.6727 0.0439,-0.26363 -0.0378,-0.53722 0,-0.80181 0.052,-0.36363 0.20689,-0.70675 0.26727,-1.06907 0.0586,-0.35152 0,-0.71272 0,-1.06908 0,-0.35636 0.0864,-0.72336 0,-1.06908 -0.13068,-0.52274 -0.57239,-0.11433 -0.8018,-0.26727 -0.20967,-0.13978 -0.32488,-0.39476 -0.53454,-0.53454 -0.046,-0.0307 -1.2982,0 -1.33635,0 -0.0891,0 -0.20427,0.063 -0.26727,0 -0.063,-0.063 0,-0.17818 0,-0.26727 0,-0.53454 0,-1.06908 0,-1.60362 0,-0.0891 0,-0.17817 0,-0.26727"
       id="path36"
       inkscape:connector-curvature="0" />
    <path
       style="fill:none;stroke:#000000;stroke-width:0.26458332px;stroke-linecap:butt;stroke-linejoin:miter;stroke-opacity:1"
       d="m 150.47275,154.8126 c 0.62362,0.71273 1.16305,1.50899 1.87088,2.13817 0.13317,0.11837 0.35636,0 0.53454,0 0.14933,0 1.17862,-0.0526 1.33635,0 1.93594,0.64531 -0.42138,-0.0771 0.80181,0.53454 0.16861,0.0843 1.16773,-0.0843 1.33634,0 0.11269,0.0563 0.17818,0.17817 0.26727,0.26726 0.17818,0 0.3655,-0.0563 0.53454,0 0.11953,0.0399 0.14504,0.23672 0.26727,0.26727 0.0583,0.0146 1.21474,-0.0608 1.33635,0 0.11269,0.0564 0.15458,0.21093 0.26727,0.26727 0.17712,0.0886 0.84507,-0.0747 1.06907,0 0.18899,0.063 0.35636,0.17818 0.53454,0.26727"
       id="path38"
       inkscape:connector-curvature="0" />
    <text
       xml:space="preserve"
       style="font-style:normal;font-weight:normal;font-size:6.33956432px;line-height:1.25;font-family:sans-serif;letter-spacing:0px;word-spacing:0px;fill:#000000;fill-opacity:1;stroke:none;stroke-width:0.15848909"
       x="167.09972"
       y="118.885"
       id="text42"
       transform="scale(0.7360287,1.3586427)"><tspan
         sodipodi:role="line"
         id="tspan40"
         x="167.09972"
         y="118.885"
         style="stroke-width:0.15848909">Parâmetros</tspan></text>
    <text
       xml:space="preserve"
       style="font-style:normal;font-weight:normal;font-size:6.33956432px;line-height:1.25;font-family:sans-serif;letter-spacing:0px;word-spacing:0px;fill:#000000;fill-opacity:1;stroke:none;stroke-width:0.15848911"
       x="165.50819"
       y="98.338783"
       id="text42-3"
       transform="scale(0.73602869,1.3586427)"><tspan
         sodipodi:role="line"
         id="tspan40-6"
         x="165.50819"
         y="98.338783"
         style="stroke-width:0.15848911">Parâmetros</tspan></text>
    <text
       xml:space="preserve"
       style="font-style:normal;font-weight:normal;font-size:7.33863878px;line-height:1.25;font-family:sans-serif;letter-spacing:0px;word-spacing:0px;fill:#000000;fill-opacity:1;stroke:none;stroke-width:0.18346597"
       x="200.57419"
       y="47.699169"
       id="text64"
       transform="scale(0.75679907,1.3213547)"><tspan
         sodipodi:role="line"
         id="tspan62"
         x="200.57419"
         y="47.699169"
         style="stroke-width:0.18346597">Tx Mut</tspan><tspan
         sodipodi:role="line"
         x="200.57419"
         y="56.872471"
         style="stroke-width:0.18346597"
         id="tspan66">Tam Pop</tspan><tspan
         sodipodi:role="line"
         x="200.57419"
         y="66.045761"
         style="stroke-width:0.18346597"
         id="tspan68">Periodo Predação</tspan><tspan
         sodipodi:role="line"
         x="200.57419"
         y="75.219063"
         style="stroke-width:0.18346597"
         id="tspan70">Periodo Genocídios</tspan><tspan
         sodipodi:role="line"
         x="200.57419"
         y="84.392357"
         style="stroke-width:0.18346597"
         id="tspan72">...</tspan></text>
    <path
       style="fill:none;stroke:#000000;stroke-width:0.26458332px;stroke-linecap:butt;stroke-linejoin:miter;stroke-opacity:1"
       d="m 131.76387,112.04948 c 0,-1.95997 0,-3.91995 0,-5.87992 0,-0.27794 -0.0526,-1.39338 0,-1.60362 0.0483,-0.19326 0.20428,-0.34555 0.26728,-0.53454 0.0947,-0.284 -0.0947,-0.78507 0,-1.06908 0.063,-0.18899 0.19328,-0.34958 0.26726,-0.53454 0.10463,-0.26157 0.14128,-0.54982 0.26727,-0.80181 0.0564,-0.11269 0.22048,-0.15029 0.26727,-0.26727 0.13642,-0.34105 0.15111,-0.7206 0.26727,-1.06907 0.126,-0.37798 0.40855,-0.691106 0.53454,-1.069082 0.0282,-0.08452 0,-0.178178 0,-0.267269 0.0891,-0.178181 0.20428,-0.345551 0.26727,-0.53454 0.0282,-0.08452 -0.0398,-0.187585 0,-0.267269 0.0564,-0.112691 0.22743,-0.147743 0.26727,-0.267269 0.0564,-0.169037 -0.0432,-0.36168 0,-0.53454 0.32266,-1.29063 0.12701,0.01326 0.53454,-0.801807 0.0398,-0.07968 -0.0216,-0.18084 0,-0.267271 0.0683,-0.273315 0.16264,-0.540232 0.26727,-0.801807 0.21903,-0.547568 0.61545,-1.044551 0.80181,-1.603618 0.0282,-0.08452 -0.0282,-0.182751 0,-0.267269 0.12599,-0.377976 0.43791,-0.682554 0.53454,-1.069078 0.0432,-0.17286 -0.0563,-0.365504 0,-0.534541 0.0398,-0.119525 0.19738,-0.162438 0.26727,-0.267268 0.221,-0.331507 0.31353,-0.737571 0.53454,-1.069078 0.0699,-0.104831 0.19738,-0.162439 0.26727,-0.267269 0.1105,-0.165754 0.15676,-0.368787 0.26726,-0.534541 0.0699,-0.10483 0.17819,-0.178178 0.26727,-0.267269 0.26728,-0.267268 0.53454,-0.53454 0.80181,-0.801809 0.80181,-0.801809 1.60362,-1.603615 2.40543,-2.405425 0.0891,-0.08909 0.17818,-0.178181 0.26727,-0.267269 0.17818,-0.178181 0.35636,-0.712718 0.53454,-0.53454 0.17818,0.178181 -0.64723,0.75992 -0.53454,0.53454 0.31809,-0.63619 0.8453,-1.11257 1.33635,-1.603618 0.62362,-0.623628 1.24725,-1.247256 1.87088,-1.870887 0.17818,-0.178179 0.35636,-0.35636 0.53454,-0.534538 0.0891,-0.08909 0.15458,-0.210926 0.26727,-0.267269 0.0797,-0.03984 0.18759,0.03984 0.26727,0 0.11269,-0.05634 0.15458,-0.210926 0.26727,-0.267271 0.0797,-0.03984 0.17818,0 0.26727,0 0.17818,-0.08909 0.36879,-0.156766 0.53454,-0.267269 0.10483,-0.06989 0.17818,-0.178178 0.26727,-0.267269 0.17818,-0.08909 0.36879,-0.156768 0.53454,-0.267269 0.10483,-0.06989 0.21092,-0.15458 0.26727,-0.267271 0.0398,-0.07968 -0.0891,-0.267269 0,-0.267269 0.0891,0 -0.0891,0.267269 0,0.267269 0.12599,0 0.15458,-0.210923 0.26727,-0.267269 0.0797,-0.03984 0.17818,0 0.26727,0 0.0891,0 0.26727,-0.08909 0.26727,0 0,0.393261 -0.88643,-0.619152 0,0.267269"
       id="path74"
       inkscape:connector-curvature="0" />
    <path
       style="fill:none;stroke:#000000;stroke-width:0.26458332px;stroke-linecap:butt;stroke-linejoin:miter;stroke-opacity:1"
       d="m 152.07636,50.310227 c -2.46412,0.616026 0.58079,-0.174239 -2.6727,0.801806 -1.11112,0.333338 -1.72946,0.314489 -2.67269,1.069078 -0.82573,0.660583 -0.30301,0.320876 -0.80181,1.069078 -0.0699,0.104833 -0.21092,0.15458 -0.26727,0.267272 -0.0398,0.07968 0,0.178178 0,0.267269 0,0.08909 0,0.178178 0,0.267268 0,1.519963 -0.11953,0.175959 0.26727,1.336347 0.0845,0.253556 -0.0648,0.54252 0,0.801809 0.0966,0.386528 0.43791,0.682554 0.53454,1.069079 0.0432,0.17286 -0.0563,0.365503 0,0.53454 0.0398,0.119525 0.22743,0.147743 0.26727,0.267269 0.0845,0.253553 0,0.534537 0,0.801809 0,0.623628 0,1.247256 0,1.870885 0,0.178181 0,0.356362 0,0.53454 0,0.178181 -0.0432,0.36168 0,0.53454 0.0433,0.17336 0.68826,1.433293 0.80181,1.603616 0.1622,0.2433 0.68336,0.564917 0.80181,0.801809 0.0767,0.153429 -0.0569,1.108845 0,1.336347 0.0483,0.193262 0.20427,0.345551 0.26727,0.53454 0.0845,0.253553 -0.0648,0.542518 0,0.801807 0.0483,0.193265 0.20427,0.345551 0.26727,0.53454 0.0563,0.169037 -0.0797,0.375172 0,0.534538 0.11269,0.225383 0.42184,0.309158 0.53453,0.53454 0.0399,0.07968 -0.0398,0.187585 0,0.267269 0.40753,0.815054 0.21189,-0.48882 0.53454,0.801809 0.0432,0.172861 0,0.35636 0,0.534538 0.0891,0.178181 0.20428,0.345551 0.26727,0.53454 0.0747,0.224005 -0.0886,0.891953 0,1.069078 0.88642,0.886421 -0.12599,-0.251983 0.26727,0.534538 0.11269,0.225383 0.47343,0.290079 0.53454,0.534541 0,0.267268 0,0.534537 0,0.801809 0.0891,0.08909 0.22743,0.147743 0.26727,0.267269 0.004,0.01262 0.0248,1.796319 0,1.870887 -0.0398,0.119525 -0.17818,0.178178 -0.26727,0.267269 -0.0891,0.08909 -0.15458,0.210923 -0.26727,0.267269 -0.0797,0.03984 -0.20427,-0.063 -0.26727,0 -0.063,0.063 0.063,0.204274 0,0.267271 -0.12599,0.125992 -0.40854,-0.125995 -0.53454,0 -0.063,0.063 0.063,0.204272 0,0.267269 -0.063,0.063 -0.26727,0.08909 -0.26727,0 0,-0.08909 0.35636,0 0.26727,0 -1.21668,0 -0.0153,-0.125992 -0.80181,0.267269 -0.0797,0.03984 -0.23909,-0.08452 -0.26726,0 -0.0845,0.253555 0.0648,0.54252 0,0.801809 -0.0306,0.122229 -0.26727,0.141277 -0.26727,0.267269 0,0.05033 1.03326,-0.05372 1.06907,0 0.15628,0.23441 0.19895,0.528494 0.26727,0.801809 0.0432,0.17286 -0.0797,0.375169 0,0.534538 0.0564,0.112691 0.22743,0.147743 0.26727,0.267271 0.0564,0.169035 0,0.35636 0,0.534538 0,0.44545 0,0.8909 0,1.336347 0,0.890899 0,1.781797 0,2.672696 0,0.623628 0,1.247257 0,1.870887 0,0.178179 0,0.35636 0,0.534538 0,0.178181 0.0564,0.365504 0,0.534541 -0.0398,0.119525 -0.21092,0.154577 -0.26727,0.267268 -0.0797,0.15937 0.0797,0.375172 0,0.534538 -0.0563,0.112691 -0.21092,0.15458 -0.26727,0.267272 -0.0398,0.07968 0.0282,0.18275 0,0.267268 -0.12599,0.377976 -0.40854,0.691103 -0.53454,1.069078 -0.0563,0.169037 0.0432,0.361681 0,0.534538 -0.0683,0.273317 -0.17817,0.534541 -0.26726,0.801809 -0.0891,0.267272 -0.12233,0.560232 -0.26727,0.80181 -0.12965,0.216074 -0.38335,0.332951 -0.53454,0.53454 -0.3503,0.467064 -0.26503,0.79733 -0.53454,1.336347 -0.0743,0.148503 -0.53454,0.44836 -0.53454,0.534538 0,1.425437 0.5008,-0.633125 0.26727,0.53454 -0.072,0.360193 -0.13085,0.728022 -0.26727,1.069078 -0.0468,0.11698 -0.17818,0.178178 -0.26727,0.267269 -0.0891,0.356359 -0.20688,0.706749 -0.26727,1.069078 -0.0293,0.175755 0,0.356359 0,0.53454 0,0.445447 0,0.890897 0,1.336347 0,0.32625 -0.10371,0.616318 0.26727,0.801809 0.0797,0.03984 0.17818,0 0.26727,0 0.0891,0 0.35636,0 0.26727,0 -0.17818,0 -0.53454,-0.178181 -0.53454,0 0,0.19921 0.44545,0.08909 0.53454,0.267272 0.11953,0.23905 -0.0524,0.53973 0,0.80181 0.0781,0.39068 0.40855,0.6911 0.53454,1.06907 0.0196,0.0589 0.0221,1.5152 0,1.60362 -0.0483,0.19327 -0.21896,0.34128 -0.26727,0.53454 -0.0432,0.17286 0,0.35636 0,0.53454 0,0.17818 0,0.35636 0,0.53454 0,0.17818 0,0.35636 0,0.53454 0,0.0891 -0.0282,0.18275 0,0.26727 0.64531,1.93594 -0.0771,-0.42138 0.53454,0.8018 0.35807,0.71615 0.26727,1.36942 0.26727,2.13816 0,0.71272 0,1.42544 0,2.13816 0,0.0635 -0.03,1.00917 0,1.06907 0.16513,0.33027 0.25804,0.26728 0.53454,0.26728 0.0891,0 0.18758,0.0398 0.26726,0 0.1127,-0.0564 0.15458,-0.21093 0.26727,-0.26728 0.0797,-0.0398 0.18759,0.0399 0.26727,0 0.22538,-0.11268 0.30916,-0.42184 0.53454,-0.53453 0.15937,-0.0797 0.37517,0.0797 0.53454,0 0.0696,-0.0348 0.32561,-0.47621 0.53454,-0.26727 0.063,0.063 0.063,0.20427 0,0.26727 -0.063,0.063 -0.17818,0 -0.26727,0"
       id="path78"
       inkscape:connector-curvature="0" />
    <path
       style="fill:none;stroke:#000000;stroke-width:0.26458332px;stroke-linecap:butt;stroke-linejoin:miter;stroke-opacity:1"
       d="m 131.76387,112.04948 c -0.80181,-0.53454 -1.56304,-1.13562 -2.40542,-1.60361 -0.0779,-0.0433 -0.0398,0.18758 0,0.26727 0.11269,0.22538 0.42185,0.30916 0.53454,0.53454 0.0398,0.0797 -0.0398,0.18758 0,0.26727 0.0564,0.11269 0.15458,0.21092 0.26727,0.26727 0.0797,0.0398 0.26727,-0.0891 0.26727,0 0,0.0891 -0.17818,0 -0.26727,0 0.53454,0.0891 1.19216,-0.0854 1.60361,0.26726 2.23866,-0.30156 -0.11592,1.22043 0.26728,1.60362 0.063,0.063 0.18758,-0.0398 0.26726,0 0.1127,0.0564 0.14128,0.26727 0.26727,0.26727 0.0891,0 0,-0.17818 0,-0.26727 0,-0.26727 -0.0648,-0.54252 0,-0.80181 0.11636,-0.46544 0.31999,-0.90723 0.53454,-1.33634 0.0563,-0.11269 0.22743,-0.14775 0.26727,-0.26727 0.11269,-0.33808 -0.11269,-0.73101 0,-1.06908 0.0398,-0.11953 0.20245,-0.15923 0.26727,-0.26727 0.20499,-0.34164 0.32338,-0.73122 0.53454,-1.06908 0.23609,-0.37774 0.57263,-0.68711 0.80181,-1.06908 0.0458,-0.0764 -0.0398,-0.18758 0,-0.26727 0.0563,-0.11269 0.17818,-0.17817 0.26727,-0.26727 0.0891,-0.26726 0.17818,-0.53454 0.26727,-0.8018"
       id="path80"
       inkscape:connector-curvature="0" />
    <text
       xml:space="preserve"
       style="font-style:normal;font-weight:normal;font-size:10.58333302px;line-height:1.25;font-family:sans-serif;letter-spacing:0px;word-spacing:0px;fill:#000000;fill-opacity:1;stroke:none;stroke-width:0.26458332"
       x="30.735994"
       y="70.889977"
       id="text84"><tspan
         sodipodi:role="line"
         id="tspan82"
         x="30.735994"
         y="70.889977"
         style="stroke-width:0.26458332">AG2</tspan></text>
    <text
       xml:space="preserve"
       style="font-style:normal;font-weight:normal;font-size:6.33956432px;line-height:1.25;font-family:sans-serif;letter-spacing:0px;word-spacing:0px;fill:#000000;fill-opacity:1;stroke:none;stroke-width:0.15848911"
       x="35.509884"
       y="58.405025"
       id="text42-3-7"
       transform="scale(0.73602869,1.3586427)"><tspan
         sodipodi:role="line"
         id="tspan40-6-5"
         x="35.509884"
         y="58.405025"
         style="stroke-width:0.15848911">Parâmetros</tspan></text>
    <rect
       style="fill:#00ffff;stroke-width:0.26458332"
       id="rect104"
       width="52.652096"
       height="9.8889723"
       x="66.282845"
       y="62.070084" />
    <text
       xml:space="preserve"
       style="font-style:normal;font-weight:normal;font-size:8.55051708px;line-height:1.25;font-family:sans-serif;letter-spacing:0px;word-spacing:0px;fill:#000000;fill-opacity:1;stroke:none;stroke-width:0.21376291"
       x="67.099358"
       y="55.037704"
       id="text108"
       transform="scale(0.96983232,1.0311061)"><tspan
         sodipodi:role="line"
         id="tspan106"
         x="67.099358"
         y="55.037704"
         style="stroke-width:0.21376291">Cromossomo</tspan></text>
    <path
       style="fill:none;stroke:#000000;stroke-width:0.26458332px;stroke-linecap:butt;stroke-linejoin:miter;stroke-opacity:1"
       d="m 121.60763,54.853808 c 0.35636,-0.08909 0.70889,-0.195231 1.06908,-0.267269 0.26208,-0.05242 0.53454,0 0.80181,0 0.53454,0 1.06908,0 1.60362,0 0.21516,0 0.90132,-0.05592 1.06908,0 0.18898,0.06299 0.36878,0.156765 0.53454,0.267269 0.10483,0.06989 0.14774,0.227427 0.26726,0.267268 0.16904,0.05635 0.36551,-0.05635 0.53454,0 0.11953,0.03984 0.16648,0.191675 0.26727,0.267269 0.25698,0.192733 0.5145,0.390888 0.80181,0.534541 0.0797,0.03984 0.18275,-0.02817 0.26727,0 0.48542,0.161806 0.49601,0.228742 0.80181,0.534537 0.0891,0.08909 0.16244,0.197382 0.26727,0.267272 0.10031,0.571693 0.56516,0.148944 0.80181,0.267269 0.11269,0.05635 0.15458,0.210923 0.26727,0.267269 0.0797,0.03984 0.18758,-0.03984 0.26727,0 0.11269,0.05635 0.17817,0.178181 0.26727,0.267268 0.38376,0.383763 0.9167,1.000631 1.33634,1.33635 0.25083,0.200663 0.54484,0.341807 0.80181,0.534538 0.1008,0.0756 0.16244,0.197381 0.26727,0.267268 0.16576,0.110504 0.36879,0.156769 0.53454,0.267272 0.20966,0.139774 0.30916,0.421846 0.53454,0.534538 0.0797,0.03984 0.17818,0 0.26727,0 0.17818,0.08909 0.37517,0.147743 0.53454,0.267269 0.30238,0.226787 0.48731,0.592145 0.80181,0.801809 0.16575,0.110503 0.37517,0.147743 0.53454,0.267271 0.30238,0.226785 0.48731,0.592143 0.8018,0.801807 0.1346,0.588838 0.54983,0.141277 0.80181,0.267271 0.11269,0.05634 0.15458,0.210923 0.26727,0.267269 0.0797,0.03984 0.18759,-0.03984 0.26727,0 0.11269,0.05635 0.15458,0.210923 0.26727,0.267269 0.18461,0.0923 1.24253,-0.09382 1.33635,0 0,0.393261 -0.063,0.204274 0.26727,0.53454"
       id="path110"
       inkscape:connector-curvature="0" />
    <path
       style="fill:none;stroke:#000000;stroke-width:0.26458332px;stroke-linecap:butt;stroke-linejoin:miter;stroke-opacity:1"
       d="m 140.85104,63.406432 c 0.35636,-0.712719 0.62707,-1.475142 1.06908,-2.138156 0.0988,-0.148254 -0.0564,0.365503 0,0.53454 0.0398,0.119526 0.22742,0.147741 0.26727,0.267269 0.0845,0.253553 0,0.534538 0,0.801809 0,0.890897 -0.26727,0.801807 0.26727,0.801807 0.0891,0 0.20427,-0.063 0.26727,0 0.12599,0.125992 -0.0797,0.375171 0,0.53454 0.0563,0.112691 0.21092,0.154578 0.26727,0.267269 0.0398,0.07968 0.0891,0.267269 0,0.267269 -0.0891,0 0,-0.356359 0,-0.267269 0,0.178181 0,0.356359 0,0.53454 0,0.08909 0.0398,0.187585 0,0.267269 -0.0564,0.112692 -0.17818,0.178179 -0.26727,0.267269 -0.0891,0.08909 -0.15458,0.210923 -0.26727,0.267269 -0.0813,0.04067 -0.68144,0 -0.80181,0 -0.0891,0 -0.20428,-0.063 -0.26727,0 -0.063,0.063 0.063,0.204274 0,0.267271 -0.063,0.063 -0.17818,0 -0.26727,0 -0.1859,0 -1.23969,-0.04833 -1.33635,0 -0.11269,0.05634 -0.15458,0.210924 -0.26727,0.267269 -0.10098,0.05049 -1.26812,0 -1.60362,0 -0.18589,0 -1.23969,-0.04833 -1.33634,0 -0.11269,0.05635 -0.26727,0.141277 -0.26727,0.267269 0,0.08909 0.23418,0.08272 0.26727,0 0.52315,-1.307883 0.89089,-2.672696 1.33634,-4.009043"
       id="path112"
       inkscape:connector-curvature="0" />
    <text
       xml:space="preserve"
       style="font-style:normal;font-weight:normal;font-size:6.18421507px;line-height:1.25;font-family:sans-serif;letter-spacing:0px;word-spacing:0px;fill:#000000;fill-opacity:1;stroke:none;stroke-width:0.15460539"
       x="31.780464"
       y="77.284096"
       id="text64-3"
       transform="scale(0.83446473,1.198373)"><tspan
         sodipodi:role="line"
         id="tspan62-5"
         x="31.780464"
         y="77.284096"
         style="stroke-width:0.15460539">Tx Mut</tspan><tspan
         sodipodi:role="line"
         x="31.780464"
         y="85.014366"
         style="stroke-width:0.15460539"
         id="tspan66-6">Tam Pop</tspan><tspan
         sodipodi:role="line"
         x="31.780464"
         y="92.744637"
         style="stroke-width:0.15460539"
         id="tspan68-2">Periodo Predação</tspan><tspan
         sodipodi:role="line"
         x="31.780464"
         y="100.4749"
         style="stroke-width:0.15460539"
         id="tspan70-9">Periodo Genocídios</tspan><tspan
         sodipodi:role="line"
         x="31.780464"
         y="108.20517"
         style="stroke-width:0.15460539"
         id="tspan72-1">...</tspan></text>
    <path
       style="fill:none;stroke:#000000;stroke-width:0.26458332px;stroke-linecap:butt;stroke-linejoin:miter;stroke-opacity:1"
       d="m 10.95805,53.517461 c 0,12.116218 0,24.232435 0,36.348653 0,2.494516 0,4.989031 0,7.483547 0,0.97999 -0.09751,1.96484 0,2.939969 0.245818,2.45818 0.779367,2.78593 1.870887,5.07812 0.462814,0.9719 0.907129,1.95276 1.336348,2.93996 0.663196,1.52535 1.726801,4.40854 2.672695,5.87993 0.272525,0.42393 0.830147,0.62535 1.069078,1.06908 0.4007,0.74416 0.468876,1.62858 0.801809,2.40543 0.204632,0.47747 0.590828,0.86164 0.801808,1.33634 0.149186,0.33567 0.130848,0.72803 0.26727,1.06908 0.221955,0.55489 0.579853,1.04873 0.801808,1.60362 0.216852,0.54213 0.156542,1.13112 0.534539,1.60362 0.23612,0.29515 0.534539,0.53454 0.801809,0.8018 0.17818,0.44545 0.280265,0.92951 0.534539,1.33635 0.200327,0.32053 0.550695,0.51931 0.801808,0.80181 0.462274,0.52006 0.92709,1.04089 1.336348,1.60362 2.830946,3.89255 -1.633165,-1.47576 2.138155,2.67269 0.468056,0.51486 0.895734,1.06509 1.33635,1.60362 0.361233,0.44151 0.623628,0.97999 1.069078,1.33635 0.466672,0.37334 1.112247,0.46163 1.603616,0.8018 0.675322,0.46754 1.229508,1.09052 1.870887,1.60362 0.695674,0.55654 1.437627,1.0532 2.138156,1.60362 0.01288,0.0101 3.202874,2.66968 3.207234,2.6727 0.590553,0.40884 1.259171,0.69263 1.870887,1.06907 0.02434,0.015 3.199702,2.13439 3.207234,2.13816 0.680824,0.34041 1.448385,0.47991 2.138157,0.80181 0.65088,0.30374 1.247259,0.71272 1.870887,1.06908 0.712719,0.35636 1.409991,0.74545 2.138156,1.06907 1.216596,0.54072 3.490023,1.37558 4.81085,1.87089 0.712718,0.26727 1.425437,0.53454 2.138156,0.80181 0.712719,0.26727 1.3951,0.63668 2.138156,0.80181 0.874022,0.19423 1.785564,0.1463 2.672696,0.26727 1.073886,0.14644 2.132513,0.39436 3.207235,0.53454 0.975764,0.12727 1.973315,0.0831 2.939965,0.26727 0.913699,0.17403 1.752859,0.66383 2.672694,0.8018 2.402649,0 2.762321,-0.0984 5.078121,0.26727 0.897424,0.1417 1.775272,0.39284 2.672697,0.53454 0.796869,0.12582 1.608555,0.14145 2.405424,0.26727 0.897425,0.1417 1.767885,0.45229 2.672697,0.53454 3.333213,0.30302 2.932335,-0.3757 6.147199,0.26727 6.875495,1.3751 -2.006494,0.31375 4.81085,1.33635 0.973143,0.14597 1.966823,0.1213 2.939966,0.26727 0.812281,0.12184 1.592312,0.41838 2.405425,0.53454 1.062003,0.15171 2.142736,0.13421 3.207236,0.26727 1.07545,0.13443 2.13055,0.41031 3.20723,0.53454 1.2422,0.14333 2.501,0.11217 3.74178,0.26727 0.90152,0.11269 1.78179,0.35636 2.67269,0.53453 0.8909,0.17819 1.79128,0.31419 2.6727,0.53454 0.90235,0.22559 1.77269,0.56703 2.67269,0.80181 1.15012,0.30003 2.3374,0.45574 3.47451,0.80181 0.91795,0.27938 1.7487,0.81036 2.67269,1.06908 1.31234,0.36745 2.68428,0.48204 4.00904,0.80181 1.26096,0.30437 2.45599,0.89764 3.74178,1.06908 1.41293,0.18839 2.85145,-0.0407 4.27631,0 1.69436,0.0484 3.38833,0.13386 5.07812,0.26726 9.25164,0.7304 0.83374,0.53454 10.69078,0.53454 1.42544,0 2.86064,0.16655 4.27631,0 1.63149,-0.19193 3.19047,-0.79901 4.81085,-1.06907 8.32083,-1.38681 -3.21361,1.61481 8.01809,-1.87089 8.07627,-2.20262 -1.98057,0.66019 5.61266,-1.87089 0.96365,-0.32122 2.03142,-0.34753 2.93996,-0.8018 0.90855,-0.45428 1.60362,-1.24726 2.40543,-1.87089 0.30499,-0.23721 4.05179,-3.17396 4.54358,-3.4745 5.23409,-3.19862 0.19876,0.48453 5.07812,-2.6727 0.74798,-0.48398 1.40402,-1.0989 2.13816,-1.60362 0.69258,-0.47615 1.47728,-0.81708 2.13816,-1.33635 5.62573,-4.42022 -2.99885,1.42694 3.74177,-3.20723 3.05643,-2.1013 1.08881,-0.67804 4.00904,-2.13816 0.77665,-0.38832 3.47525,-2.2004 3.74178,-2.40542 0.39945,-0.30728 0.67902,-0.74995 1.06907,-1.06908 0.59315,-0.4853 1.28214,-0.84572 1.87089,-1.33635 0.48395,-0.40329 0.87022,-0.91259 1.33635,-1.33635 3.47231,-3.15664 0.25423,0.013 2.40542,-2.13815 0.35636,-0.35636 0.75968,-0.67127 1.06908,-1.06908 1.34625,-1.73089 0.17984,-0.91778 1.60362,-2.13816 0.33821,-0.28989 0.71746,-0.52832 1.06908,-0.80181 0.45028,-0.35022 0.875,-0.73355 1.33635,-1.06907 0.80346,-0.58434 3.02051,-1.97268 3.74177,-2.40543 1.5092,-0.90552 3.436,-1.84009 4.81085,-2.93996 0.39353,-0.31483 0.69241,-0.73426 1.06908,-1.06908 0.2589,-0.23014 1.84244,-1.37803 2.13815,-1.87089 0.0917,-0.15279 -0.0293,-0.35878 0,-0.53454 0.0604,-0.36233 0.22171,-0.70458 0.26727,-1.06907 0.10305,-0.82437 -0.10325,-1.84666 0,-2.6727 0.0564,-0.45076 0.16873,-0.89289 0.26727,-1.33635 1.01669,-4.57508 -0.37592,2.36417 0.26727,-2.13815 0.0398,-0.2789 0.23233,-0.52226 0.26727,-0.80181 0.0553,-0.44201 0,-0.8909 0,-1.33635 0,-0.44545 0,-0.8909 0,-1.33635 0,-0.62363 0,-1.24726 0,-1.87088 0,-0.53454 0.14065,-1.08792 0,-1.60362 -0.13668,-0.50118 -0.58684,-0.86343 -0.80181,-1.33635 -0.23316,-0.51295 -0.34198,-1.07409 -0.53453,-1.60362 -0.16396,-0.45087 -0.40831,-0.87349 -0.53455,-1.33635 -0.14258,-0.52281 -0.0959,-1.089507 -0.26726,-1.603611 -0.18899,-0.566965 -0.55137,-1.060992 -0.80181,-1.603618 -0.28433,-0.616038 -0.45994,-1.284822 -0.80181,-1.870885 -0.28744,-0.492747 -0.79863,-0.83408 -1.06908,-1.336349 -1.98634,-3.688927 0.45561,-0.648544 -1.87089,-4.009044 -0.26776,-0.386776 -2.76562,-3.256571 -2.93996,-3.474503 -0.55654,-0.695674 -1.06908,-1.425437 -1.60362,-2.138156 -0.53454,-0.712719 -1.13144,-1.382675 -1.60361,-2.138156 -1.76778,-2.828441 -0.44852,-1.600536 -2.13816,-4.81085 -0.44882,-0.852757 -1.08903,-1.590667 -1.60362,-2.405428 -1.54605,-2.447917 -1.38342,-2.35182 -2.67269,-4.543581 -0.52678,-0.895514 -1.09906,-1.764482 -1.60362,-2.672696 -0.38698,-0.696566 -0.57129,-1.515925 -1.06908,-2.138156 -0.59161,-0.739511 -1.56993,-1.113256 -2.13816,-1.870885 -0.52646,-0.701947 -0.69802,-1.610312 -1.06907,-2.405427 -0.25273,-0.541565 -0.5053,-1.084726 -0.80181,-1.603616 -0.41699,-0.729734 -0.90393,-1.417458 -1.33635,-2.138156 -0.36954,-0.615908 -0.69953,-1.25498 -1.06908,-1.870887 -0.43242,-0.720699 -0.91286,-1.412174 -1.33634,-2.138156 -0.83324,-1.428404 -0.18426,-0.794052 -1.33635,-2.138157 -0.24599,-0.28698 -0.53454,-0.53454 -0.80181,-0.801809 -0.62363,-0.623628 -1.24726,-1.247256 -1.87089,-1.870887 -0.35636,-0.356359 -0.71272,-0.712719 -1.06908,-1.069078 -0.26726,-0.267269 -0.47769,-0.607341 -0.80181,-0.801807 -0.8441,-0.506462 -2.7699,-1.141976 -3.74177,-1.336349 -0.70432,-0.140862 -1.42868,-0.155247 -2.13815,-0.267269 -0.98387,-0.155347 -1.94709,-0.45511 -2.93997,-0.53454 -1.24328,-0.09946 -2.49964,0.112921 -3.74177,0 -1.70664,-0.155149 -3.38108,-0.563626 -5.07812,-0.801807 -3.38146,-0.474591 -6.78491,-0.794528 -10.15624,-1.336349 -2.26443,-0.363924 -7.66289,-1.868327 -9.88898,-2.138157 -1.23819,-0.150082 -2.49747,0.08581 -3.74177,0 -1.34498,-0.09276 -2.66854,-0.390914 -4.00904,-0.534537 -1.15498,-0.123749 -2.32267,-0.117031 -3.47451,-0.267269 -0.90091,-0.117512 -1.76824,-0.448403 -2.67269,-0.53454 -0.97558,-0.09291 -1.95998,0 -2.93997,0 -2.93996,0 -5.87993,0 -8.81989,0 -1.33635,0 -2.67566,0.08889 -4.00904,0 -1.34519,-0.08968 -2.66367,-0.447742 -4.00905,-0.534538 -1.42248,-0.09177 -2.85087,0 -4.27631,0 -1.60362,0 -3.20723,0 -4.81085,0 -7.39446,0 -14.788915,0 -22.183371,0 -5.969021,0 -11.938039,0 -17.90706,0 -1.158166,0 -2.316335,0 -3.474503,0 -0.979988,0 -1.96536,-0.10259 -2.939965,0 -3.206279,0.337502 -1.044284,0.645541 -4.009041,1.069078 -0.617363,0.08819 -1.252075,-0.07735 -1.870887,0 -4.561965,0.570243 -0.317712,0.537691 -4.543584,0.801806 -0.71133,0.04446 -1.4326,-0.100793 -2.138156,0 -0.557789,0.07968 -1.056987,0.397883 -1.603616,0.534541 -0.525732,0.131432 -1.080003,0.127637 -1.603618,0.267269 -0.816642,0.21777 -1.574721,0.646051 -2.405425,0.801809 -0.612947,0.114927 -1.248638,-0.04148 -1.870888,0 -0.716674,0.04778 -1.430819,0.142446 -2.138156,0.267269 -2.606918,0.460044 -2.027348,0.63406 -4.543581,0.801809 -1.152247,0.07682 -2.615816,-0.165791 -3.741774,0.267269 -0.599615,0.230621 -1.058831,0.728588 -1.603616,1.069078 -0.168931,0.105582 -0.378981,0.142824 -0.53454,0.267269 -0.295148,0.236122 -0.534538,0.53454 -0.801807,0.801809 -0.356359,0.356359 -0.712719,0.712719 -1.069078,1.069078 -0.08909,0.08909 -0.162438,0.197382 -0.267271,0.267271 -0.165754,0.110501 -0.428956,0.09834 -0.534538,0.267269 -0.359598,0.575355 -0.446215,1.293045 -0.801809,1.870887 -0.291997,1.155396 -1.543082,1.512814 -2.138156,2.405425 -2.829978,4.244967 1.838621,-1.560597 -2.138157,3.741772 -0.302381,0.403175 -0.712718,0.712719 -1.069078,1.069078 -0.712718,0.712719 -1.468519,1.384816 -2.138156,2.138156 -0.437114,0.491755 -1.24089,1.688161 -1.870887,2.138157 -0.324209,0.231579 -0.744868,0.302961 -1.069078,0.53454 -0.307571,0.219694 -0.487313,0.592145 -0.801808,0.801809 -0.234411,0.156274 -0.53802,0.168349 -0.801809,0.267269 -1.365018,0.511881 -1.190631,0.461679 -2.405425,1.069078"
       id="path144"
       inkscape:connector-curvature="0" />
    <path
       style="fill:none;stroke:#000000;stroke-width:0.26458332px;stroke-linecap:butt;stroke-linejoin:miter;stroke-opacity:1"
       d="m 113.32228,167.64155 c 0.97999,0.97999 1.95997,1.95997 2.93996,2.93996 0.26727,0.26727 0.49424,0.58212 0.80181,0.80181 0.32421,0.23158 0.76657,0.27525 1.06908,0.53454 0.33821,0.28989 0.52354,0.72124 0.80181,1.06908 0.35017,0.43771 0.24622,0.16414 0.80181,0.53454 0.10483,0.0699 0.17818,0.17817 0.26727,0.26727 0.71271,0.71271 1.42543,1.42543 2.13815,2.13815 0.17818,0.17818 0.33777,0.37713 0.53454,0.53454 0.4362,0.34896 1.81665,1.13541 2.13816,1.33635 0.27239,0.17024 0.52291,0.37517 0.80181,0.53454 0.34592,0.19767 0.71272,0.35636 1.06908,0.53454 0.17817,0.0891 0.37898,0.14282 0.53453,0.26727 0.39354,0.31482 0.71272,0.71271 1.06908,1.06907 0.0891,0.0891 0.15458,0.21093 0.26727,0.26727 0.15425,0.0771 1.22634,-0.0733 1.33635,0 0.20966,0.13978 0.35636,0.35636 0.53454,0.53454 0.17818,0.17818 0.35636,0.35636 0.53454,0.53454 0.0891,0.0891 0.16244,0.19738 0.26727,0.26727 0.16575,0.1105 0.36371,0.16478 0.53453,0.26727 0.6275,0.37649 0.72541,0.55743 1.33635,0.80181 0.26158,0.10463 0.54983,0.14128 0.80181,0.26727 0.28731,0.14365 0.50357,0.41524 0.80181,0.53454 0.16544,0.0662 0.3655,-0.0563 0.53454,0 0.11953,0.0398 0.16244,0.19738 0.26727,0.26727 -0.16428,0.4394 0.68348,0.2081 0.80181,0.26727 0.66053,0.33026 -0.0923,0.26727 0.53454,0.26727 0.18944,0 1.53451,0.0345 1.60361,0 0.1127,-0.0564 0.15458,-0.21093 0.26727,-0.26727 0.0797,-0.0398 0.26727,-0.0891 0.26727,0 0,0.0891 -0.17818,0 -0.26727,0 0.53454,0.44545 1.21765,0.75739 1.60362,1.33634 0.35977,0.53966 0.26615,1.28044 0.53454,1.87089 0.18433,0.40552 0.57736,0.68431 0.80181,1.06908 0.4015,0.6883 0.66757,1.44986 1.06908,2.13816 0.22444,0.38477 0.55471,0.69844 0.80181,1.06907 0.28815,0.43224 0.48287,0.9263 0.8018,1.33635 0.40432,0.95792 1.53188,1.14335 2.13816,1.87089 0.18036,0.21643 0.0982,0.57642 0.26727,0.80181 0.11953,0.15937 0.36878,0.15676 0.53454,0.26727 0.48903,0.32602 0.0267,0.34075 0.80181,0.53454 0.25929,0.0648 0.53454,0 0.80181,0 0.15972,0 0.53453,0.063 0.53453,-0.26727 0,-0.0891 -0.17818,0 -0.26727,0"
       id="path146"
       inkscape:connector-curvature="0" />
    <path
       style="fill:none;stroke:#000000;stroke-width:0.26458332px;stroke-linecap:butt;stroke-linejoin:miter;stroke-opacity:1"
       d="m 120.53856,192.49761 c 3.07082,-1.70601 1.54659,-1.01428 4.54358,-2.13815 0.57197,-0.21449 2.09333,-0.81509 2.93996,-1.06908 3.44666,-1.034 0.35731,-0.03 3.47451,-1.06908 3.36908,-1.12303 -0.0352,0.0466 2.93996,-1.06908 0.26379,-0.0989 0.54983,-0.14127 0.80181,-0.26727 0.11269,-0.0563 0.15458,-0.21092 0.26727,-0.26727 0.0797,-0.0398 0.18758,0.0399 0.26727,0 0.11269,-0.0563 0.15458,-0.21092 0.26727,-0.26727 0.15937,-0.0797 0.37517,0.0797 0.53454,0 0.32072,-0.16036 0.48108,-0.64144 0.80181,-0.80181 0.0797,-0.0398 0.18385,0.0313 0.26726,0 0.63529,-0.23823 1.23854,-0.55589 1.87089,-0.8018 0.97187,-0.37795 1.98707,-0.64557 2.93997,-1.06908 0.65635,-0.29172 1.23847,-0.72855 1.87088,-1.06908 0.5262,-0.28334 1.05955,-0.55451 1.60362,-0.80181 0.43676,-0.19853 0.91516,-0.3048 1.33635,-0.53454 0.56399,-0.30763 1.06908,-0.71272 1.60362,-1.06908 0.81385,-0.54257 1.0421,-0.67332 1.87088,-1.33634 0.70932,-0.56746 1.05918,-1.43817 1.60362,-2.13816 0.38676,-0.49726 0.8909,-0.8909 1.33635,-1.33635 0.17818,-0.17818 0.39476,-0.32487 0.53454,-0.53454 0.0191,-0.0287 1.00803,-1.89396 1.06907,-2.13815 0.33897,-1.35586 -0.97886,0.55055 0.53454,-1.87089 0.20033,-0.32052 0.57503,-0.49943 0.80181,-0.80181 0.0534,-0.0713 -0.0398,-0.18758 0,-0.26727 0.0563,-0.11269 0.20245,-0.15923 0.26727,-0.26727 0.30748,-0.51246 0.53454,-1.06908 0.80181,-1.60361"
       id="path148"
       inkscape:connector-curvature="0" />
    <path
       style="fill:none;stroke:#000000;stroke-width:0.26458332px;stroke-linecap:butt;stroke-linejoin:miter;stroke-opacity:1"
       d="m 109.5805,111.24768 c -2.4189,1.36188 -4.02891,3.62943 -5.87992,5.61266 -0.0153,0.0164 -3.73631,3.73521 -3.741778,3.74177 -0.775746,0.9309 -1.375723,1.99814 -2.138157,2.93996 -3.084946,3.42772 -1.669568,1.7266 -4.276312,5.07813 -1.053666,1.35471 -1.824297,1.79486 -2.138156,3.20723 -0.117557,0.52901 -0.124682,1.0808 -0.267269,1.60362 -0.126235,0.46285 -0.455668,0.86311 -0.53454,1.33635 -0.102523,0.61514 0,1.24725 0,1.87088 0,0.8909 0,1.7818 0,2.6727 0,3.11814 0,6.23629 0,9.35443 0,0.71272 0,1.42544 0,2.13816 0,0.26727 -0.04394,0.53817 0,0.8018 0.139316,0.8359 0.649774,1.43932 1.069078,2.13816 0.102494,0.17082 0.164777,0.36372 0.267272,0.53454 0.165264,0.27544 0.415239,0.50356 0.534537,0.80181 0.06618,0.16543 -0.07968,0.37517 0,0.53454 0.112692,0.22538 0.404895,0.31846 0.534541,0.53454 0.144946,0.24158 0.141276,0.54982 0.267268,0.80181 0.143653,0.2873 0.369274,0.52636 0.534538,0.8018 0.102494,0.17083 0.156768,0.36879 0.267272,0.53454 0.06989,0.10484 0.178178,0.17818 0.267268,0.26727 0.35636,0.35636 0.712719,0.71272 1.069079,1.06908 0.356359,0.35636 0.712718,0.71272 1.069078,1.06908 0.178178,0.17818 0.332951,0.38335 0.534537,0.53454 0.721162,0.54087 0.437989,-0.004 1.33635,0.53454 0.216074,0.12964 0.337772,0.37712 0.534538,0.53454 0.501657,0.40132 1.10196,0.66775 1.603616,1.06907 0.19677,0.15742 0.33777,0.37713 0.53454,0.53454 0.25083,0.20067 0.53454,0.35636 0.80181,0.53454 0.53454,0.35636 1.08085,0.69567 1.60362,1.06908 0.36247,0.25891 0.69133,0.56572 1.06908,0.80181 0.5953,0.37207 2.54311,1.17099 2.93996,1.33635 1.32662,0.55276 2.69582,1.01996 4.00904,1.60361 0.36408,0.16182 0.72315,0.33687 1.06908,0.53454 0.27889,0.15937 0.50104,0.42176 0.80181,0.53454 0.42535,0.15951 0.89564,0.15709 1.33635,0.26727 0.27331,0.0683 0.52679,0.20616 0.8018,0.26727 0.42433,0.0943 3.16041,0.5121 3.47451,0.53454 0.62204,0.0444 1.25207,-0.0773 1.87088,0 0.81503,0.10188 1.59813,0.38317 2.40543,0.53454 0.61917,0.11609 1.24579,0.18913 1.87089,0.26727 0.30386,0.038 4.11157,0.44196 4.54358,0.53454 0.55095,0.11806 1.04582,0.45485 1.60362,0.53454 0.70555,0.10079 1.42543,0 2.13815,0 0.53454,0 1.06908,0 1.60362,0 2.40543,0 4.81085,0 7.21628,0 3.38541,0 6.77083,0 10.15624,0 1.24726,0 2.49451,0 3.74177,0 0.44545,0 0.8909,0 1.33635,0 0.26727,0 0.53885,0.0478 0.80181,0 5.09621,-0.92659 -0.60157,-0.22549 4.00904,-0.80181 0.80052,-0.10007 1.60312,-0.18282 2.40543,-0.26727 0.89042,-0.0937 1.79474,-0.0917 2.67269,-0.26727 1.28997,-0.25799 3.78235,-1.22251 5.07812,-1.60362 0.70481,-0.20729 1.43695,-0.31541 2.13816,-0.53454 0.62044,-0.19388 3.35762,-1.25619 4.00904,-1.60361 1.03498,-0.55199 2.25067,-1.37291 3.20724,-2.13816 0.54334,-0.43467 1.0521,-0.9121 1.60361,-1.33635 0.60745,-0.46727 1.22432,-0.9249 1.87089,-1.33635 0.33613,-0.2139 0.75458,-0.28993 1.06908,-0.53453 0.49726,-0.38676 0.8681,-0.91493 1.33635,-1.33635 3.45976,-3.11379 -0.59529,0.86256 2.40542,-2.13816 0.80181,-0.80181 1.60362,-1.60362 2.40543,-2.40542 0.35636,-0.35636 0.68643,-0.74111 1.06907,-1.06908 0.24389,-0.20905 0.61511,-0.27316 0.80181,-0.53454 0.27886,-0.3904 0.30155,-0.91696 0.53454,-1.33635 0.21633,-0.38939 0.6026,-0.67066 0.80181,-1.06908 0.16428,-0.32854 0.085,-0.75015 0.26727,-1.06908 0.5838,-1.02165 0.86561,-0.59834 1.60362,-1.33634 0.22714,-0.22714 0.39089,-0.51451 0.53454,-0.80181 0.12599,-0.25199 0.16264,-0.54023 0.26727,-0.80181 0.074,-0.18496 0.19328,-0.34958 0.26727,-0.53454 0.10463,-0.26158 0.16264,-0.54023 0.26727,-0.80181 0.24927,-0.62317 0.4079,-0.57655 0.53454,-1.33635 0.0439,-0.26363 0,-0.53454 0,-0.8018 0,-0.8909 0,-1.7818 0,-2.6727 0,-0.53454 0,-1.06908 0,-1.60362 0,-0.26727 0.0734,-0.54482 0,-0.80181 -0.10946,-0.38309 -0.35636,-0.71271 -0.53454,-1.06907 -0.91248,-1.82496 -0.12465,-0.3598 -1.06908,-1.87089 -0.27533,-0.44052 -0.51365,-0.90411 -0.80181,-1.33635 -0.24709,-0.37063 -0.55472,-0.69844 -0.80181,-1.06908 -0.0256,-0.0384 -1.59538,-2.66327 -1.60362,-2.67269 -0.29333,-0.33523 -0.77574,-0.46657 -1.06908,-0.80181 -0.34207,-0.39095 -0.5039,-0.91077 -0.8018,-1.33635 -0.32714,-0.46733 -0.79205,-0.83768 -1.06908,-1.33635 -0.17839,-0.3211 -0.085,-0.75014 -0.26727,-1.06907 -0.18753,-0.32818 -0.61428,-0.47364 -0.80181,-0.80181 -0.18225,-0.31893 -0.12257,-0.73145 -0.26727,-1.06908 -0.12653,-0.29524 -0.37517,-0.52291 -0.53454,-0.80181 -0.19767,-0.34592 -0.31353,-0.73757 -0.53454,-1.06908 -0.10969,-0.16453 -0.95938,-0.90454 -1.06908,-1.06907 -0.221,-0.33151 -0.31353,-0.73757 -0.53453,-1.06908 -0.13978,-0.20967 -0.35636,-0.35636 -0.53454,-0.53454 -1.02922,-1.02922 -0.0153,-0.0657 -1.60362,-1.33635 -0.0984,-0.0787 -0.16648,-0.19167 -0.26727,-0.26727 -0.94613,-0.7096 -0.57609,-0.41648 -1.60362,-0.80181 -1.06275,-0.39853 -1.81693,-0.78832 -2.93996,-1.06907 -0.52573,-0.13144 -1.07374,-0.15373 -1.60362,-0.26727 -0.71834,-0.15394 -1.42303,-0.36628 -2.13815,-0.53454 -0.79954,-0.18813 -1.61403,-0.31471 -2.40543,-0.53454 -0.81435,-0.22621 -1.59948,-0.5473 -2.40543,-0.80181 -1.48925,-0.53044 -3.03676,-0.86547 -4.54358,-1.33635 -0.80671,-0.2521 -1.58548,-0.59682 -2.40542,-0.80181 -0.0681,-0.017 -3.70315,-0.52166 -3.74178,-0.53454 -0.49282,-0.16427 -0.84814,-0.62428 -1.33635,-0.8018 -0.50928,-0.1852 -1.09433,-0.0821 -1.60361,-0.26728 -0.48821,-0.17752 -0.83518,-0.66512 -1.33635,-0.8018 -0.5157,-0.14065 -1.0777,0.0956 -1.60362,0 -0.47202,-0.0858 -0.87504,-0.40274 -1.33634,-0.53454 -0.78977,-0.22565 -1.62621,-0.2748 -2.40543,-0.53454 -0.56696,-0.18899 -1.01622,-0.69167 -1.60362,-0.80181 -0.87564,-0.16418 -1.7879,0.10409 -2.67269,0 -0.64415,-0.0758 -1.2349,-0.40734 -1.87089,-0.53454 -0.70432,-0.14086 -1.42711,-0.16569 -2.13815,-0.26727 -0.53647,-0.0766 -1.06331,-0.2257 -1.60362,-0.26727 -0.6218,-0.0478 -1.24884,0.0444 -1.87089,0 -4.96683,-0.35477 0.71011,-0.0183 -3.20723,-0.80181 -0.33409,-0.0668 -1.9778,0.0535 -2.40543,0 -0.36449,-0.0456 -0.70888,-0.19523 -1.06908,-0.26727 -0.24054,-0.0481 -0.55592,0 -0.80181,0 -0.53453,0 -1.06907,0 -1.60361,0 -0.8909,0 -1.78272,-0.0405 -2.6727,0 -7.34483,0.33386 0.36082,0.26727 -5.61266,0.26727 -1.78179,0 -3.56359,0 -5.34539,0 -0.44545,0 -0.8909,0 -1.33635,0 -0.35636,0 -0.71272,0 -1.06908,0 -0.0891,0 -0.18758,-0.0398 -0.26726,0 -0.52467,0.26234 -0.12033,0.50792 -0.26727,0.80181 -0.0714,0.14275 -0.6611,0.6611 -0.80181,0.80181"
       id="path152"
       inkscape:connector-curvature="0" />
    <text
       xml:space="preserve"
       style="font-style:normal;font-weight:normal;font-size:10.58333302px;line-height:1.25;font-family:sans-serif;letter-spacing:0px;word-spacing:0px;fill:#000000;fill-opacity:1;stroke:none;stroke-width:0.26458332"
       x="49.044365"
       y="134.74715"
       id="text24-2"><tspan
         sodipodi:role="line"
         id="tspan22-7"
         x="49.044365"
         y="134.74715"
         style="stroke-width:0.26458332">Especialista</tspan></text>
    <path
       style="fill:none;stroke:#000000;stroke-width:0.26458332px;stroke-linecap:butt;stroke-linejoin:miter;stroke-opacity:1"
       d="m 111.98593,131.56016 c 0.35636,0 0.71964,0.0699 1.06908,0 0.12354,-0.0247 0.15458,-0.21092 0.26727,-0.26727 0.15937,-0.0797 0.3655,0.0564 0.53454,0 0.18899,-0.063 0.34555,-0.20427 0.53454,-0.26727 0.16775,-0.0559 0.85391,0 1.06907,0 0.44545,0 0.8909,0 1.33635,0 0.17563,0 0.65102,-0.0503 0.80181,0 0.18899,0.063 0.34555,0.20427 0.53454,0.26727 0.15079,0.0503 0.62618,0 0.80181,0 0.13976,0 0.9988,-0.0351 1.06908,0 0.11269,0.0564 0.26727,0.14128 0.26727,0.26727 0,0.12599 -0.17818,0.17818 -0.26727,0.26727"
       id="path172"
       inkscape:connector-curvature="0" />
    <path
       style="fill:none;stroke:#000000;stroke-width:0.26458332px;stroke-linecap:butt;stroke-linejoin:miter;stroke-opacity:1"
       d="m 120.00402,131.82743 c -0.35636,-1.06908 -0.71272,-2.13816 -1.06908,-3.20723 0,0.0891 -0.063,0.20427 0,0.26726 0.063,0.063 0.20427,-0.063 0.26727,0 0.75256,0.0166 0.0681,0.6026 0.26727,0.80181 0.063,0.063 0.20427,-0.063 0.26727,0 0.55299,0.55299 -0.84505,-0.0216 0.26727,0.53454 0.0797,0.0398 0.18758,-0.0398 0.26727,0 0.11269,0.0564 0.17818,0.17818 0.26727,0.26727 0.0891,0.0891 0.31406,0.15029 0.26726,0.26727 -0.16543,0.41359 -0.58547,0.67969 -0.8018,1.06908 -0.233,0.41939 -0.38283,0.8812 -0.53454,1.33635 -0.0282,0.0845 0.063,0.20427 0,0.26727 -0.063,0.063 -0.20428,-0.063 -0.26727,0 -0.063,0.063 0,0.17818 0,0.26727 -0.0891,0 -0.18759,-0.0398 -0.26727,0 -0.11269,0.0563 -0.15458,0.21092 -0.26727,0.26727 -0.0797,0.0398 -0.31449,0.0755 -0.26727,0 0.47218,-0.75548 1.06908,-1.42544 1.60362,-2.13816"
       id="path174"
       inkscape:connector-curvature="0" />
    <path
       style="fill:none;stroke:#000000;stroke-width:0.26458332px;stroke-linecap:butt;stroke-linejoin:miter;stroke-opacity:1"
       d="m 70.291885,122.74027 c 0.376698,0.84757 1.31359,3.05367 1.870887,4.00904 0.323705,0.55492 0.745374,1.04869 1.069078,1.60362 0.301131,0.51622 0.534538,1.06907 0.80181,1.60361 0.356359,0.53454 0.738547,1.05274 1.069078,1.60362 0.409971,0.68329 0.659103,1.45487 1.069078,2.13816 0.06482,0.10803 0.178178,0.17818 0.267268,0.26727 0.08909,0.0891 0.147744,0.22742 0.267269,0.26726 0.169037,0.0563 0.381752,-0.0917 0.534541,0 0.324112,0.19447 0.534537,0.53455 0.801806,0.80181 0.35636,0.35636 0.712719,0.71272 1.069078,1.06908 0.178181,0.17818 0.35636,0.35636 0.534541,0.53454 0.08909,0.0891 0.154577,0.21093 0.267268,0.26727 0.15937,0.0797 0.365504,-0.0563 0.534541,0 0.235958,0.0786 1.392124,0.66082 1.603616,0.80181 0.209663,0.13977 0.356359,0.35636 0.53454,0.53454 0.140708,0.14071 0.659064,0.73044 0.801806,0.80181 0.07968,0.0398 0.211617,-0.0696 0.267272,0 0.324514,0.40564 0.549526,0.88224 0.801807,1.33634 0.738605,1.3295 0.206099,0.74064 0.801809,1.33635 0.612806,0.61281 -0.112692,-0.16903 0.53454,0.80181 0.06989,0.10483 0.178178,0.35636 0.267269,0.26727 0.125992,-0.12599 0,-0.35636 0,-0.53454"
       id="path176"
       inkscape:connector-curvature="0" />
    <path
       style="fill:none;stroke:#000000;stroke-width:0.26458332px;stroke-linecap:butt;stroke-linejoin:miter;stroke-opacity:1"
       d="m 87.664403,125.14569 c -0.890897,0 -1.781797,0 -2.672694,0 -0.08909,0 -0.178181,0 -0.267269,0 -0.08909,0 -0.193143,-0.0494 -0.267271,0 -0.209662,0.13978 -0.35636,0.35636 -0.534538,0.53454 -0.08909,0.0891 -0.150289,0.22048 -0.267269,0.26727 -0.341056,0.13642 -0.720603,0.15111 -1.069078,0.26727 -0.33818,0.11273 -1.148675,0.63759 -1.33635,0.80181 -0.758549,0.66373 -1.425437,1.42544 -2.138156,2.13816 -0.178178,0.17817 -0.324874,0.39476 -0.534537,0.53453 -0.165754,0.11051 -0.403358,0.11735 -0.534541,0.26727 -1.329751,0.30532 -1.025424,1.63451 -1.603616,2.40543 -0.302381,0.40317 -0.801975,0.64171 -1.069078,1.06908 -0.316746,0.50679 -0.505301,1.08472 -0.801809,1.60361 -0.06242,0.10923 -0.525851,0.47373 -0.534537,0.53454 -0.0756,0.52917 0,1.06908 0,1.60362 0,0.26727 0.06482,0.54252 0,0.80181 -0.06112,0.24446 -0.421849,0.30916 -0.534541,0.53454 -0.214556,0.42911 -0.382825,0.8812 -0.53454,1.33635 -0.02817,0.0845 0.03984,0.18758 0,0.26727 -0.05529,0.11058 -0.688523,0.72628 -0.801807,0.8018 -0.165753,0.11051 -0.44545,0.0891 -0.53454,0.26727 -1.167913,2.33583 0.296889,0.77219 -0.534538,1.60362 -0.330266,0.33027 -0.141279,0.26727 -0.53454,0.26727"
       id="path178"
       inkscape:connector-curvature="0" />
  </g>
</svg>
